[
    {
        "callsign":"OE1XFW",
        "name":"Laaerberg Turm",
        "band":"70cm",
        "freq_tx":431.05,
        "freq_rx":438.65,
        "ctcss_tx":null,
        "ctcss_rx":null,
        "dmr":false,
        "dmr_id":null,
        "dstar":false,
        "dstar_rpt1":"",
        "dstar_rpt2":"",
        "fm":true,
        "landmark":"Oberlaa Stadt",
        "state":"Wien",
        "country":"Austria",
        "country_code":"AUT",
        "loc_exact":true,
        "lat":48.157173,
        "long":16.396717,
        "locator":"JN88ED",
        "sea_level":252,
        "scan_group":null,
        "source_id":"oevsv-repeater-db",
        "source_name":"ÖVSV-Repeater Database",
        "source_provider":"ÖVSV UKW Referat",
        "source_type":"dynamic",
        "source_license":"CC BY 4.0",
        "source_url":"https:\/\/www.oevsv.at\/funkbetrieb\/amateurfunkfrequenzen\/ukw-referat\/",
        "offset":7.6,
        "dup":"-",
        "ctcss":false,
        "simplex":false,
        "split":false,
        "multimode":false,
        "name_formatted":"OE1XFW",
        "distance":null,
        "heading":null
    },
    {
        "callsign":"OE1XFU",
        "name":"Satzberg",
        "band":"70cm",
        "freq_tx":431.4,
        "freq_rx":439.0,
        "ctcss_tx":162.2,
        "ctcss_rx":162.2,
        "dmr":false,
        "dmr_id":null,
        "dstar":false,
        "dstar_rpt1":"",
        "dstar_rpt2":"",
        "fm":true,
        "landmark":"Hütteldorf",
        "state":"Wien",
        "country":"Austria",
        "country_code":"AUT",
        "loc_exact":true,
        "lat":48.2152725968,
        "long":16.2613320351,
        "locator":"JN88DF",
        "sea_level":435,
        "scan_group":null,
        "source_id":"oevsv-repeater-db",
        "source_name":"ÖVSV-Repeater Database",
        "source_provider":"ÖVSV UKW Referat",
        "source_type":"dynamic",
        "source_license":"CC BY 4.0",
        "source_url":"https:\/\/www.oevsv.at\/funkbetrieb\/amateurfunkfrequenzen\/ukw-referat\/",
        "offset":7.6,
        "dup":"-",
        "ctcss":true,
        "simplex":false,
        "split":false,
        "multimode":false,
        "name_formatted":"OE1XFU",
        "distance":null,
        "heading":null
    }
]
