callsign,name,band,freq_tx,freq_rx,ctcss_tx,ctcss_rx,dmr,dmr_id,dstar,dstar_rpt1,dstar_rpt2,fm,landmark,state,country,country_code,loc_exact,lat,long,locator,sea_level,scan_group,source_id,source_name,source_provider,source_type,source_license,source_url,offset,dup,ctcss,simplex,split,multimode,name_formatted,distance,heading
OE1XFW,Laaerberg Turm,70cm,431.05,438.65,,,False,,False,,,True,Oberlaa Stadt,Wien,Austria,AUT,True,48.157173,16.396717,JN88ED,252,,oevsv-repeater-db,ÖVSV-Repeater Database,ÖVSV UKW Referat,dynamic,CC BY 4.0,https://www.oevsv.at/funkbetrieb/amateurfunkfrequenzen/ukw-referat/,7.6,-,False,False,False,False,OE1XFW,,
OE1XFU,Satzberg,70cm,431.4,439.0,162.2,162.2,False,,False,,,True,Hütteldorf,Wien,Austria,AUT,True,48.21527259679771,16.2613320350647,JN88DF,435,,oevsv-repeater-db,ÖVSV-Repeater Database,ÖVSV UKW Referat,dynamic,CC BY 4.0,https://www.oevsv.at/funkbetrieb/amateurfunkfrequenzen/ukw-referat/,7.6,-,True,False,False,False,OE1XFU,,

