Location,Name,Frequency,Duplex,Offset,Tone,rToneFreq,cToneFreq,DtcsCode,DtcsPolarity,RxDtcsCode,CrossMode,Mode,TStep,Skip,Comment,URCALL,RPT1CALL,RPT2CALL,DVCODE
00,Feuerko-5XFK,438.15,-,7.6,TSQL,123.0,123.0,023,NN,023,Tone->Tone,FM,5,,Feuerkogel 70cm,,,,
01,St.Bart-6XFD,438.2,-,7.6,TSQL,103.5,103.5,023,NN,023,Tone->Tone,FM,5,,St. Bartholomä 70cm,,,,
02,Ehrwald-7XET,438.225,-,7.6,Tone,88.5,136.5,023,NN,023,Tone->Tone,FM,5,,Ehrwald 70cm,,,,
03,FHWrNeu-3XVJ,438.225,-,7.6,TSQL,162.2,162.2,023,NN,023,Tone->Tone,FM,5,,FH Wr Neustadt 70cm,,,,
04,Hainfel-3XOR,438.3,-,7.6,TSQL,162.2,162.2,023,NN,023,Tone->Tone,FM,5,,Hainfelder Hütte 70cm,,,,
05,Hochste-7XLI,438.3,-,7.6,TSQL,77.0,77.0,023,NN,023,Tone->Tone,FM,5,,Hochstein 70cm,,,,
06,Klippit-8XKP,438.3,-,7.6,Tone,88.5,88.5,023,NN,023,Tone->Tone,FM,5,,Klippitztörl 70cm,,,,
07,Porrtow-1XBA,438.3125,-,7.6,TSQL,162.2,162.2,023,NN,023,Tone->Tone,FM,5,,Porrtower 70cm,,,,
08,Gaisber-2XZR,438.4,-,7.6,Tone,88.5,88.5,023,NN,023,Tone->Tone,FM,5,,Gaisberg 70cm,,,,
09,HoheWan-3XTR,438.4,-,7.6,Tone,88.5,162.2,023,NN,023,Tone->Tone,FM,5,,Hohe Wand 70cm,,,,
10,Senften-5XDN,438.425,-,7.6,TSQL,123.0,123.0,023,NN,023,Tone->Tone,FM,5,,Senftenbach/Wolfau 70cm,,,,
11,Hermann-1XAT,438.475,-,7.6,TSQL,162.2,162.2,023,NN,023,Tone->Tone,FM,5,,Hermannskogel 70cm,,,,
12,Hollbru-7XJH,438.5,-,7.6,Tone,88.5,77.0,023,NN,023,Tone->Tone,FM,5,,Hollbruck 70cm,,,,
13,Gebhart-9XFV,438.525,-,7.6,TSQL,85.4,85.4,023,NN,023,Tone->Tone,FM,5,,Gebhartsberg 70cm,,,,
14,Kindber-6XME,438.525,-,7.6,,88.5,88.5,023,NN,023,Tone->Tone,FM,5,,Kindberg 70cm,,,,
15,Villach-8XVK,438.55,-,7.6,TSQL,88.5,88.5,023,NN,023,Tone->Tone,FM,5,,Villach LKH 70cm,,,,
16,Breiten-5XOL,438.575,-,7.6,TSQL,123.0,123.0,023,NN,023,Tone->Tone,FM,5,,Breitenstein 70cm,,,,
17,Magdale-8XMK,438.575,-,7.6,TSQL,88.5,88.5,023,NN,023,Tone->Tone,FM,5,,Magdalensberg 70cm,,,,
18,Dornbir-9XXD,438.5875,-,7.6,TSQL,85.4,85.4,023,NN,023,Tone->Tone,FM,5,,Dornbirn Erlosenstraße 70cm,,,,
19,Jauerli-3XWJ,438.6,-,7.6,TSQL,162.2,162.2,023,NN,023,Tone->Tone,FM,5,,Jauerling 70cm,,,,
20,Weinber-7XWT,438.6,-,7.6,Tone,88.5,77.0,023,NN,023,Tone->Tone,FM,5,,Weinbergerhaus 70cm,,,,
21,Iselsbe-7XLH,438.625,-,7.6,,88.5,88.5,023,NN,023,Tone->Tone,FM,5,,Iselsberg-Stronach 70cm,,,,
22,Karren -9XKV,438.625,-,7.6,TSQL,85.4,85.4,023,NN,023,Tone->Tone,FM,5,,Karren 70cm,,,,
23,Stuhlec-6XCD,438.625,-,7.6,,88.5,88.5,023,NN,023,Tone->Tone,FM,5,,Stuhleck 70cm,,,,
24,Laaerbe-1XFW,438.65,-,7.6,,88.5,88.5,023,NN,023,Tone->Tone,FM,5,,Laaerberg Turm 70cm,,,,
25,Lichten-5XLL,438.65,-,7.6,,88.5,88.5,023,NN,023,Tone->Tone,FM,5,,Lichtenberg 70cm,,,,
26,Rossegg-8XCK,438.65,-,7.6,,88.5,88.5,023,NN,023,Tone->Tone,FM,5,,Rossegger Str/LWZ 70cm,,,,
27,Seegrub-7XLR,438.65,-,7.6,Tone,88.5,77.0,023,NN,023,Tone->Tone,FM,5,,Seegrube 70cm,,,,
28,Lachtal-6XDG,438.675,-,7.6,TSQL,103.5,103.5,023,NN,023,Tone->Tone,FM,5,,Lachtal 70cm,,,,
29,Hintera-3XPC,438.7,-,7.6,Tone,88.5,162.2,023,NN,023,Tone->Tone,FM,5,,Hinteralm 70cm,,,,
30,Hunerko-5XDM,438.725,-,7.6,,88.5,88.5,023,NN,023,Tone->Tone,FM,5,,Hunerkogel 70cm,,,,
31,Sonnenb-4XSB,438.725,-,7.6,Tone,88.5,97.4,023,NN,023,Tone->Tone,FM,5,,Sonnenberg im Leithagebirge 70cm,,,,
32,Damberg-5XHO,438.75,-,7.6,,88.5,88.5,023,NN,023,Tone->Tone,FM,5,,Damberg 70cm,,,,
33,HoheWan-3XHW,438.75,-,7.6,,88.5,88.5,023,NN,023,Tone->Tone,FM,5,,Hohe Wand 70cm,,,,
34,Ungerdo-6XGD,438.75,-,7.6,,88.5,88.5,023,NN,023,Tone->Tone,FM,5,,Ungerdorf 70cm,,,,
35,Grambac-6XCG,438.775,-,7.6,,88.5,88.5,023,NN,023,Tone->Tone,FM,5,,Grambach 70cm,,,,
36,LinzFro-5XBR,438.775,-,7.6,,88.5,88.5,023,NN,023,Tone->Tone,FM,5,,Linz Froschberg 70cm,,,,
37,Buschbe-3XNS,438.8,-,7.6,,88.5,88.5,023,NN,023,Tone->Tone,FM,5,,Buschberg 70cm,,,,
38,Gruenbe-5XGL,438.8,-,7.6,TSQL,123.0,123.0,023,NN,023,Tone->Tone,FM,5,,Grünberg 70cm,,,,
39,Zirbitz-6XMD,438.8,-,7.6,,88.5,88.5,023,NN,023,Tone->Tone,FM,5,,Zirbitzkogel 70cm,,,,
40,Duenser-9XVV,438.825,-,7.6,TSQL,85.4,85.4,023,NN,023,Tone->Tone,FM,5,,Dünserberg 70cm,,,,
41,Hochkoe-2XHM,438.825,-,7.6,,88.5,88.5,023,NN,023,Tone->Tone,FM,5,,Hochkönig Matrashaus 70cm,,,,
42,Hutwisc-3XCR,438.8375,-,7.6,Tone,88.5,97.4,023,NN,023,Tone->Tone,FM,5,,Hutwisch 70cm,,,,
43,Hochkog-3XDA,438.85,-,7.6,,88.5,88.5,023,NN,023,Tone->Tone,FM,5,,Hochkogel 70cm,,,,
44,Nebelst-3XNR,438.875,-,7.6,,88.5,88.5,023,NN,023,Tone->Tone,FM,5,,Nebelstein 70cm,,,,
45,Schoeck-6XAG,438.875,-,7.6,TSQL,103.5,103.5,023,NN,023,Tone->Tone,FM,5,,Schöckl 70cm,,,,
46,Schoenj-7XOI,438.875,-,7.6,,88.5,88.5,023,NN,023,Tone->Tone,FM,5,,Schönjöchl 70cm,,,,
47,Dobrats-8XFK,438.9,-,7.6,TSQL,88.5,88.5,023,NN,023,Tone->Tone,FM,5,,Dobratsch 70cm,,,,
48,Gallzei-7XFI,438.9,-,7.6,,88.5,88.5,023,NN,023,Tone->Tone,FM,5,,Gallzein Kogelmoos 70cm,,,,
49,Sonntag-3XRB,438.9,-,7.6,,88.5,88.5,023,NN,023,Tone->Tone,FM,5,,Sonntagberg 70cm,,,,
50,Gefrore-7XGR,438.925,-,7.6,TSQL,77.0,77.0,023,NN,023,Tone->Tone,FM,5,,Gefrorene Wand 70cm,,,,
51,Rittman-3XSU,438.925,-,7.6,,88.5,88.5,023,NN,023,Tone->Tone,FM,5,,Rittmannsberg 70cm,,,,
52,Kahlenb-1XUU,438.95,-,7.6,TSQL,162.2,162.2,023,NN,023,Tone->Tone,FM,5,,Kahlenberg 70cm,,,,
53,Pfarrki-5XDO,438.95,-,7.6,,88.5,88.5,023,NN,023,Tone->Tone,FM,5,,Pfarrkirchen 70cm,,,,
54,Ahorn  -7XZT,438.975,-,7.6,Tone,88.5,77.0,023,NN,023,Tone->Tone,FM,5,,Ahorn 70cm,,,,
55,Jochgra-3XFW,438.975,-,7.6,TSQL,162.2,162.2,023,NN,023,Tone->Tone,FM,5,,Jochgrabenberg 70cm,,,,
56,Speiere-2XNM,438.975,-,7.6,,88.5,88.5,023,NN,023,Tone->Tone,FM,5,,Speiereck 70cm,,,,
57,Sternst-5XIM,438.975,-,7.6,TSQL,123.0,123.0,023,NN,023,Tone->Tone,FM,5,,Sternstein 70cm,,,,
58,Stradne-6XBF,438.975,-,7.6,,88.5,88.5,023,NN,023,Tone->Tone,FM,5,,Stradner Kogel 70cm,,,,
59,Gaberl/-6XNG,439.0,-,7.6,,88.5,88.5,023,NN,023,Tone->Tone,FM,5,,Gaberl/Wiedneralm 70cm,,,,
60,Goldeck-8XDK,439.0,-,7.6,Tone,88.5,88.5,023,NN,023,Tone->Tone,FM,5,,Goldeck 70cm,,,,
61,Satzber-1XFU,439.0,-,7.6,TSQL,162.2,162.2,023,NN,023,Tone->Tone,FM,5,,Satzberg 70cm,,,,
62,TelfsAr-7XKG,439.0,-,7.6,TSQL,77.0,77.0,023,NN,023,Tone->Tone,FM,5,,Telfs Arzbergstraße 70cm,,,,
63,Frauens-3XEU,439.025,-,7.6,Tone,88.5,136.5,023,NN,023,Tone->Tone,FM,5,,Frauenstaffel 70cm,,,,
64,Giesshu-3XLU,439.025,-,7.6,,88.5,88.5,023,NN,023,Tone->Tone,FM,5,,Gießhübel 70cm,,,,
65,Harschb-7XFJ,439.025,-,7.6,Tone,88.5,77.0,023,NN,023,Tone->Tone,FM,5,,Harschbichl 70cm,,,,
66,Gerlitz-8XKQ,439.05,-,7.6,TSQL,88.5,88.5,023,NN,023,Tone->Tone,FM,5,,Gerlitzen 70cm,,,,
67,Pichlin-6XPF,439.05,-,7.6,,88.5,88.5,023,NN,023,Tone->Tone,FM,5,,Pichling 70cm,,,,
68,Rangger-7XBI,439.05,-,7.6,,88.5,88.5,023,NN,023,Tone->Tone,FM,5,,Rangger Köpfl 70cm,,,,
69,Troppbe-3XEB,439.05,-,7.6,,88.5,88.5,023,NN,023,Tone->Tone,FM,5,,Troppberg 70cm,,,,
70,Hochwec-3XWU,439.075,-,7.6,TSQL,162.2,162.2,023,NN,023,Tone->Tone,FM,5,,Hochwechsel 70cm,,,,
71,Petzen -8XPK,439.0875,-,7.6,,88.5,88.5,023,NN,023,Tone->Tone,FM,5,,Petzen 70cm,,,,
72,Eisener-6XRE,439.1,-,7.6,Tone,88.5,103.5,023,NN,023,Tone->Tone,FM,5,,Eisenerzer Reichenstein 70cm,,,,