Zone,CH Num,CH Name,RX Freq,TX Freq,RX TS,TX TS,RX CC,TX CC,Type,Power,Bandwidth,RX Only,Contact Name,RX Group Name,Scan List Name,Alarm,Prompt,PCT,MSG Type,TX Policy,EAS,TX Tone Type,TX Tone,RX Tone Type,RX Tone,APRS CH,Relay Monitor,Relay Mode
DMR,1,8XPK-D-Pet,145737500,145137500,TS1,TS1,1,1,DIGITAL,HIGH,12.5KHz,OFF,OFF,OFF,OFF,OFF,OFF,PATCS,UNCONFIRMED,IMPOLITE,OFF,OFF,0,OFF,0,0,OFF,OFF
DMR,2,6XAG-D-Sch,437975000,430375000,TS1,TS1,1,1,DIGITAL,HIGH,12.5KHz,OFF,OFF,OFF,OFF,OFF,OFF,PATCS,UNCONFIRMED,IMPOLITE,OFF,OFF,0,OFF,0,0,OFF,OFF
DMR,3,6XDG-D-Lac,438075000,430475000,TS1,TS1,1,1,DIGITAL,HIGH,12.5KHz,OFF,OFF,OFF,OFF,OFF,OFF,PATCS,UNCONFIRMED,IMPOLITE,OFF,OFF,0,OFF,0,0,OFF,OFF
DMR,4,3XKV-D-Hoc,438200000,430600000,TS1,TS1,1,1,DIGITAL,HIGH,12.5KHz,OFF,OFF,OFF,OFF,OFF,OFF,PATCS,UNCONFIRMED,IMPOLITE,OFF,OFF,0,OFF,0,0,OFF,OFF
DMR,5,3XVJ-D-FH ,438225000,430625000,TS1,TS1,1,1,DIGITAL,HIGH,12.5KHz,OFF,OFF,OFF,OFF,OFF,OFF,PATCS,UNCONFIRMED,IMPOLITE,OFF,OFF,0,OFF,0,0,OFF,OFF
DMR,6,7XFJ-D-Har,438250000,430650000,TS1,TS1,1,1,DIGITAL,HIGH,12.5KHz,OFF,OFF,OFF,OFF,OFF,OFF,PATCS,UNCONFIRMED,IMPOLITE,OFF,OFF,0,OFF,0,0,OFF,OFF
DMR,7,6XLR-D-Mug,438250000,430650000,TS1,TS1,1,1,DIGITAL,HIGH,12.5KHz,OFF,OFF,OFF,OFF,OFF,OFF,PATCS,UNCONFIRMED,IMPOLITE,OFF,OFF,0,OFF,0,0,OFF,OFF
DMR,8,5XIM-D-Ste,438250000,430650000,TS1,TS1,1,1,DIGITAL,HIGH,12.5KHz,OFF,OFF,OFF,OFF,OFF,OFF,PATCS,UNCONFIRMED,IMPOLITE,OFF,OFF,0,OFF,0,0,OFF,OFF
DMR,9,9XMH-D-Mut,438275000,430675000,TS1,TS1,1,1,DIGITAL,HIGH,12.5KHz,OFF,OFF,OFF,OFF,OFF,OFF,PATCS,UNCONFIRMED,IMPOLITE,OFF,OFF,0,OFF,0,0,OFF,OFF
DMR,10,9XVI-D-Vor,438287500,430687500,TS1,TS1,1,1,DIGITAL,HIGH,12.5KHz,OFF,OFF,OFF,OFF,OFF,OFF,PATCS,UNCONFIRMED,IMPOLITE,OFF,OFF,0,OFF,0,0,OFF,OFF
DMR,11,3XSA-D-San,438350000,430750000,TS1,TS1,1,1,DIGITAL,HIGH,12.5KHz,OFF,OFF,OFF,OFF,OFF,OFF,PATCS,UNCONFIRMED,IMPOLITE,OFF,OFF,0,OFF,0,0,OFF,OFF
DMR,12,4XSB-D-Son,438362500,430762500,TS1,TS1,1,1,DIGITAL,HIGH,12.5KHz,OFF,OFF,OFF,OFF,OFF,OFF,PATCS,UNCONFIRMED,IMPOLITE,OFF,OFF,0,OFF,0,0,OFF,OFF
DMR,13,3XYR-D-Wei,438375000,430775000,TS1,TS1,1,1,DIGITAL,HIGH,12.5KHz,OFF,OFF,OFF,OFF,OFF,OFF,PATCS,UNCONFIRMED,IMPOLITE,OFF,OFF,0,OFF,0,0,OFF,OFF
DMR,14,3XTR-D-Hoh,438400000,430800000,TS1,TS1,1,1,DIGITAL,HIGH,12.5KHz,OFF,OFF,OFF,OFF,OFF,OFF,PATCS,UNCONFIRMED,IMPOLITE,OFF,OFF,0,OFF,0,0,OFF,OFF
DMR,15,7XCJ-D-Inn,438400000,430800000,TS1,TS1,1,1,DIGITAL,HIGH,12.5KHz,OFF,OFF,OFF,OFF,OFF,OFF,PATCS,UNCONFIRMED,IMPOLITE,OFF,OFF,0,OFF,0,0,OFF,OFF
DMR,16,3XKQ-D-Kuh,438400000,430800000,TS1,TS1,1,1,DIGITAL,HIGH,12.5KHz,OFF,OFF,OFF,OFF,OFF,OFF,PATCS,UNCONFIRMED,IMPOLITE,OFF,OFF,0,OFF,0,0,OFF,OFF
DMR,17,3XWJ-D-Jau,438425000,430825000,TS1,TS1,1,1,DIGITAL,HIGH,12.5KHz,OFF,OFF,OFF,OFF,OFF,OFF,PATCS,UNCONFIRMED,IMPOLITE,OFF,OFF,0,OFF,0,0,OFF,OFF
DMR,18,6XAR-D-Lac,438425000,430825000,TS1,TS1,1,1,DIGITAL,HIGH,12.5KHz,OFF,OFF,OFF,OFF,OFF,OFF,PATCS,UNCONFIRMED,IMPOLITE,OFF,OFF,0,OFF,0,0,OFF,OFF
DMR,19,7XZH-D-Bru,438450000,430850000,TS1,TS1,1,1,DIGITAL,HIGH,12.5KHz,OFF,OFF,OFF,OFF,OFF,OFF,PATCS,UNCONFIRMED,IMPOLITE,OFF,OFF,0,OFF,0,0,OFF,OFF
DMR,20,8XGK-D-Fin,438450000,430850000,TS1,TS1,1,1,DIGITAL,HIGH,12.5KHz,OFF,OFF,OFF,OFF,OFF,OFF,PATCS,UNCONFIRMED,IMPOLITE,OFF,OFF,0,OFF,0,0,OFF,OFF
DMR,21,1XUR-D-Laa,438450000,430850000,TS1,TS1,1,1,DIGITAL,HIGH,12.5KHz,OFF,OFF,OFF,OFF,OFF,OFF,PATCS,UNCONFIRMED,IMPOLITE,OFF,OFF,0,OFF,0,0,OFF,OFF
DMR,22,9XXH-D-Har,438462500,430862500,TS1,TS1,1,1,DIGITAL,HIGH,12.5KHz,OFF,OFF,OFF,OFF,OFF,OFF,PATCS,UNCONFIRMED,IMPOLITE,OFF,OFF,0,OFF,0,0,OFF,OFF
DMR,23,5XLL-D-Lic,438475000,430875000,TS1,TS1,1,1,DIGITAL,HIGH,12.5KHz,OFF,OFF,OFF,OFF,OFF,OFF,PATCS,UNCONFIRMED,IMPOLITE,OFF,OFF,0,OFF,0,0,OFF,OFF
DMR,24,7XWT-D-Wei,438475000,430875000,TS1,TS1,1,1,DIGITAL,HIGH,12.5KHz,OFF,OFF,OFF,OFF,OFF,OFF,PATCS,UNCONFIRMED,IMPOLITE,OFF,OFF,0,OFF,0,0,OFF,OFF
DMR,25,1XAR-D-Bis,438500000,430900000,TS1,TS1,1,1,DIGITAL,HIGH,12.5KHz,OFF,OFF,OFF,OFF,OFF,OFF,PATCS,UNCONFIRMED,IMPOLITE,OFF,OFF,0,OFF,0,0,OFF,OFF
DMR,26,3XKC-D-Fro,438500000,430900000,TS1,TS1,1,1,DIGITAL,HIGH,12.5KHz,OFF,OFF,OFF,OFF,OFF,OFF,PATCS,UNCONFIRMED,IMPOLITE,OFF,OFF,0,OFF,0,0,OFF,OFF
DMR,27,9XKV-D-Kar,438500000,430900000,TS1,TS1,1,1,DIGITAL,HIGH,12.5KHz,OFF,OFF,OFF,OFF,OFF,OFF,PATCS,UNCONFIRMED,IMPOLITE,OFF,OFF,0,OFF,0,0,OFF,OFF
DMR,28,7XKH-D-Kra,438500000,430900000,TS1,TS1,1,1,DIGITAL,HIGH,12.5KHz,OFF,OFF,OFF,OFF,OFF,OFF,PATCS,UNCONFIRMED,IMPOLITE,OFF,OFF,0,OFF,0,0,OFF,OFF
DMR,29,5XKL-D-Kri,438500000,430900000,TS1,TS1,1,1,DIGITAL,HIGH,12.5KHz,OFF,OFF,OFF,OFF,OFF,OFF,PATCS,UNCONFIRMED,IMPOLITE,OFF,OFF,0,OFF,0,0,OFF,OFF
DMR,30,8XPK-D-Pet,438500000,430900000,TS1,TS1,1,1,DIGITAL,HIGH,12.5KHz,OFF,OFF,OFF,OFF,OFF,OFF,PATCS,UNCONFIRMED,IMPOLITE,OFF,OFF,0,OFF,0,0,OFF,OFF
DMR,31,6XME-D-Kin,438525000,430925000,TS1,TS1,1,1,DIGITAL,HIGH,12.5KHz,OFF,OFF,OFF,OFF,OFF,OFF,PATCS,UNCONFIRMED,IMPOLITE,OFF,OFF,0,OFF,0,0,OFF,OFF
DMR,32,4XUB-D-Bre,438550000,430950000,TS1,TS1,1,1,DIGITAL,HIGH,12.5KHz,OFF,OFF,OFF,OFF,OFF,OFF,PATCS,UNCONFIRMED,IMPOLITE,OFF,OFF,0,OFF,0,0,OFF,OFF
DMR,33,2XZR-D-Gai,438550000,430950000,TS1,TS1,1,1,DIGITAL,HIGH,12.5KHz,OFF,OFF,OFF,OFF,OFF,OFF,PATCS,UNCONFIRMED,IMPOLITE,OFF,OFF,0,OFF,0,0,OFF,OFF
DMR,34,3XRB-D-Son,438550000,430950000,TS1,TS1,1,1,DIGITAL,HIGH,12.5KHz,OFF,OFF,OFF,OFF,OFF,OFF,PATCS,UNCONFIRMED,IMPOLITE,OFF,OFF,0,OFF,0,0,OFF,OFF
DMR,35,3XWW-D-Moe,438575000,430975000,TS1,TS1,1,1,DIGITAL,HIGH,12.5KHz,OFF,OFF,OFF,OFF,OFF,OFF,PATCS,UNCONFIRMED,IMPOLITE,OFF,OFF,0,OFF,0,0,OFF,OFF
DMR,36,8XKK-D-Pyr,438600000,431000000,TS1,TS1,1,1,DIGITAL,HIGH,12.5KHz,OFF,OFF,OFF,OFF,OFF,OFF,PATCS,UNCONFIRMED,IMPOLITE,OFF,OFF,0,OFF,0,0,OFF,OFF
DMR,37,6XAG-D-Sch,438600000,431000000,TS1,TS1,1,1,DIGITAL,HIGH,12.5KHz,OFF,OFF,OFF,OFF,OFF,OFF,PATCS,UNCONFIRMED,IMPOLITE,OFF,OFF,0,OFF,0,0,OFF,OFF
DMR,38,3XNR-D-Neb,438612500,431012500,TS1,TS1,1,1,DIGITAL,HIGH,12.5KHz,OFF,OFF,OFF,OFF,OFF,OFF,PATCS,UNCONFIRMED,IMPOLITE,OFF,OFF,0,OFF,0,0,OFF,OFF
DMR,39,7XUT-D-Kam,438625000,431025000,TS1,TS1,1,1,DIGITAL,HIGH,12.5KHz,OFF,OFF,OFF,OFF,OFF,OFF,PATCS,UNCONFIRMED,IMPOLITE,OFF,OFF,0,OFF,0,0,OFF,OFF
DMR,40,3XVA-D-Rit,438625000,431025000,TS1,TS1,1,1,DIGITAL,HIGH,12.5KHz,OFF,OFF,OFF,OFF,OFF,OFF,PATCS,UNCONFIRMED,IMPOLITE,OFF,OFF,0,OFF,0,0,OFF,OFF
DMR,41,3XQA-D-Exe,438675000,431075000,TS1,TS1,1,1,DIGITAL,HIGH,12.5KHz,OFF,OFF,OFF,OFF,OFF,OFF,PATCS,UNCONFIRMED,IMPOLITE,OFF,OFF,0,OFF,0,0,OFF,OFF
DMR,42,3XPC-D-Hin,438700000,431100000,TS1,TS1,1,1,DIGITAL,HIGH,12.5KHz,OFF,OFF,OFF,OFF,OFF,OFF,PATCS,UNCONFIRMED,IMPOLITE,OFF,OFF,0,OFF,0,0,OFF,OFF
DMR,43,3XAV-D-Kle,438725000,431125000,TS1,TS1,1,1,DIGITAL,HIGH,12.5KHz,OFF,OFF,OFF,OFF,OFF,OFF,PATCS,UNCONFIRMED,IMPOLITE,OFF,OFF,0,OFF,0,0,OFF,OFF
DMR,44,5XGL-D-Gru,438800000,431200000,TS1,TS1,1,1,DIGITAL,HIGH,12.5KHz,OFF,OFF,OFF,OFF,OFF,OFF,PATCS,UNCONFIRMED,IMPOLITE,OFF,OFF,0,OFF,0,0,OFF,OFF
DMR,45,1XQU-D-Wie,438825000,431225000,TS1,TS1,1,1,DIGITAL,HIGH,12.5KHz,OFF,OFF,OFF,OFF,OFF,OFF,PATCS,UNCONFIRMED,IMPOLITE,OFF,OFF,0,OFF,0,0,OFF,OFF
DMR,46,8XMK-D-Mag,438850000,431250000,TS1,TS1,1,1,DIGITAL,HIGH,12.5KHz,OFF,OFF,OFF,OFF,OFF,OFF,PATCS,UNCONFIRMED,IMPOLITE,OFF,OFF,0,OFF,0,0,OFF,OFF
DMR,47,7XLI-D-Hoc,438875000,431275000,TS1,TS1,1,1,DIGITAL,HIGH,12.5KHz,OFF,OFF,OFF,OFF,OFF,OFF,PATCS,UNCONFIRMED,IMPOLITE,OFF,OFF,0,OFF,0,0,OFF,OFF
DMR,48,8XFK-D-Dob,438900000,431300000,TS1,TS1,1,1,DIGITAL,HIGH,12.5KHz,OFF,OFF,OFF,OFF,OFF,OFF,PATCS,UNCONFIRMED,IMPOLITE,OFF,OFF,0,OFF,0,0,OFF,OFF
DMR,49,6XBF-D-Str,438912500,431312500,TS1,TS1,1,1,DIGITAL,HIGH,12.5KHz,OFF,OFF,OFF,OFF,OFF,OFF,PATCS,UNCONFIRMED,IMPOLITE,OFF,OFF,0,OFF,0,0,OFF,OFF
DMR,50,7XGR-D-Gef,438925000,431325000,TS1,TS1,1,1,DIGITAL,HIGH,12.5KHz,OFF,OFF,OFF,OFF,OFF,OFF,PATCS,UNCONFIRMED,IMPOLITE,OFF,OFF,0,OFF,0,0,OFF,OFF
DMR,51,6XBG-D-Ren,438925000,431325000,TS1,TS1,1,1,DIGITAL,HIGH,12.5KHz,OFF,OFF,OFF,OFF,OFF,OFF,PATCS,UNCONFIRMED,IMPOLITE,OFF,OFF,0,OFF,0,0,OFF,OFF
DMR,52,8XWK-D-St.,438950000,431350000,TS1,TS1,1,1,DIGITAL,HIGH,12.5KHz,OFF,OFF,OFF,OFF,OFF,OFF,PATCS,UNCONFIRMED,IMPOLITE,OFF,OFF,0,OFF,0,0,OFF,OFF
DMR,53,2XSE-D-Mit,439000000,431400000,TS1,TS1,1,1,DIGITAL,HIGH,12.5KHz,OFF,OFF,OFF,OFF,OFF,OFF,PATCS,UNCONFIRMED,IMPOLITE,OFF,OFF,0,OFF,0,0,OFF,OFF
DMR,54,3XWU-D-Hoc,439075000,431475000,TS1,TS1,1,1,DIGITAL,HIGH,12.5KHz,OFF,OFF,OFF,OFF,OFF,OFF,PATCS,UNCONFIRMED,IMPOLITE,OFF,OFF,0,OFF,0,0,OFF,OFF
DMR,55,7XBI-D-Ran,439075000,431475000,TS1,TS1,1,1,DIGITAL,HIGH,12.5KHz,OFF,OFF,OFF,OFF,OFF,OFF,PATCS,UNCONFIRMED,IMPOLITE,OFF,OFF,0,OFF,0,0,OFF,OFF
DMR,56,2XSV-D-Hoh,439087500,431487500,TS1,TS1,1,1,DIGITAL,HIGH,12.5KHz,OFF,OFF,OFF,OFF,OFF,OFF,PATCS,UNCONFIRMED,IMPOLITE,OFF,OFF,0,OFF,0,0,OFF,OFF
DMR,57,7XOT-D-Obt,439100000,431500000,TS1,TS1,1,1,DIGITAL,HIGH,12.5KHz,OFF,OFF,OFF,OFF,OFF,OFF,PATCS,UNCONFIRMED,IMPOLITE,OFF,OFF,0,OFF,0,0,OFF,OFF
FM,1,3XLU-2-Gie,145587500,144987500,TS1,TS1,1,1,ANALOG,HIGH,12.5KHz,OFF,OFF,OFF,OFF,OFF,OFF,PATCS,UNCONFIRMED,IMPOLITE,OFF,OFF,0,OFF,0,0,OFF,OFF
FM,2,5XLL-2-Lic,145600000,145000000,TS1,TS1,1,1,ANALOG,HIGH,12.5KHz,OFF,OFF,OFF,OFF,OFF,OFF,PATCS,UNCONFIRMED,IMPOLITE,OFF,OFF,0,OFF,0,0,OFF,OFF
FM,3,6XAG-2-Sch,145600000,145000000,TS1,TS1,1,1,ANALOG,HIGH,12.5KHz,OFF,OFF,OFF,OFF,OFF,OFF,PATCS,UNCONFIRMED,IMPOLITE,OFF,CTCSS,103.5,CTCSS,103.5,0,OFF,OFF
FM,4,7XTI-2-Pat,145612500,145012500,TS1,TS1,1,1,ANALOG,HIGH,12.5KHz,OFF,OFF,OFF,OFF,OFF,OFF,PATCS,UNCONFIRMED,IMPOLITE,OFF,CTCSS,77.0,OFF,0,0,OFF,OFF
FM,5,2XNL-2-Spe,145612500,145012500,TS1,TS1,1,1,ANALOG,HIGH,12.5KHz,OFF,OFF,OFF,OFF,OFF,OFF,PATCS,UNCONFIRMED,IMPOLITE,OFF,OFF,0,OFF,0,0,OFF,OFF
FM,6,1XFW-2-Laa,145625000,145025000,TS1,TS1,1,1,ANALOG,HIGH,12.5KHz,OFF,OFF,OFF,OFF,OFF,OFF,PATCS,UNCONFIRMED,IMPOLITE,OFF,OFF,0,OFF,0,0,OFF,OFF
FM,7,8XMK-2-Mag,145625000,145025000,TS1,TS1,1,1,ANALOG,HIGH,12.5KHz,OFF,OFF,OFF,OFF,OFF,OFF,PATCS,UNCONFIRMED,IMPOLITE,OFF,CTCSS,88.5,CTCSS,88.5,0,OFF,OFF
FM,8,3XNR-2-Neb,145637500,145037500,TS1,TS1,1,1,ANALOG,HIGH,12.5KHz,OFF,OFF,OFF,OFF,OFF,OFF,PATCS,UNCONFIRMED,IMPOLITE,OFF,CTCSS,88.5,CTCSS,88.5,0,OFF,OFF
FM,9,8XDK-2-Gol,145650000,145050000,TS1,TS1,1,1,ANALOG,HIGH,12.5KHz,OFF,OFF,OFF,OFF,OFF,OFF,PATCS,UNCONFIRMED,IMPOLITE,OFF,CTCSS,88.5,OFF,0,0,OFF,OFF
FM,10,8XOK-2-Gol,145650000,145050000,TS1,TS1,1,1,ANALOG,HIGH,12.5KHz,OFF,OFF,OFF,OFF,OFF,OFF,PATCS,UNCONFIRMED,IMPOLITE,OFF,OFF,0,OFF,0,0,OFF,OFF
FM,11,3XPA-2-Kai,145650000,145050000,TS1,TS1,1,1,ANALOG,HIGH,12.5KHz,OFF,OFF,OFF,OFF,OFF,OFF,PATCS,UNCONFIRMED,IMPOLITE,OFF,CTCSS,162.2,CTCSS,162.2,0,OFF,OFF
FM,12,2XHL-2-Kit,145650000,145050000,TS1,TS1,1,1,ANALOG,HIGH,12.5KHz,OFF,OFF,OFF,OFF,OFF,OFF,PATCS,UNCONFIRMED,IMPOLITE,OFF,CTCSS,88.5,OFF,0,0,OFF,OFF
FM,13,6XBG-2-Ren,145650000,145050000,TS1,TS1,1,1,ANALOG,HIGH,12.5KHz,OFF,OFF,OFF,OFF,OFF,OFF,PATCS,UNCONFIRMED,IMPOLITE,OFF,CTCSS,103.5,OFF,0,0,OFF,OFF
FM,14,9XVI-2-Vor,145650000,145050000,TS1,TS1,1,1,ANALOG,HIGH,12.5KHz,OFF,OFF,OFF,OFF,OFF,OFF,PATCS,UNCONFIRMED,IMPOLITE,OFF,CTCSS,85.4,CTCSS,85.4,0,OFF,OFF
FM,15,7XWH-2-Gru,145662500,145062500,TS1,TS1,1,1,ANALOG,HIGH,12.5KHz,OFF,OFF,OFF,OFF,OFF,OFF,PATCS,UNCONFIRMED,IMPOLITE,OFF,OFF,0,OFF,0,0,OFF,OFF
FM,16,7XZH-2-Bru,145675000,145075000,TS1,TS1,1,1,ANALOG,HIGH,12.5KHz,OFF,OFF,OFF,OFF,OFF,OFF,PATCS,UNCONFIRMED,IMPOLITE,OFF,OFF,0,OFF,0,0,OFF,OFF
FM,17,6XPG-2-Pla,145675000,145075000,TS1,TS1,1,1,ANALOG,HIGH,12.5KHz,OFF,OFF,OFF,OFF,OFF,OFF,PATCS,UNCONFIRMED,IMPOLITE,OFF,OFF,0,OFF,0,0,OFF,OFF
FM,18,2XZR-2-Gai,145687500,145087500,TS1,TS1,1,1,ANALOG,HIGH,12.5KHz,OFF,OFF,OFF,OFF,OFF,OFF,PATCS,UNCONFIRMED,IMPOLITE,OFF,CTCSS,88.5,CTCSS,88.5,0,OFF,OFF
FM,19,7XVR-2-Val,145687500,145087500,TS1,TS1,1,1,ANALOG,HIGH,12.5KHz,OFF,OFF,OFF,OFF,OFF,OFF,PATCS,UNCONFIRMED,IMPOLITE,OFF,CTCSS,77.0,OFF,0,0,OFF,OFF
FM,20,7XRT-2-Hah,145700000,145100000,TS1,TS1,1,1,ANALOG,HIGH,12.5KHz,OFF,OFF,OFF,OFF,OFF,OFF,PATCS,UNCONFIRMED,IMPOLITE,OFF,OFF,0,OFF,0,0,OFF,OFF
FM,21,7XLI-2-Hoc,145700000,145100000,TS1,TS1,1,1,ANALOG,HIGH,12.5KHz,OFF,OFF,OFF,OFF,OFF,OFF,PATCS,UNCONFIRMED,IMPOLITE,OFF,CTCSS,77.0,OFF,0,0,OFF,OFF
FM,22,6XDG-2-Lac,145700000,145100000,TS1,TS1,1,1,ANALOG,HIGH,12.5KHz,OFF,OFF,OFF,OFF,OFF,OFF,PATCS,UNCONFIRMED,IMPOLITE,OFF,OFF,0,OFF,0,0,OFF,OFF
FM,23,3XSA-2-San,145700000,145100000,TS1,TS1,1,1,ANALOG,HIGH,12.5KHz,OFF,OFF,OFF,OFF,OFF,OFF,PATCS,UNCONFIRMED,IMPOLITE,OFF,CTCSS,162.2,OFF,0,0,OFF,OFF
FM,24,5XKL-2-Kri,145712500,145112500,TS1,TS1,1,1,ANALOG,HIGH,12.5KHz,OFF,OFF,OFF,OFF,OFF,OFF,PATCS,UNCONFIRMED,IMPOLITE,OFF,OFF,0,OFF,0,0,OFF,OFF
FM,25,3XHW-2-Hoh,145725000,145125000,TS1,TS1,1,1,ANALOG,HIGH,12.5KHz,OFF,OFF,OFF,OFF,OFF,OFF,PATCS,UNCONFIRMED,IMPOLITE,OFF,OFF,0,OFF,0,0,OFF,OFF
FM,26,8XPK-2-Pet,145737500,145137500,TS1,TS1,1,1,ANALOG,HIGH,12.5KHz,OFF,OFF,OFF,OFF,OFF,OFF,PATCS,UNCONFIRMED,IMPOLITE,OFF,CTCSS,88.5,CTCSS,88.5,0,OFF,OFF
FM,27,3XQA-2-Exe,145750000,145150000,TS1,TS1,1,1,ANALOG,HIGH,12.5KHz,OFF,OFF,OFF,OFF,OFF,OFF,PATCS,UNCONFIRMED,IMPOLITE,OFF,CTCSS,162.2,OFF,0,0,OFF,OFF
FM,28,5XGL-2-Gru,145750000,145150000,TS1,TS1,1,1,ANALOG,HIGH,12.5KHz,OFF,OFF,OFF,OFF,OFF,OFF,PATCS,UNCONFIRMED,IMPOLITE,OFF,CTCSS,123.0,CTCSS,123.0,0,OFF,OFF
FM,29,7XTT-2-Pen,145750000,145150000,TS1,TS1,1,1,ANALOG,HIGH,12.5KHz,OFF,OFF,OFF,OFF,OFF,OFF,PATCS,UNCONFIRMED,IMPOLITE,OFF,OFF,0,OFF,0,0,OFF,OFF
FM,30,8XNK-2-Ger,145762500,145162500,TS1,TS1,1,1,ANALOG,HIGH,12.5KHz,OFF,OFF,OFF,OFF,OFF,OFF,PATCS,UNCONFIRMED,IMPOLITE,OFF,OFF,0,OFF,0,0,OFF,OFF
FM,31,2XGR-2-Ger,145762500,145162500,TS1,TS1,1,1,ANALOG,HIGH,12.5KHz,OFF,OFF,OFF,OFF,OFF,OFF,PATCS,UNCONFIRMED,IMPOLITE,OFF,CTCSS,88.5,OFF,0,0,OFF,OFF
FM,32,7XTR-2-Kra,145762500,145162500,TS1,TS1,1,1,ANALOG,HIGH,12.5KHz,OFF,OFF,OFF,OFF,OFF,OFF,PATCS,UNCONFIRMED,IMPOLITE,OFF,CTCSS,77.0,OFF,0,0,OFF,OFF
FM,33,4XUB-2-Bre,145775000,145175000,TS1,TS1,1,1,ANALOG,HIGH,12.5KHz,OFF,OFF,OFF,OFF,OFF,OFF,PATCS,UNCONFIRMED,IMPOLITE,OFF,CTCSS,97.4,OFF,0,0,OFF,OFF
FM,34,5XUL-2-Gei,145775000,145175000,TS1,TS1,1,1,ANALOG,HIGH,12.5KHz,OFF,OFF,OFF,OFF,OFF,OFF,PATCS,UNCONFIRMED,IMPOLITE,OFF,OFF,0,CTCSS,123.0,0,OFF,OFF
FM,35,7XKI-2-Hoh,145775000,145175000,TS1,TS1,1,1,ANALOG,HIGH,12.5KHz,OFF,OFF,OFF,OFF,OFF,OFF,PATCS,UNCONFIRMED,IMPOLITE,OFF,OFF,0,OFF,0,0,OFF,OFF
FM,36,3XES-2-Fra,145787500,145187500,TS1,TS1,1,1,ANALOG,HIGH,12.5KHz,OFF,OFF,OFF,OFF,OFF,OFF,PATCS,UNCONFIRMED,IMPOLITE,OFF,CTCSS,79.7,OFF,0,0,OFF,OFF
FM,37,7XGI-2-Wur,145787500,145187500,TS1,TS1,1,1,ANALOG,HIGH,12.5KHz,OFF,OFF,OFF,OFF,OFF,OFF,PATCS,UNCONFIRMED,IMPOLITE,OFF,OFF,0,OFF,0,0,OFF,OFF
FM,38,5XFK-7-Feu,438150000,430550000,TS1,TS1,1,1,ANALOG,HIGH,12.5KHz,OFF,OFF,OFF,OFF,OFF,OFF,PATCS,UNCONFIRMED,IMPOLITE,OFF,CTCSS,123.0,CTCSS,123.0,0,OFF,OFF
FM,39,6XFD-7-St.,438200000,430600000,TS1,TS1,1,1,ANALOG,HIGH,12.5KHz,OFF,OFF,OFF,OFF,OFF,OFF,PATCS,UNCONFIRMED,IMPOLITE,OFF,CTCSS,103.5,CTCSS,103.5,0,OFF,OFF
FM,40,7XET-7-Ehr,438225000,430625000,TS1,TS1,1,1,ANALOG,HIGH,12.5KHz,OFF,OFF,OFF,OFF,OFF,OFF,PATCS,UNCONFIRMED,IMPOLITE,OFF,CTCSS,136.5,OFF,0,0,OFF,OFF
FM,41,3XVJ-7-FH ,438225000,430625000,TS1,TS1,1,1,ANALOG,HIGH,12.5KHz,OFF,OFF,OFF,OFF,OFF,OFF,PATCS,UNCONFIRMED,IMPOLITE,OFF,CTCSS,162.2,CTCSS,162.2,0,OFF,OFF
FM,42,3XOR-7-Hai,438300000,430700000,TS1,TS1,1,1,ANALOG,HIGH,12.5KHz,OFF,OFF,OFF,OFF,OFF,OFF,PATCS,UNCONFIRMED,IMPOLITE,OFF,CTCSS,162.2,CTCSS,162.2,0,OFF,OFF
FM,43,7XLI-7-Hoc,438300000,430700000,TS1,TS1,1,1,ANALOG,HIGH,12.5KHz,OFF,OFF,OFF,OFF,OFF,OFF,PATCS,UNCONFIRMED,IMPOLITE,OFF,CTCSS,77.0,CTCSS,77.0,0,OFF,OFF
FM,44,8XKP-7-Kli,438300000,430700000,TS1,TS1,1,1,ANALOG,HIGH,12.5KHz,OFF,OFF,OFF,OFF,OFF,OFF,PATCS,UNCONFIRMED,IMPOLITE,OFF,CTCSS,88.5,OFF,0,0,OFF,OFF
FM,45,1XBA-7-Por,438312500,430712500,TS1,TS1,1,1,ANALOG,HIGH,12.5KHz,OFF,OFF,OFF,OFF,OFF,OFF,PATCS,UNCONFIRMED,IMPOLITE,OFF,CTCSS,162.2,CTCSS,162.2,0,OFF,OFF
FM,46,2XZR-7-Gai,438400000,430800000,TS1,TS1,1,1,ANALOG,HIGH,12.5KHz,OFF,OFF,OFF,OFF,OFF,OFF,PATCS,UNCONFIRMED,IMPOLITE,OFF,CTCSS,88.5,OFF,0,0,OFF,OFF
FM,47,3XTR-7-Hoh,438400000,430800000,TS1,TS1,1,1,ANALOG,HIGH,12.5KHz,OFF,OFF,OFF,OFF,OFF,OFF,PATCS,UNCONFIRMED,IMPOLITE,OFF,CTCSS,162.2,OFF,0,0,OFF,OFF
FM,48,5XDN-7-Sen,438425000,430825000,TS1,TS1,1,1,ANALOG,HIGH,12.5KHz,OFF,OFF,OFF,OFF,OFF,OFF,PATCS,UNCONFIRMED,IMPOLITE,OFF,CTCSS,123.0,CTCSS,123.0,0,OFF,OFF
FM,49,1XAT-7-Her,438475000,430875000,TS1,TS1,1,1,ANALOG,HIGH,12.5KHz,OFF,OFF,OFF,OFF,OFF,OFF,PATCS,UNCONFIRMED,IMPOLITE,OFF,CTCSS,162.2,CTCSS,162.2,0,OFF,OFF
FM,50,7XJH-7-Hol,438500000,430900000,TS1,TS1,1,1,ANALOG,HIGH,12.5KHz,OFF,OFF,OFF,OFF,OFF,OFF,PATCS,UNCONFIRMED,IMPOLITE,OFF,CTCSS,77.0,OFF,0,0,OFF,OFF
FM,51,9XFV-7-Geb,438525000,430925000,TS1,TS1,1,1,ANALOG,HIGH,12.5KHz,OFF,OFF,OFF,OFF,OFF,OFF,PATCS,UNCONFIRMED,IMPOLITE,OFF,CTCSS,85.4,CTCSS,85.4,0,OFF,OFF
FM,52,6XME-7-Kin,438525000,430925000,TS1,TS1,1,1,ANALOG,HIGH,12.5KHz,OFF,OFF,OFF,OFF,OFF,OFF,PATCS,UNCONFIRMED,IMPOLITE,OFF,OFF,0,OFF,0,0,OFF,OFF
FM,53,8XVK-7-Vil,438550000,430950000,TS1,TS1,1,1,ANALOG,HIGH,12.5KHz,OFF,OFF,OFF,OFF,OFF,OFF,PATCS,UNCONFIRMED,IMPOLITE,OFF,CTCSS,88.5,CTCSS,88.5,0,OFF,OFF
FM,54,5XOL-7-Bre,438575000,430975000,TS1,TS1,1,1,ANALOG,HIGH,12.5KHz,OFF,OFF,OFF,OFF,OFF,OFF,PATCS,UNCONFIRMED,IMPOLITE,OFF,CTCSS,123.0,CTCSS,123.0,0,OFF,OFF
FM,55,8XMK-7-Mag,438575000,430975000,TS1,TS1,1,1,ANALOG,HIGH,12.5KHz,OFF,OFF,OFF,OFF,OFF,OFF,PATCS,UNCONFIRMED,IMPOLITE,OFF,CTCSS,88.5,CTCSS,88.5,0,OFF,OFF
FM,56,9XXD-7-Dor,438587500,430987500,TS1,TS1,1,1,ANALOG,HIGH,12.5KHz,OFF,OFF,OFF,OFF,OFF,OFF,PATCS,UNCONFIRMED,IMPOLITE,OFF,CTCSS,85.4,CTCSS,85.4,0,OFF,OFF
FM,57,3XWJ-7-Jau,438600000,431000000,TS1,TS1,1,1,ANALOG,HIGH,12.5KHz,OFF,OFF,OFF,OFF,OFF,OFF,PATCS,UNCONFIRMED,IMPOLITE,OFF,CTCSS,162.2,CTCSS,162.2,0,OFF,OFF
FM,58,7XWT-7-Wei,438600000,431000000,TS1,TS1,1,1,ANALOG,HIGH,12.5KHz,OFF,OFF,OFF,OFF,OFF,OFF,PATCS,UNCONFIRMED,IMPOLITE,OFF,CTCSS,77.0,OFF,0,0,OFF,OFF
FM,59,7XLH-7-Ise,438625000,431025000,TS1,TS1,1,1,ANALOG,HIGH,12.5KHz,OFF,OFF,OFF,OFF,OFF,OFF,PATCS,UNCONFIRMED,IMPOLITE,OFF,OFF,0,OFF,0,0,OFF,OFF
FM,60,9XKV-7-Kar,438625000,431025000,TS1,TS1,1,1,ANALOG,HIGH,12.5KHz,OFF,OFF,OFF,OFF,OFF,OFF,PATCS,UNCONFIRMED,IMPOLITE,OFF,CTCSS,85.4,CTCSS,85.4,0,OFF,OFF
FM,61,6XCD-7-Stu,438625000,431025000,TS1,TS1,1,1,ANALOG,HIGH,12.5KHz,OFF,OFF,OFF,OFF,OFF,OFF,PATCS,UNCONFIRMED,IMPOLITE,OFF,OFF,0,OFF,0,0,OFF,OFF
FM,62,1XFW-7-Laa,438650000,431050000,TS1,TS1,1,1,ANALOG,HIGH,12.5KHz,OFF,OFF,OFF,OFF,OFF,OFF,PATCS,UNCONFIRMED,IMPOLITE,OFF,OFF,0,OFF,0,0,OFF,OFF
FM,63,5XLL-7-Lic,438650000,431050000,TS1,TS1,1,1,ANALOG,HIGH,12.5KHz,OFF,OFF,OFF,OFF,OFF,OFF,PATCS,UNCONFIRMED,IMPOLITE,OFF,OFF,0,OFF,0,0,OFF,OFF
FM,64,8XCK-7-Ros,438650000,431050000,TS1,TS1,1,1,ANALOG,HIGH,12.5KHz,OFF,OFF,OFF,OFF,OFF,OFF,PATCS,UNCONFIRMED,IMPOLITE,OFF,OFF,0,OFF,0,0,OFF,OFF
FM,65,7XLR-7-See,438650000,431050000,TS1,TS1,1,1,ANALOG,HIGH,12.5KHz,OFF,OFF,OFF,OFF,OFF,OFF,PATCS,UNCONFIRMED,IMPOLITE,OFF,CTCSS,77.0,OFF,0,0,OFF,OFF
FM,66,6XDG-7-Lac,438675000,431075000,TS1,TS1,1,1,ANALOG,HIGH,12.5KHz,OFF,OFF,OFF,OFF,OFF,OFF,PATCS,UNCONFIRMED,IMPOLITE,OFF,CTCSS,103.5,CTCSS,103.5,0,OFF,OFF
FM,67,3XPC-7-Hin,438700000,431100000,TS1,TS1,1,1,ANALOG,HIGH,12.5KHz,OFF,OFF,OFF,OFF,OFF,OFF,PATCS,UNCONFIRMED,IMPOLITE,OFF,CTCSS,162.2,OFF,0,0,OFF,OFF
FM,68,5XDM-7-Hun,438725000,431125000,TS1,TS1,1,1,ANALOG,HIGH,12.5KHz,OFF,OFF,OFF,OFF,OFF,OFF,PATCS,UNCONFIRMED,IMPOLITE,OFF,OFF,0,OFF,0,0,OFF,OFF
FM,69,4XSB-7-Son,438725000,431125000,TS1,TS1,1,1,ANALOG,HIGH,12.5KHz,OFF,OFF,OFF,OFF,OFF,OFF,PATCS,UNCONFIRMED,IMPOLITE,OFF,CTCSS,97.4,OFF,0,0,OFF,OFF
FM,70,5XHO-7-Dam,438750000,431150000,TS1,TS1,1,1,ANALOG,HIGH,12.5KHz,OFF,OFF,OFF,OFF,OFF,OFF,PATCS,UNCONFIRMED,IMPOLITE,OFF,OFF,0,OFF,0,0,OFF,OFF
FM,71,3XHW-7-Hoh,438750000,431150000,TS1,TS1,1,1,ANALOG,HIGH,12.5KHz,OFF,OFF,OFF,OFF,OFF,OFF,PATCS,UNCONFIRMED,IMPOLITE,OFF,OFF,0,OFF,0,0,OFF,OFF
FM,72,6XGD-7-Ung,438750000,431150000,TS1,TS1,1,1,ANALOG,HIGH,12.5KHz,OFF,OFF,OFF,OFF,OFF,OFF,PATCS,UNCONFIRMED,IMPOLITE,OFF,OFF,0,OFF,0,0,OFF,OFF
FM,73,6XCG-7-Gra,438775000,431175000,TS1,TS1,1,1,ANALOG,HIGH,12.5KHz,OFF,OFF,OFF,OFF,OFF,OFF,PATCS,UNCONFIRMED,IMPOLITE,OFF,OFF,0,OFF,0,0,OFF,OFF
FM,74,5XBR-7-Lin,438775000,431175000,TS1,TS1,1,1,ANALOG,HIGH,12.5KHz,OFF,OFF,OFF,OFF,OFF,OFF,PATCS,UNCONFIRMED,IMPOLITE,OFF,OFF,0,OFF,0,0,OFF,OFF
FM,75,3XNS-7-Bus,438800000,431200000,TS1,TS1,1,1,ANALOG,HIGH,12.5KHz,OFF,OFF,OFF,OFF,OFF,OFF,PATCS,UNCONFIRMED,IMPOLITE,OFF,OFF,0,OFF,0,0,OFF,OFF
FM,76,5XGL-7-Gru,438800000,431200000,TS1,TS1,1,1,ANALOG,HIGH,12.5KHz,OFF,OFF,OFF,OFF,OFF,OFF,PATCS,UNCONFIRMED,IMPOLITE,OFF,CTCSS,123.0,CTCSS,123.0,0,OFF,OFF
FM,77,6XMD-7-Zir,438800000,431200000,TS1,TS1,1,1,ANALOG,HIGH,12.5KHz,OFF,OFF,OFF,OFF,OFF,OFF,PATCS,UNCONFIRMED,IMPOLITE,OFF,OFF,0,OFF,0,0,OFF,OFF
FM,78,9XVV-7-Due,438825000,431225000,TS1,TS1,1,1,ANALOG,HIGH,12.5KHz,OFF,OFF,OFF,OFF,OFF,OFF,PATCS,UNCONFIRMED,IMPOLITE,OFF,CTCSS,85.4,CTCSS,85.4,0,OFF,OFF
FM,79,2XHM-7-Hoc,438825000,431225000,TS1,TS1,1,1,ANALOG,HIGH,12.5KHz,OFF,OFF,OFF,OFF,OFF,OFF,PATCS,UNCONFIRMED,IMPOLITE,OFF,OFF,0,OFF,0,0,OFF,OFF
FM,80,3XCR-7-Hut,438837500,431237500,TS1,TS1,1,1,ANALOG,HIGH,12.5KHz,OFF,OFF,OFF,OFF,OFF,OFF,PATCS,UNCONFIRMED,IMPOLITE,OFF,CTCSS,97.4,OFF,0,0,OFF,OFF
FM,81,3XDA-7-Hoc,438850000,431250000,TS1,TS1,1,1,ANALOG,HIGH,12.5KHz,OFF,OFF,OFF,OFF,OFF,OFF,PATCS,UNCONFIRMED,IMPOLITE,OFF,OFF,0,OFF,0,0,OFF,OFF
FM,82,3XNR-7-Neb,438875000,431275000,TS1,TS1,1,1,ANALOG,HIGH,12.5KHz,OFF,OFF,OFF,OFF,OFF,OFF,PATCS,UNCONFIRMED,IMPOLITE,OFF,OFF,0,CTCSS,88.5,0,OFF,OFF
FM,83,6XAG-7-Sch,438875000,431275000,TS1,TS1,1,1,ANALOG,HIGH,12.5KHz,OFF,OFF,OFF,OFF,OFF,OFF,PATCS,UNCONFIRMED,IMPOLITE,OFF,CTCSS,103.5,CTCSS,103.5,0,OFF,OFF
FM,84,7XOI-7-Sch,438875000,431275000,TS1,TS1,1,1,ANALOG,HIGH,12.5KHz,OFF,OFF,OFF,OFF,OFF,OFF,PATCS,UNCONFIRMED,IMPOLITE,OFF,OFF,0,OFF,0,0,OFF,OFF
FM,85,8XFK-7-Dob,438900000,431300000,TS1,TS1,1,1,ANALOG,HIGH,12.5KHz,OFF,OFF,OFF,OFF,OFF,OFF,PATCS,UNCONFIRMED,IMPOLITE,OFF,CTCSS,88.5,CTCSS,88.5,0,OFF,OFF
FM,86,7XFI-7-Gal,438900000,431300000,TS1,TS1,1,1,ANALOG,HIGH,12.5KHz,OFF,OFF,OFF,OFF,OFF,OFF,PATCS,UNCONFIRMED,IMPOLITE,OFF,OFF,0,OFF,0,0,OFF,OFF
FM,87,3XRB-7-Son,438900000,431300000,TS1,TS1,1,1,ANALOG,HIGH,12.5KHz,OFF,OFF,OFF,OFF,OFF,OFF,PATCS,UNCONFIRMED,IMPOLITE,OFF,OFF,0,OFF,0,0,OFF,OFF
FM,88,7XGR-7-Gef,438925000,431325000,TS1,TS1,1,1,ANALOG,HIGH,12.5KHz,OFF,OFF,OFF,OFF,OFF,OFF,PATCS,UNCONFIRMED,IMPOLITE,OFF,CTCSS,77.0,CTCSS,77.0,0,OFF,OFF
FM,89,3XSU-7-Rit,438925000,431325000,TS1,TS1,1,1,ANALOG,HIGH,12.5KHz,OFF,OFF,OFF,OFF,OFF,OFF,PATCS,UNCONFIRMED,IMPOLITE,OFF,OFF,0,OFF,0,0,OFF,OFF
FM,90,1XUU-7-Kah,438950000,431350000,TS1,TS1,1,1,ANALOG,HIGH,12.5KHz,OFF,OFF,OFF,OFF,OFF,OFF,PATCS,UNCONFIRMED,IMPOLITE,OFF,CTCSS,162.2,CTCSS,162.2,0,OFF,OFF
FM,91,5XDO-7-Pfa,438950000,431350000,TS1,TS1,1,1,ANALOG,HIGH,12.5KHz,OFF,OFF,OFF,OFF,OFF,OFF,PATCS,UNCONFIRMED,IMPOLITE,OFF,OFF,0,OFF,0,0,OFF,OFF
FM,92,7XZT-7-Aho,438975000,431375000,TS1,TS1,1,1,ANALOG,HIGH,12.5KHz,OFF,OFF,OFF,OFF,OFF,OFF,PATCS,UNCONFIRMED,IMPOLITE,OFF,CTCSS,77.0,OFF,0,0,OFF,OFF
FM,93,3XFW-7-Joc,438975000,431375000,TS1,TS1,1,1,ANALOG,HIGH,12.5KHz,OFF,OFF,OFF,OFF,OFF,OFF,PATCS,UNCONFIRMED,IMPOLITE,OFF,CTCSS,162.2,CTCSS,162.2,0,OFF,OFF
FM,94,2XNM-7-Spe,438975000,431375000,TS1,TS1,1,1,ANALOG,HIGH,12.5KHz,OFF,OFF,OFF,OFF,OFF,OFF,PATCS,UNCONFIRMED,IMPOLITE,OFF,OFF,0,OFF,0,0,OFF,OFF
FM,95,5XIM-7-Ste,438975000,431375000,TS1,TS1,1,1,ANALOG,HIGH,12.5KHz,OFF,OFF,OFF,OFF,OFF,OFF,PATCS,UNCONFIRMED,IMPOLITE,OFF,CTCSS,123.0,CTCSS,123.0,0,OFF,OFF
FM,96,6XBF-7-Str,438975000,431375000,TS1,TS1,1,1,ANALOG,HIGH,12.5KHz,OFF,OFF,OFF,OFF,OFF,OFF,PATCS,UNCONFIRMED,IMPOLITE,OFF,OFF,0,OFF,0,0,OFF,OFF
FM,97,6XNG-7-Gab,439000000,431400000,TS1,TS1,1,1,ANALOG,HIGH,12.5KHz,OFF,OFF,OFF,OFF,OFF,OFF,PATCS,UNCONFIRMED,IMPOLITE,OFF,OFF,0,OFF,0,0,OFF,OFF
FM,98,8XDK-7-Gol,439000000,431400000,TS1,TS1,1,1,ANALOG,HIGH,12.5KHz,OFF,OFF,OFF,OFF,OFF,OFF,PATCS,UNCONFIRMED,IMPOLITE,OFF,CTCSS,88.5,OFF,0,0,OFF,OFF
FM,99,1XFU-7-Sat,439000000,431400000,TS1,TS1,1,1,ANALOG,HIGH,12.5KHz,OFF,OFF,OFF,OFF,OFF,OFF,PATCS,UNCONFIRMED,IMPOLITE,OFF,CTCSS,162.2,CTCSS,162.2,0,OFF,OFF
FM,100,7XKG-7-Tel,439000000,431400000,TS1,TS1,1,1,ANALOG,HIGH,12.5KHz,OFF,OFF,OFF,OFF,OFF,OFF,PATCS,UNCONFIRMED,IMPOLITE,OFF,CTCSS,77.0,CTCSS,77.0,0,OFF,OFF
FM,101,3XEU-7-Fra,439025000,431425000,TS1,TS1,1,1,ANALOG,HIGH,12.5KHz,OFF,OFF,OFF,OFF,OFF,OFF,PATCS,UNCONFIRMED,IMPOLITE,OFF,CTCSS,136.5,OFF,0,0,OFF,OFF
FM,102,3XLU-7-Gie,439025000,431425000,TS1,TS1,1,1,ANALOG,HIGH,12.5KHz,OFF,OFF,OFF,OFF,OFF,OFF,PATCS,UNCONFIRMED,IMPOLITE,OFF,OFF,0,OFF,0,0,OFF,OFF
FM,103,7XFJ-7-Har,439025000,431425000,TS1,TS1,1,1,ANALOG,HIGH,12.5KHz,OFF,OFF,OFF,OFF,OFF,OFF,PATCS,UNCONFIRMED,IMPOLITE,OFF,CTCSS,77.0,OFF,0,0,OFF,OFF
FM,104,8XKQ-7-Ger,439050000,431450000,TS1,TS1,1,1,ANALOG,HIGH,12.5KHz,OFF,OFF,OFF,OFF,OFF,OFF,PATCS,UNCONFIRMED,IMPOLITE,OFF,CTCSS,88.5,CTCSS,88.5,0,OFF,OFF
FM,105,6XPF-7-Pic,439050000,431450000,TS1,TS1,1,1,ANALOG,HIGH,12.5KHz,OFF,OFF,OFF,OFF,OFF,OFF,PATCS,UNCONFIRMED,IMPOLITE,OFF,OFF,0,OFF,0,0,OFF,OFF
FM,106,7XBI-7-Ran,439050000,431450000,TS1,TS1,1,1,ANALOG,HIGH,12.5KHz,OFF,OFF,OFF,OFF,OFF,OFF,PATCS,UNCONFIRMED,IMPOLITE,OFF,OFF,0,OFF,0,0,OFF,OFF
FM,107,3XEB-7-Tro,439050000,431450000,TS1,TS1,1,1,ANALOG,HIGH,12.5KHz,OFF,OFF,OFF,OFF,OFF,OFF,PATCS,UNCONFIRMED,IMPOLITE,OFF,OFF,0,OFF,0,0,OFF,OFF
FM,108,3XWU-7-Hoc,439075000,431475000,TS1,TS1,1,1,ANALOG,HIGH,12.5KHz,OFF,OFF,OFF,OFF,OFF,OFF,PATCS,UNCONFIRMED,IMPOLITE,OFF,CTCSS,162.2,CTCSS,162.2,0,OFF,OFF
FM,109,8XPK-7-Pet,439087500,431487500,TS1,TS1,1,1,ANALOG,HIGH,12.5KHz,OFF,OFF,OFF,OFF,OFF,OFF,PATCS,UNCONFIRMED,IMPOLITE,OFF,OFF,0,OFF,0,0,OFF,OFF
FM,110,6XRE-7-Eis,439100000,431500000,TS1,TS1,1,1,ANALOG,HIGH,12.5KHz,OFF,OFF,OFF,OFF,OFF,OFF,PATCS,UNCONFIRMED,IMPOLITE,OFF,CTCSS,103.5,OFF,0,0,OFF,OFF

