callsign	name	band	freq_tx	freq_rx	ctcss_tx	ctcss_rx	dmr	dmr_id	dstar	dstar_rpt1	dstar_rpt2	fm	landmark	state	country	country_code	loc_exact	lat	long	locator	sea_level	scan_group	source_id	source_name	source_provider	source_type	source_license	source_url	offset	dup	ctcss	simplex	split	multimode	name_formatted	distance	heading
OE1XAR	Bisamberg	70cm	430.9	438.5			True	232100	False			False	Stammersdorf	Wien	Austria	AUT	True	48.3106475	16.3827774	JN88EH	306		oevsv-repeater-db	ÖVSV-Repeater Database	ÖVSV UKW Referat	dynamic	CC BY 4.0	https://www.oevsv.at/funkbetrieb/amateurfunkfrequenzen/ukw-referat/	7.6	-	False	False	False	False	OE1XAR		
OE1XQU	Wienerberg	70cm	431.225	438.825			True		True	B	G	False	Inzersdorf Stadt	Wien	Austria	AUT	True	48.16803	16.3454	JN88EE	223		oevsv-repeater-db	ÖVSV-Repeater Database	ÖVSV UKW Referat	dynamic	CC BY 4.0	https://www.oevsv.at/funkbetrieb/amateurfunkfrequenzen/ukw-referat/	7.6	-	False	False	False	True	OE1XQU		
OE1XUR	Laaerberg Schule	70cm	430.85	438.45			True	232105	False			False	Oberlaa Stadt	Wien	Austria	AUT	True	48.15508	16.39578	JN88ED	250		oevsv-repeater-db	ÖVSV-Repeater Database	ÖVSV UKW Referat	dynamic	CC BY 4.0	https://www.oevsv.at/funkbetrieb/amateurfunkfrequenzen/ukw-referat/	7.6	-	False	False	False	False	OE1XUR		
OE2XSE	Mittersill	70cm	431.4	439.0			True	232083	False			False	Spielbichl	Salzburg	Austria	AUT	True	47.287833	12.477278	JN67FG	949		oevsv-repeater-db	ÖVSV-Repeater Database	ÖVSV UKW Referat	dynamic	CC BY 4.0	https://www.oevsv.at/funkbetrieb/amateurfunkfrequenzen/ukw-referat/	7.6	-	False	False	False	False	OE2XSE		
OE2XSV	Hoher Sonnblick	70cm	431.4875	439.0875			True	232201	False			False	Bucheben	Salzburg	Austria	AUT	True	47.05397	12.957194	JN67LB	3100		oevsv-repeater-db	ÖVSV-Repeater Database	ÖVSV UKW Referat	dynamic	CC BY 4.0	https://www.oevsv.at/funkbetrieb/amateurfunkfrequenzen/ukw-referat/	7.6	-	False	False	False	False	OE2XSV		
OE2XZR	Gaisberg	70cm	430.95	438.55			True	232222	False			False	Heuberg I	Salzburg	Austria	AUT	True	47.805128	13.112955	JN67NT	1281		oevsv-repeater-db	ÖVSV-Repeater Database	ÖVSV UKW Referat	dynamic	CC BY 4.0	https://www.oevsv.at/funkbetrieb/amateurfunkfrequenzen/ukw-referat/	7.6	-	False	False	False	False	OE2XZR		
OE3XAV	Kleinhardersdorf	70cm	431.125	438.725			True	232358	False			False	Kleinhadersdorf	Niederösterreich	Austria	AUT	True	48.66351	16.59337	JN88HP	213		oevsv-repeater-db	ÖVSV-Repeater Database	ÖVSV UKW Referat	dynamic	CC BY 4.0	https://www.oevsv.at/funkbetrieb/amateurfunkfrequenzen/ukw-referat/	7.6	-	False	False	False	False	OE3XAV		
OE3XKC	Fronberg	70cm	430.9	438.5			True	232304	False			False	Kirchberg an der Pielach	Niederösterreich	Austria	AUT	True	48.03663	15.43243	JN78RA	516		oevsv-repeater-db	ÖVSV-Repeater Database	ÖVSV UKW Referat	dynamic	CC BY 4.0	https://www.oevsv.at/funkbetrieb/amateurfunkfrequenzen/ukw-referat/	7.6	-	False	False	False	False	OE3XKC		
OE3XKQ	Kuhberg/Egelsee	70cm	430.8	438.4			True	232395	False			False	Egelsee	Niederösterreich	Austria	AUT	True	48.41759159326165	15.582438111305239	JN78SK	397		oevsv-repeater-db	ÖVSV-Repeater Database	ÖVSV UKW Referat	dynamic	CC BY 4.0	https://www.oevsv.at/funkbetrieb/amateurfunkfrequenzen/ukw-referat/	7.6	-	False	False	False	False	OE3XKQ		
OE3XKV	Hochkar	70cm	430.6	438.2			True	232333	False			False	Lassing	Niederösterreich	Austria	AUT	True	47.710833	14.901111	JN77KR	1807		oevsv-repeater-db	ÖVSV-Repeater Database	ÖVSV UKW Referat	dynamic	CC BY 4.0	https://www.oevsv.at/funkbetrieb/amateurfunkfrequenzen/ukw-referat/	7.6	-	False	False	False	False	OE3XKV		
OE3XNR	Nebelstein	70cm	431.0125	438.6125		88.5	True	232305	False			False	Hirschenwies	Niederösterreich	Austria	AUT	True	48.672816	14.77828	JN78JQ	1005		oevsv-repeater-db	ÖVSV-Repeater Database	ÖVSV UKW Referat	dynamic	CC BY 4.0	https://www.oevsv.at/funkbetrieb/amateurfunkfrequenzen/ukw-referat/	7.6	-	True	False	False	False	OE3XNR		
OE3XPC	Hinteralm	70cm	431.1	438.7	162.2		True	232341	False			True	Hintereben	Niederösterreich	Austria	AUT	True	47.97206	15.61039	JN77TX	1314		oevsv-repeater-db	ÖVSV-Repeater Database	ÖVSV UKW Referat	dynamic	CC BY 4.0	https://www.oevsv.at/funkbetrieb/amateurfunkfrequenzen/ukw-referat/	7.6	-	True	False	False	True	OE3XPC		
OE3XQA	Exelberg	70cm	431.075	438.675			True	232104	False			False	Weidlingbach	Niederösterreich	Austria	AUT	True	48.24876033	16.2440474	JN88CF	515		oevsv-repeater-db	ÖVSV-Repeater Database	ÖVSV UKW Referat	dynamic	CC BY 4.0	https://www.oevsv.at/funkbetrieb/amateurfunkfrequenzen/ukw-referat/	7.6	-	False	False	False	False	OE3XQA		
OE3XRB	Sonntagberg	70cm	430.95	438.55			True	232302	False			False	Sonntagberg	Niederösterreich	Austria	AUT	True	47.996538	14.764472	JN77JX	713		oevsv-repeater-db	ÖVSV-Repeater Database	ÖVSV UKW Referat	dynamic	CC BY 4.0	https://www.oevsv.at/funkbetrieb/amateurfunkfrequenzen/ukw-referat/	7.6	-	False	False	False	False	OE3XRB		
OE3XSA	Sandl	70cm	430.75	438.35			True	232394	False			False	Stixendorf	Niederösterreich	Austria	AUT	True	48.43338	15.471389	JN78RK	697		oevsv-repeater-db	ÖVSV-Repeater Database	ÖVSV UKW Referat	dynamic	CC BY 4.0	https://www.oevsv.at/funkbetrieb/amateurfunkfrequenzen/ukw-referat/	7.6	-	False	False	False	False	OE3XSA		
OE3XTR	Hohe Wand	70cm	430.8	438.4	162.2		True	232391	False			True	Maiersdorf	Niederösterreich	Austria	AUT	True	47.8346	16.04605	JN87AU	918		oevsv-repeater-db	ÖVSV-Repeater Database	ÖVSV UKW Referat	dynamic	CC BY 4.0	https://www.oevsv.at/funkbetrieb/amateurfunkfrequenzen/ukw-referat/	7.6	-	True	False	False	True	OE3XTR		
OE3XVA	Rittmannsberg	70cm	431.025	438.625			True	232071	False			False	Endholz	Niederösterreich	Austria	AUT	True	48.158249	14.548894	JN78GD	388		oevsv-repeater-db	ÖVSV-Repeater Database	ÖVSV UKW Referat	dynamic	CC BY 4.0	https://www.oevsv.at/funkbetrieb/amateurfunkfrequenzen/ukw-referat/	7.6	-	False	False	False	False	OE3XVA		
OE3XVJ	FH Wr Neustadt	70cm	430.625	438.225	162.2	162.2	True		True	B	G	True	Wiener Neustadt	Niederösterreich	Austria	AUT	True	47.839	16.24825	JN87CU	271		oevsv-repeater-db	ÖVSV-Repeater Database	ÖVSV UKW Referat	dynamic	CC BY 4.0	https://www.oevsv.at/funkbetrieb/amateurfunkfrequenzen/ukw-referat/	7.6	-	True	False	False	True	OE3XVJ		
OE3XWJ	Jauerling	70cm	430.825	438.425			True	232301	False			False	Wiesmannsreith	Niederösterreich	Austria	AUT	True	48.334521482895106	15.337681174278261	JN78QI	959		oevsv-repeater-db	ÖVSV-Repeater Database	ÖVSV UKW Referat	dynamic	CC BY 4.0	https://www.oevsv.at/funkbetrieb/amateurfunkfrequenzen/ukw-referat/	7.6	-	False	False	False	False	OE3XWJ		
OE3XWU	Hochwechsel	70cm	431.475	439.075	162.2	162.2	True	232103	True	B	G	True	Neustift am Alpenwald	Niederösterreich	Austria	AUT	True	47.530448	15.9145156	JN77WM	1740		oevsv-repeater-db	ÖVSV-Repeater Database	ÖVSV UKW Referat	dynamic	CC BY 4.0	https://www.oevsv.at/funkbetrieb/amateurfunkfrequenzen/ukw-referat/	7.6	-	True	False	False	True	OE3XWU		
OE3XWW	Mönichkirchen	70cm	430.975	438.575			True		False			False	Mönichkirchen	Niederösterreich	Austria	AUT	True	47.510703	16.037665	JN87AM	948		oevsv-repeater-db	ÖVSV-Repeater Database	ÖVSV UKW Referat	dynamic	CC BY 4.0	https://www.oevsv.at/funkbetrieb/amateurfunkfrequenzen/ukw-referat/	7.6	-	False	False	False	False	OE3XWW		
OE3XYR	Weiterner Straße	70cm	430.775	438.375			True	232392	False			False	St. Pölten	Niederösterreich	Austria	AUT	True	48.22104	15.62219	JN78TF	291		oevsv-repeater-db	ÖVSV-Repeater Database	ÖVSV UKW Referat	dynamic	CC BY 4.0	https://www.oevsv.at/funkbetrieb/amateurfunkfrequenzen/ukw-referat/	7.6	-	False	False	False	False	OE3XYR		
OE4XSB	Sonnenberg im Leithagebirge	70cm	430.7625	438.3625			True	232402	True	B	G	False	Hornstein	Burgenland	Austria	AUT	True	47.875443581357835	16.475900647888768	JN87FV	482		oevsv-repeater-db	ÖVSV-Repeater Database	ÖVSV UKW Referat	dynamic	CC BY 4.0	https://www.oevsv.at/funkbetrieb/amateurfunkfrequenzen/ukw-referat/	7.6	-	False	False	False	True	OE4XSB		
OE4XUB	Brentenriegel	70cm	430.95	438.55			True	232401	False			False	Sieggraben	Burgenland	Austria	AUT	True	47.659535	16.390592	JN87EP	605		oevsv-repeater-db	ÖVSV-Repeater Database	ÖVSV UKW Referat	dynamic	CC BY 4.0	https://www.oevsv.at/funkbetrieb/amateurfunkfrequenzen/ukw-referat/	7.6	-	False	False	False	False	OE4XUB		
OE5XGL	Grünberg	70cm	431.2	438.8	123.0	123.0	True	232502	False			True	Schlagen	Oberösterreich	Austria	AUT	True	47.8981318	13.8219805	JN67VV	977		oevsv-repeater-db	ÖVSV-Repeater Database	ÖVSV UKW Referat	dynamic	CC BY 4.0	https://www.oevsv.at/funkbetrieb/amateurfunkfrequenzen/ukw-referat/	7.6	-	True	False	False	True	OE5XGL		
OE5XIM	Sternstein	70cm	430.65	438.25			True	232518	False			False	Amesschlag	Oberösterreich	Austria	AUT	True	48.5599155	14.2690062	JN78DN	1105		oevsv-repeater-db	ÖVSV-Repeater Database	ÖVSV UKW Referat	dynamic	CC BY 4.0	https://www.oevsv.at/funkbetrieb/amateurfunkfrequenzen/ukw-referat/	7.6	-	False	False	False	False	OE5XIM		
OE5XKL	Krippenstein	70cm	430.9	438.5			True	232504	True	B	G	False	Obertraun	Oberösterreich	Austria	AUT	True	47.524287	13.69208	JN67UM	2106		oevsv-repeater-db	ÖVSV-Repeater Database	ÖVSV UKW Referat	dynamic	CC BY 4.0	https://www.oevsv.at/funkbetrieb/amateurfunkfrequenzen/ukw-referat/	7.6	-	False	False	False	True	OE5XKL		
OE5XLL	Lichtenberg	70cm	430.875	438.475			True	232501	False			False	Lichtenberg	Oberösterreich	Austria	AUT	True	48.38515	14.25445	JN78DJ	927		oevsv-repeater-db	ÖVSV-Repeater Database	ÖVSV UKW Referat	dynamic	CC BY 4.0	https://www.oevsv.at/funkbetrieb/amateurfunkfrequenzen/ukw-referat/	7.6	-	False	False	False	False	OE5XLL		
OE6XAG	Schöckl	70cm	430.375	437.975			True	232607	False			False	Schöckl	Steiermark	Austria	AUT	True	47.1988534	15.4669424	JN77RE	1436		oevsv-repeater-db	ÖVSV-Repeater Database	ÖVSV UKW Referat	dynamic	CC BY 4.0	https://www.oevsv.at/funkbetrieb/amateurfunkfrequenzen/ukw-referat/	7.6	-	False	False	False	False	OE6XAG		
OE6XAG	Schöckl	70cm	431.0	438.6			True	232601	False			False	Schöckl	Steiermark	Austria	AUT	True	47.1988534	15.4669424	JN77RE	1436		oevsv-repeater-db	ÖVSV-Repeater Database	ÖVSV UKW Referat	dynamic	CC BY 4.0	https://www.oevsv.at/funkbetrieb/amateurfunkfrequenzen/ukw-referat/	7.6	-	False	False	False	False	OE6XAG		
OE6XAR	Lachtal	70cm	430.825	438.425			True	232603	False			False	Schönberg	Steiermark	Austria	AUT	True	47.25505	14.34483	JN77EG	1765		oevsv-repeater-db	ÖVSV-Repeater Database	ÖVSV UKW Referat	dynamic	CC BY 4.0	https://www.oevsv.at/funkbetrieb/amateurfunkfrequenzen/ukw-referat/	7.6	-	False	False	False	False	OE6XAR		
OE6XBF	Stradner Kogel	70cm	431.3125	438.9125			True	232604	False			False	Hochstraden	Steiermark	Austria	AUT	True	46.84521579785275	15.93197822570801	JN76XU	607		oevsv-repeater-db	ÖVSV-Repeater Database	ÖVSV UKW Referat	dynamic	CC BY 4.0	https://www.oevsv.at/funkbetrieb/amateurfunkfrequenzen/ukw-referat/	7.6	-	False	False	False	False	OE6XBF		
OE6XBG	Rennfeld	70cm	431.325	438.925			True	232602	False			False	Übelstein	Steiermark	Austria	AUT	True	47.40554	15.35936	JN77QJ	1618		oevsv-repeater-db	ÖVSV-Repeater Database	ÖVSV UKW Referat	dynamic	CC BY 4.0	https://www.oevsv.at/funkbetrieb/amateurfunkfrequenzen/ukw-referat/	7.6	-	False	False	False	False	OE6XBG		
OE6XDG	Lachtal	70cm	430.475	438.075			True	232608	False			False	Schönberg	Steiermark	Austria	AUT	True	47.25505	14.34483	JN77EG	1765		oevsv-repeater-db	ÖVSV-Repeater Database	ÖVSV UKW Referat	dynamic	CC BY 4.0	https://www.oevsv.at/funkbetrieb/amateurfunkfrequenzen/ukw-referat/	7.6	-	False	False	False	False	OE6XDG		
OE6XLR	Mugl	70cm	430.65	438.25			True	232622	False			False	Niklasdorfgraben	Steiermark	Austria	AUT	True	47.35869726113119	15.188078284263613	JN77OI	1626		oevsv-repeater-db	ÖVSV-Repeater Database	ÖVSV UKW Referat	dynamic	CC BY 4.0	https://www.oevsv.at/funkbetrieb/amateurfunkfrequenzen/ukw-referat/	7.6	-	False	False	False	False	OE6XLR		
OE6XME	Kindberg	70cm	430.925	438.525			True	232609	False			True	Kindberg	Steiermark	Austria	AUT	True	47.50585	15.44903	JN77RM	568		oevsv-repeater-db	ÖVSV-Repeater Database	ÖVSV UKW Referat	dynamic	CC BY 4.0	https://www.oevsv.at/funkbetrieb/amateurfunkfrequenzen/ukw-referat/	7.6	-	False	False	False	True	OE6XME		
OE7XBI	Rangger Köpfl	70cm	431.475	439.075			True	232702	False			False	Inzing	Tirol	Austria	AUT	True	47.242985	11.181174	JN57OF	1938		oevsv-repeater-db	ÖVSV-Repeater Database	ÖVSV UKW Referat	dynamic	CC BY 4.0	https://www.oevsv.at/funkbetrieb/amateurfunkfrequenzen/ukw-referat/	7.6	-	False	False	False	False	OE7XBI		
OE7XCJ	Innsbruck Brixner Straße	70cm	430.8	438.4			True	232706	False			False	Innsbruck	Tirol	Austria	AUT	True	47.264819	11.39865	JN57QG	580		oevsv-repeater-db	ÖVSV-Repeater Database	ÖVSV UKW Referat	dynamic	CC BY 4.0	https://www.oevsv.at/funkbetrieb/amateurfunkfrequenzen/ukw-referat/	7.6	-	False	False	False	False	OE7XCJ		
OE7XFJ	Harschbichl	70cm	430.65	438.25			True	232712	False			False	St. Johann in Tirol	Tirol	Austria	AUT	True	47.48446	12.42795	JN67FL	1601		oevsv-repeater-db	ÖVSV-Repeater Database	ÖVSV UKW Referat	dynamic	CC BY 4.0	https://www.oevsv.at/funkbetrieb/amateurfunkfrequenzen/ukw-referat/	7.6	-	False	False	False	False	OE7XFJ		
OE7XGR	Gefrorene Wand	70cm	431.325	438.925	77.0	77.0	True	232705	False			True	Finkenberg	Tirol	Austria	AUT	True	47.064977	11.679196	JN57UB	3247		oevsv-repeater-db	ÖVSV-Repeater Database	ÖVSV UKW Referat	dynamic	CC BY 4.0	https://www.oevsv.at/funkbetrieb/amateurfunkfrequenzen/ukw-referat/	7.6	-	True	False	False	True	OE7XGR		
OE7XKH	Krahberg	70cm	430.9	438.5			True	232714	True	B	G	False	Zams	Tirol	Austria	AUT	True	47.145919	10.626826	JN57HD	2203		oevsv-repeater-db	ÖVSV-Repeater Database	ÖVSV UKW Referat	dynamic	CC BY 4.0	https://www.oevsv.at/funkbetrieb/amateurfunkfrequenzen/ukw-referat/	7.6	-	False	False	False	True	OE7XKH		
OE7XLI	Hochstein	70cm	431.275	438.875			True	232710	False			False	Patriasdorf	Tirol	Austria	AUT	True	46.82166	12.70025	JN66IT	2019		oevsv-repeater-db	ÖVSV-Repeater Database	ÖVSV UKW Referat	dynamic	CC BY 4.0	https://www.oevsv.at/funkbetrieb/amateurfunkfrequenzen/ukw-referat/	7.6	-	False	False	False	False	OE7XLI		
OE7XOT	Obtarrenz	70cm	431.5	439.1			True	232076	True	B	G	False	Tarrenz	Tirol	Austria	AUT	True	47.279243560012524	10.767288208007812	JN57JG	1050		oevsv-repeater-db	ÖVSV-Repeater Database	ÖVSV UKW Referat	dynamic	CC BY 4.0	https://www.oevsv.at/funkbetrieb/amateurfunkfrequenzen/ukw-referat/	7.6	-	False	False	False	True	OE7XOT		
OE7XUT	Kammberg	70cm	431.025	438.625			True	232707	False			False	St. Ulrich	Tirol	Austria	AUT	True	47.483813	12.589652	JN67HL	1419		oevsv-repeater-db	ÖVSV-Repeater Database	ÖVSV UKW Referat	dynamic	CC BY 4.0	https://www.oevsv.at/funkbetrieb/amateurfunkfrequenzen/ukw-referat/	7.6	-	False	False	False	False	OE7XUT		
OE7XWT	Weinbergerhaus	70cm	430.875	438.475			True	232750	False			False	Kufstein	Tirol	Austria	AUT	True	47.57772	12.20958	JN67CN	1269		oevsv-repeater-db	ÖVSV-Repeater Database	ÖVSV UKW Referat	dynamic	CC BY 4.0	https://www.oevsv.at/funkbetrieb/amateurfunkfrequenzen/ukw-referat/	7.6	-	False	False	False	False	OE7XWT		
OE7XZH	Bruckerberg	70cm	430.85	438.45			True	232701	False			False	Bruck am Ziller	Tirol	Austria	AUT	True	47.381759	11.874329	JN57WJ	1050		oevsv-repeater-db	ÖVSV-Repeater Database	ÖVSV UKW Referat	dynamic	CC BY 4.0	https://www.oevsv.at/funkbetrieb/amateurfunkfrequenzen/ukw-referat/	7.6	-	False	False	False	False	OE7XZH		
OE8XFK	Dobratsch	70cm	431.3	438.9	88.5	88.5	True	232895	False			True	Bleiberg	Kärnten	Austria	AUT	True	46.603397	13.670989	JN66UO	2159		oevsv-repeater-db	ÖVSV-Repeater Database	ÖVSV UKW Referat	dynamic	CC BY 4.0	https://www.oevsv.at/funkbetrieb/amateurfunkfrequenzen/ukw-referat/	7.6	-	True	False	False	True	OE8XFK		
OE8XGK	Finkenstein/Neumüllern	70cm	430.85	438.45			True	232836	False			False	Gödersdorf	Kärnten	Austria	AUT	True	46.56579	13.83948	JN66WN	507		oevsv-repeater-db	ÖVSV-Repeater Database	ÖVSV UKW Referat	dynamic	CC BY 4.0	https://www.oevsv.at/funkbetrieb/amateurfunkfrequenzen/ukw-referat/	7.6	-	False	False	False	False	OE8XGK		
OE8XKK	Pyramidenkogel	70cm	431.0	438.6			True	232108	False			False	Plescherken	Kärnten	Austria	AUT	True	46.608914	14.14479	JN76BO	849		oevsv-repeater-db	ÖVSV-Repeater Database	ÖVSV UKW Referat	dynamic	CC BY 4.0	https://www.oevsv.at/funkbetrieb/amateurfunkfrequenzen/ukw-referat/	7.6	-	False	False	False	False	OE8XKK		
OE8XMK	Magdalensberg	70cm	431.25	438.85			True	232802	False			False	Ottmanach	Kärnten	Austria	AUT	True	46.728051	14.429426	JN76FR	1059		oevsv-repeater-db	ÖVSV-Repeater Database	ÖVSV UKW Referat	dynamic	CC BY 4.0	https://www.oevsv.at/funkbetrieb/amateurfunkfrequenzen/ukw-referat/	7.6	-	False	False	False	False	OE8XMK		
OE8XPK	Petzen	2m	145.1375	145.7375	88.5	88.5	True	232802	False			True	Unterort	Kärnten	Austria	AUT	True	46.518507	14.772985	JN76JM	1678		oevsv-repeater-db	ÖVSV-Repeater Database	ÖVSV UKW Referat	dynamic	CC BY 4.0	https://www.oevsv.at/funkbetrieb/amateurfunkfrequenzen/ukw-referat/	0.6	-	True	False	False	True	OE8XPK		
OE8XPK	Petzen	70cm	430.9	438.5			True	232802	False			False	Unterort	Kärnten	Austria	AUT	True	46.518507	14.772985	JN76JM	1678		oevsv-repeater-db	ÖVSV-Repeater Database	ÖVSV UKW Referat	dynamic	CC BY 4.0	https://www.oevsv.at/funkbetrieb/amateurfunkfrequenzen/ukw-referat/	7.6	-	False	False	False	False	OE8XPK		
OE8XWK	St. Georgen am Längsee	70cm	431.35	438.95			True	232805	False			False	Launsdorf	Kärnten	Austria	AUT	True	46.80088	14.43904	JN76FT	620		oevsv-repeater-db	ÖVSV-Repeater Database	ÖVSV UKW Referat	dynamic	CC BY 4.0	https://www.oevsv.at/funkbetrieb/amateurfunkfrequenzen/ukw-referat/	7.6	-	False	False	False	False	OE8XWK		
OE9XKV	Karren	70cm	430.9	438.5			True	232078	False			False	Dornbirn	Vorarlberg	Austria	AUT	True	47.38802843464625	9.750838279724123	JN47VJ	970		oevsv-repeater-db	ÖVSV-Repeater Database	ÖVSV UKW Referat	dynamic	CC BY 4.0	https://www.oevsv.at/funkbetrieb/amateurfunkfrequenzen/ukw-referat/	7.6	-	False	False	False	False	OE9XKV		
OE9XMH	Muttersberg	70cm	430.675	438.275			True	232907	False			False	Nüziders	Vorarlberg	Austria	AUT	True	47.18057966668588	9.825339317321781	JN47VE	1398		oevsv-repeater-db	ÖVSV-Repeater Database	ÖVSV UKW Referat	dynamic	CC BY 4.0	https://www.oevsv.at/funkbetrieb/amateurfunkfrequenzen/ukw-referat/	7.6	-	False	False	False	False	OE9XMH		
OE9XVI	Vorderälpele	70cm	430.6875	438.2875			True	232902	False			False	Tisis	Vorarlberg	Austria	AUT	True	47.20918	9.591069	JN47TF	1315		oevsv-repeater-db	ÖVSV-Repeater Database	ÖVSV UKW Referat	dynamic	CC BY 4.0	https://www.oevsv.at/funkbetrieb/amateurfunkfrequenzen/ukw-referat/	7.6	-	False	False	False	False	OE9XVI		
OE9XXH	Hard	70cm	430.8625	438.4625			True	232077	False			False	Hard	Vorarlberg	Austria	AUT	True	47.48602	9.69444	JN47UL	399		oevsv-repeater-db	ÖVSV-Repeater Database	ÖVSV UKW Referat	dynamic	CC BY 4.0	https://www.oevsv.at/funkbetrieb/amateurfunkfrequenzen/ukw-referat/	7.6	-	False	False	False	False	OE9XXH		
