callsign	name	band	freq_tx	freq_rx	ctcss_tx	ctcss_rx	dmr	dmr_id	dstar	dstar_rpt1	dstar_rpt2	fm	landmark	state	country	country_code	loc_exact	lat	long	locator	sea_level	scan_group	source_id	source_name	source_provider	source_type	source_license	source_url	offset	dup	ctcss	simplex	split	multimode	name_formatted	distance	heading
OE5XFK	Feuerkogel	70cm	430.55	438.15	123.0	123.0	False		False			True	Langwies	Oberösterreich	Austria	AUT	True	47.81588	13.721327	JN67UT	1590		oevsv-repeater-db	ÖVSV-Repeater Database	ÖVSV UKW Referat	dynamic	CC BY 4.0	https://www.oevsv.at/funkbetrieb/amateurfunkfrequenzen/ukw-referat/	7.6	-	True	False	False	False	OE5XFK		
OE6XFD	St. Bartholomä	70cm	430.6	438.2	103.5	103.5	False		False			True	St. Bartholomä	Steiermark	Austria	AUT	True	47.07115042743464	15.256529517436299	JN77PB	475		oevsv-repeater-db	ÖVSV-Repeater Database	ÖVSV UKW Referat	dynamic	CC BY 4.0	https://www.oevsv.at/funkbetrieb/amateurfunkfrequenzen/ukw-referat/	7.6	-	True	False	False	False	OE6XFD		
OE7XET	Ehrwald	70cm	430.625	438.225	136.5		False		False			True	Ehrwald	Tirol	Austria	AUT	True	47.412446419367086	10.916422724349717	JN57KJ	998		oevsv-repeater-db	ÖVSV-Repeater Database	ÖVSV UKW Referat	dynamic	CC BY 4.0	https://www.oevsv.at/funkbetrieb/amateurfunkfrequenzen/ukw-referat/	7.6	-	True	False	False	False	OE7XET		
OE3XVJ	FH Wr Neustadt	70cm	430.625	438.225	162.2	162.2	True		True	B	G	True	Wiener Neustadt	Niederösterreich	Austria	AUT	True	47.839	16.24825	JN87CU	271		oevsv-repeater-db	ÖVSV-Repeater Database	ÖVSV UKW Referat	dynamic	CC BY 4.0	https://www.oevsv.at/funkbetrieb/amateurfunkfrequenzen/ukw-referat/	7.6	-	True	False	False	True	OE3XVJ		
OE3XOR	Hainfelder Hütte	70cm	430.7	438.3	162.2	162.2	False		False			True	Hainfeld	Niederösterreich	Austria	AUT	True	48.0193515	15.753696399999999	JN78VA	922		oevsv-repeater-db	ÖVSV-Repeater Database	ÖVSV UKW Referat	dynamic	CC BY 4.0	https://www.oevsv.at/funkbetrieb/amateurfunkfrequenzen/ukw-referat/	7.6	-	True	False	False	False	OE3XOR		
OE7XLI	Hochstein	70cm	430.7	438.3	77.0	77.0	False		False			True	Patriasdorf	Tirol	Austria	AUT	True	46.82166	12.70025	JN66IT	2019		oevsv-repeater-db	ÖVSV-Repeater Database	ÖVSV UKW Referat	dynamic	CC BY 4.0	https://www.oevsv.at/funkbetrieb/amateurfunkfrequenzen/ukw-referat/	7.6	-	True	False	False	False	OE7XLI		
OE8XKP	Klippitztörl	70cm	430.7	438.3	88.5		False		False			True	Leiwald	Kärnten	Austria	AUT	True	46.93639	14.67506	JN76IW	1626		oevsv-repeater-db	ÖVSV-Repeater Database	ÖVSV UKW Referat	dynamic	CC BY 4.0	https://www.oevsv.at/funkbetrieb/amateurfunkfrequenzen/ukw-referat/	7.6	-	True	False	False	False	OE8XKP		
OE1XBA	Porrtower	70cm	430.7125	438.3125	162.2	162.2	False		False			True	Favoriten	Wien	Austria	AUT	True	48.16796379539441	16.38715982437134	JN88EE	232		oevsv-repeater-db	ÖVSV-Repeater Database	ÖVSV UKW Referat	dynamic	CC BY 4.0	https://www.oevsv.at/funkbetrieb/amateurfunkfrequenzen/ukw-referat/	7.6	-	True	False	False	False	OE1XBA		
OE2XZR	Gaisberg	70cm	430.8	438.4	88.5		False		False			True	Heuberg I	Salzburg	Austria	AUT	True	47.805128	13.112955	JN67NT	1281		oevsv-repeater-db	ÖVSV-Repeater Database	ÖVSV UKW Referat	dynamic	CC BY 4.0	https://www.oevsv.at/funkbetrieb/amateurfunkfrequenzen/ukw-referat/	7.6	-	True	False	False	False	OE2XZR		
OE3XTR	Hohe Wand	70cm	430.8	438.4	162.2		True	232391	False			True	Maiersdorf	Niederösterreich	Austria	AUT	True	47.8346	16.04605	JN87AU	918		oevsv-repeater-db	ÖVSV-Repeater Database	ÖVSV UKW Referat	dynamic	CC BY 4.0	https://www.oevsv.at/funkbetrieb/amateurfunkfrequenzen/ukw-referat/	7.6	-	True	False	False	True	OE3XTR		
OE5XDN	Senftenbach/Wolfau	70cm	430.825	438.425	123.0	123.0	False		True	B	G	True	Furth	Oberösterreich	Austria	AUT	True	48.27889	13.40661	JN68QG	476		oevsv-repeater-db	ÖVSV-Repeater Database	ÖVSV UKW Referat	dynamic	CC BY 4.0	https://www.oevsv.at/funkbetrieb/amateurfunkfrequenzen/ukw-referat/	7.6	-	True	False	False	True	OE5XDN		
OE1XAT	Hermannskogel	70cm	430.875	438.475	162.2	162.2	False		False			True	Grinzing	Wien	Austria	AUT	True	48.27041873853696	16.29355072975159	JN88DG	542		oevsv-repeater-db	ÖVSV-Repeater Database	ÖVSV UKW Referat	dynamic	CC BY 4.0	https://www.oevsv.at/funkbetrieb/amateurfunkfrequenzen/ukw-referat/	7.6	-	True	False	False	False	OE1XAT		
OE7XJH	Hollbruck	70cm	430.9	438.5	77.0		False		False			True	Hollbruck	Tirol	Austria	AUT	True	46.73872222	12.45377778	JN66FR	1341		oevsv-repeater-db	ÖVSV-Repeater Database	ÖVSV UKW Referat	dynamic	CC BY 4.0	https://www.oevsv.at/funkbetrieb/amateurfunkfrequenzen/ukw-referat/	7.6	-	True	False	False	False	OE7XJH		
OE9XFV	Gebhartsberg	70cm	430.925	438.525	85.4	85.4	False		False			True	Bregenz	Vorarlberg	Austria	AUT	True	47.49003	9.74761	JN47UL	596		oevsv-repeater-db	ÖVSV-Repeater Database	ÖVSV UKW Referat	dynamic	CC BY 4.0	https://www.oevsv.at/funkbetrieb/amateurfunkfrequenzen/ukw-referat/	7.6	-	True	False	False	False	OE9XFV		
OE6XME	Kindberg	70cm	430.925	438.525			True	232609	False			True	Kindberg	Steiermark	Austria	AUT	True	47.50585	15.44903	JN77RM	568		oevsv-repeater-db	ÖVSV-Repeater Database	ÖVSV UKW Referat	dynamic	CC BY 4.0	https://www.oevsv.at/funkbetrieb/amateurfunkfrequenzen/ukw-referat/	7.6	-	False	False	False	True	OE6XME		
OE8XVK	Villach LKH	70cm	430.95	438.55	88.5	88.5	False		True	B	G	True	Villach	Kärnten	Austria	AUT	True	46.61612	13.85777	JN66WO	494		oevsv-repeater-db	ÖVSV-Repeater Database	ÖVSV UKW Referat	dynamic	CC BY 4.0	https://www.oevsv.at/funkbetrieb/amateurfunkfrequenzen/ukw-referat/	7.6	-	True	False	False	True	OE8XVK		
OE5XOL	Breitenstein	70cm	430.975	438.575	123.0	123.0	False		False			True	Kirchschlag	Oberösterreich	Austria	AUT	True	48.4152993	14.27429015	JN78DJ	955		oevsv-repeater-db	ÖVSV-Repeater Database	ÖVSV UKW Referat	dynamic	CC BY 4.0	https://www.oevsv.at/funkbetrieb/amateurfunkfrequenzen/ukw-referat/	7.6	-	True	False	False	False	OE5XOL		
OE8XMK	Magdalensberg	70cm	430.975	438.575	88.5	88.5	False		False			True	Ottmanach	Kärnten	Austria	AUT	True	46.728051	14.429426	JN76FR	1059		oevsv-repeater-db	ÖVSV-Repeater Database	ÖVSV UKW Referat	dynamic	CC BY 4.0	https://www.oevsv.at/funkbetrieb/amateurfunkfrequenzen/ukw-referat/	7.6	-	True	False	False	False	OE8XMK		
OE9XXD	Dornbirn Erlosenstraße	70cm	430.9875	438.5875	85.4	85.4	False		False			True	Dornbirn	Vorarlberg	Austria	AUT	True	47.4013	9.7227	JN47UJ	426		oevsv-repeater-db	ÖVSV-Repeater Database	ÖVSV UKW Referat	dynamic	CC BY 4.0	https://www.oevsv.at/funkbetrieb/amateurfunkfrequenzen/ukw-referat/	7.6	-	True	False	False	False	OE9XXD		
OE3XWJ	Jauerling	70cm	431.0	438.6	162.2	162.2	False		False			True	Wiesmannsreith	Niederösterreich	Austria	AUT	True	48.334521482895106	15.337681174278261	JN78QI	959		oevsv-repeater-db	ÖVSV-Repeater Database	ÖVSV UKW Referat	dynamic	CC BY 4.0	https://www.oevsv.at/funkbetrieb/amateurfunkfrequenzen/ukw-referat/	7.6	-	True	False	False	False	OE3XWJ		
OE7XWT	Weinbergerhaus	70cm	431.0	438.6	77.0		False		False			True	Kufstein	Tirol	Austria	AUT	True	47.57772	12.20958	JN67CN	1269		oevsv-repeater-db	ÖVSV-Repeater Database	ÖVSV UKW Referat	dynamic	CC BY 4.0	https://www.oevsv.at/funkbetrieb/amateurfunkfrequenzen/ukw-referat/	7.6	-	True	False	False	False	OE7XWT		
OE7XLH	Iselsberg-Stronach	70cm	431.025	438.625			False		True	B	G	True	Iselsberg	Tirol	Austria	AUT	True	46.83869	12.84436	JN66KU	1130		oevsv-repeater-db	ÖVSV-Repeater Database	ÖVSV UKW Referat	dynamic	CC BY 4.0	https://www.oevsv.at/funkbetrieb/amateurfunkfrequenzen/ukw-referat/	7.6	-	False	False	False	True	OE7XLH		
OE9XKV	Karren	70cm	431.025	438.625	85.4	85.4	False		False			True	Dornbirn	Vorarlberg	Austria	AUT	True	47.38802843464625	9.750838279724123	JN47VJ	970		oevsv-repeater-db	ÖVSV-Repeater Database	ÖVSV UKW Referat	dynamic	CC BY 4.0	https://www.oevsv.at/funkbetrieb/amateurfunkfrequenzen/ukw-referat/	7.6	-	True	False	False	False	OE9XKV		
OE6XCD	Stuhleck	70cm	431.025	438.625			False		False			True	Spital am Semmering	Steiermark	Austria	AUT	True	47.574167	15.79	JN77VN	1781		oevsv-repeater-db	ÖVSV-Repeater Database	ÖVSV UKW Referat	dynamic	CC BY 4.0	https://www.oevsv.at/funkbetrieb/amateurfunkfrequenzen/ukw-referat/	7.6	-	False	False	False	False	OE6XCD		
OE1XFW	Laaerberg Turm	70cm	431.05	438.65			False		False			True	Oberlaa Stadt	Wien	Austria	AUT	True	48.157173	16.396717	JN88ED	252		oevsv-repeater-db	ÖVSV-Repeater Database	ÖVSV UKW Referat	dynamic	CC BY 4.0	https://www.oevsv.at/funkbetrieb/amateurfunkfrequenzen/ukw-referat/	7.6	-	False	False	False	False	OE1XFW		
OE5XLL	Lichtenberg	70cm	431.05	438.65			False		False			True	Lichtenberg	Oberösterreich	Austria	AUT	True	48.38515	14.25445	JN78DJ	927		oevsv-repeater-db	ÖVSV-Repeater Database	ÖVSV UKW Referat	dynamic	CC BY 4.0	https://www.oevsv.at/funkbetrieb/amateurfunkfrequenzen/ukw-referat/	7.6	-	False	False	False	False	OE5XLL		
OE8XCK	Rossegger Str/LWZ	70cm	431.05	438.65			False		False			True	Waidmannsdorf	Kärnten	Austria	AUT	True	46.61189	14.29801	JN76DO	441		oevsv-repeater-db	ÖVSV-Repeater Database	ÖVSV UKW Referat	dynamic	CC BY 4.0	https://www.oevsv.at/funkbetrieb/amateurfunkfrequenzen/ukw-referat/	7.6	-	False	False	False	False	OE8XCK		
OE7XLR	Seegrube	70cm	431.05	438.65	77.0		False		False			True	Hötting	Tirol	Austria	AUT	True	47.305572	11.377861	JN57QH	1913		oevsv-repeater-db	ÖVSV-Repeater Database	ÖVSV UKW Referat	dynamic	CC BY 4.0	https://www.oevsv.at/funkbetrieb/amateurfunkfrequenzen/ukw-referat/	7.6	-	True	False	False	False	OE7XLR		
OE6XDG	Lachtal	70cm	431.075	438.675	103.5	103.5	False		False			True	Schönberg	Steiermark	Austria	AUT	True	47.25505	14.34483	JN77EG	1765		oevsv-repeater-db	ÖVSV-Repeater Database	ÖVSV UKW Referat	dynamic	CC BY 4.0	https://www.oevsv.at/funkbetrieb/amateurfunkfrequenzen/ukw-referat/	7.6	-	True	False	False	False	OE6XDG		
OE3XPC	Hinteralm	70cm	431.1	438.7	162.2		True	232341	False			True	Hintereben	Niederösterreich	Austria	AUT	True	47.97206	15.61039	JN77TX	1314		oevsv-repeater-db	ÖVSV-Repeater Database	ÖVSV UKW Referat	dynamic	CC BY 4.0	https://www.oevsv.at/funkbetrieb/amateurfunkfrequenzen/ukw-referat/	7.6	-	True	False	False	True	OE3XPC		
OE5XDM	Hunerkogel	70cm	431.125	438.725			False		False			True	Obertraun	Oberösterreich	Austria	AUT	True	47.46794155907106	13.626244068145754	JN67TL	2687		oevsv-repeater-db	ÖVSV-Repeater Database	ÖVSV UKW Referat	dynamic	CC BY 4.0	https://www.oevsv.at/funkbetrieb/amateurfunkfrequenzen/ukw-referat/	7.6	-	False	False	False	False	OE5XDM		
OE4XSB	Sonnenberg im Leithagebirge	70cm	431.125	438.725	97.4		False		False			True	Hornstein	Burgenland	Austria	AUT	True	47.875443581357835	16.475900647888768	JN87FV	482		oevsv-repeater-db	ÖVSV-Repeater Database	ÖVSV UKW Referat	dynamic	CC BY 4.0	https://www.oevsv.at/funkbetrieb/amateurfunkfrequenzen/ukw-referat/	7.6	-	True	False	False	False	OE4XSB		
OE5XHO	Damberg	70cm	431.15	438.75			False		False			True	Unterwald	Oberösterreich	Austria	AUT	True	48.007363488562355	14.452160596847536	JN78FA	647		oevsv-repeater-db	ÖVSV-Repeater Database	ÖVSV UKW Referat	dynamic	CC BY 4.0	https://www.oevsv.at/funkbetrieb/amateurfunkfrequenzen/ukw-referat/	7.6	-	False	False	False	False	OE5XHO		
OE3XHW	Hohe Wand	70cm	431.15	438.75			False		False			True	Maiersdorf	Niederösterreich	Austria	AUT	True	47.8346	16.04605	JN87AU	918		oevsv-repeater-db	ÖVSV-Repeater Database	ÖVSV UKW Referat	dynamic	CC BY 4.0	https://www.oevsv.at/funkbetrieb/amateurfunkfrequenzen/ukw-referat/	7.6	-	False	False	False	False	OE3XHW		
OE6XGD	Ungerdorf	70cm	431.15	438.75			False		False			True	Ungerdorf	Steiermark	Austria	AUT	True	47.0938	15.69455	JN77UC	406		oevsv-repeater-db	ÖVSV-Repeater Database	ÖVSV UKW Referat	dynamic	CC BY 4.0	https://www.oevsv.at/funkbetrieb/amateurfunkfrequenzen/ukw-referat/	7.6	-	False	False	False	False	OE6XGD		
OE6XCG	Grambach	70cm	431.175	438.775			False		False			True	Grambach	Steiermark	Austria	AUT	True	47.00617	15.4962	JN77RA	337		oevsv-repeater-db	ÖVSV-Repeater Database	ÖVSV UKW Referat	dynamic	CC BY 4.0	https://www.oevsv.at/funkbetrieb/amateurfunkfrequenzen/ukw-referat/	7.6	-	False	False	False	False	OE6XCG		
OE5XBR	Linz Froschberg	70cm	431.175	438.775			False		False			True	Waldegg	Oberösterreich	Austria	AUT	True	48.28849	14.27855	JN78DG	327		oevsv-repeater-db	ÖVSV-Repeater Database	ÖVSV UKW Referat	dynamic	CC BY 4.0	https://www.oevsv.at/funkbetrieb/amateurfunkfrequenzen/ukw-referat/	7.6	-	False	False	False	False	OE5XBR		
OE3XNS	Buschberg	70cm	431.2	438.8			False		False			True	Pyhra	Niederösterreich	Austria	AUT	True	48.577044	16.39555	JN88EN	490		oevsv-repeater-db	ÖVSV-Repeater Database	ÖVSV UKW Referat	dynamic	CC BY 4.0	https://www.oevsv.at/funkbetrieb/amateurfunkfrequenzen/ukw-referat/	7.6	-	False	False	False	False	OE3XNS		
OE5XGL	Grünberg	70cm	431.2	438.8	123.0	123.0	True	232502	False			True	Schlagen	Oberösterreich	Austria	AUT	True	47.8981318	13.8219805	JN67VV	977		oevsv-repeater-db	ÖVSV-Repeater Database	ÖVSV UKW Referat	dynamic	CC BY 4.0	https://www.oevsv.at/funkbetrieb/amateurfunkfrequenzen/ukw-referat/	7.6	-	True	False	False	True	OE5XGL		
OE6XMD	Zirbitzkogel	70cm	431.2	438.8			False		False			True	Granitzen	Steiermark	Austria	AUT	True	47.063469	14.567296	JN77GB	2394		oevsv-repeater-db	ÖVSV-Repeater Database	ÖVSV UKW Referat	dynamic	CC BY 4.0	https://www.oevsv.at/funkbetrieb/amateurfunkfrequenzen/ukw-referat/	7.6	-	False	False	False	False	OE6XMD		
OE9XVV	Dünserberg	70cm	431.225	438.825	85.4	85.4	False		False			True	Dünserberg	Vorarlberg	Austria	AUT	True	47.22903	9.737786	JN47UF	1333		oevsv-repeater-db	ÖVSV-Repeater Database	ÖVSV UKW Referat	dynamic	CC BY 4.0	https://www.oevsv.at/funkbetrieb/amateurfunkfrequenzen/ukw-referat/	7.6	-	True	False	False	False	OE9XVV		
OE2XHM	Hochkönig Matrashaus	70cm	431.225	438.825			False		False			True	Mühlbach	Salzburg	Austria	AUT	True	47.420263	13.062393	JN67MK	2939		oevsv-repeater-db	ÖVSV-Repeater Database	ÖVSV UKW Referat	dynamic	CC BY 4.0	https://www.oevsv.at/funkbetrieb/amateurfunkfrequenzen/ukw-referat/	7.6	-	False	False	False	False	OE2XHM		
OE3XCR	Hutwisch	70cm	431.2375	438.8375	97.4		False		False			True	Hochneukirchen	Niederösterreich	Austria	AUT	True	47.463146	16.22183	JN87CL	895		oevsv-repeater-db	ÖVSV-Repeater Database	ÖVSV UKW Referat	dynamic	CC BY 4.0	https://www.oevsv.at/funkbetrieb/amateurfunkfrequenzen/ukw-referat/	7.6	-	True	False	False	False	OE3XCR		
OE3XDA	Hochkogel	70cm	431.25	438.85			False		False			True	Hochkoglberg	Niederösterreich	Austria	AUT	True	48.034278	14.951167	JN78LA	712		oevsv-repeater-db	ÖVSV-Repeater Database	ÖVSV UKW Referat	dynamic	CC BY 4.0	https://www.oevsv.at/funkbetrieb/amateurfunkfrequenzen/ukw-referat/	7.6	-	False	False	False	False	OE3XDA		
OE3XNR	Nebelstein	70cm	431.275	438.875		88.5	False		False			True	Hirschenwies	Niederösterreich	Austria	AUT	True	48.672816	14.77828	JN78JQ	1005		oevsv-repeater-db	ÖVSV-Repeater Database	ÖVSV UKW Referat	dynamic	CC BY 4.0	https://www.oevsv.at/funkbetrieb/amateurfunkfrequenzen/ukw-referat/	7.6	-	True	False	False	False	OE3XNR		
OE6XAG	Schöckl	70cm	431.275	438.875	103.5	103.5	False		False			True	Schöckl	Steiermark	Austria	AUT	True	47.1988534	15.4669424	JN77RE	1436		oevsv-repeater-db	ÖVSV-Repeater Database	ÖVSV UKW Referat	dynamic	CC BY 4.0	https://www.oevsv.at/funkbetrieb/amateurfunkfrequenzen/ukw-referat/	7.6	-	True	False	False	False	OE6XAG		
OE7XOI	Schönjöchl	70cm	431.275	438.875			False		False			True	Fiss	Tirol	Austria	AUT	True	47.07723879520141	10.59837341308594	JN57HB	2491		oevsv-repeater-db	ÖVSV-Repeater Database	ÖVSV UKW Referat	dynamic	CC BY 4.0	https://www.oevsv.at/funkbetrieb/amateurfunkfrequenzen/ukw-referat/	7.6	-	False	False	False	False	OE7XOI		
OE8XFK	Dobratsch	70cm	431.3	438.9	88.5	88.5	True	232895	False			True	Bleiberg	Kärnten	Austria	AUT	True	46.603397	13.670989	JN66UO	2159		oevsv-repeater-db	ÖVSV-Repeater Database	ÖVSV UKW Referat	dynamic	CC BY 4.0	https://www.oevsv.at/funkbetrieb/amateurfunkfrequenzen/ukw-referat/	7.6	-	True	False	False	True	OE8XFK		
OE7XFI	Gallzein Kogelmoos	70cm	431.3	438.9			False		False			True	Gallzein	Tirol	Austria	AUT	True	47.357	11.755	JN57VI	1108		oevsv-repeater-db	ÖVSV-Repeater Database	ÖVSV UKW Referat	dynamic	CC BY 4.0	https://www.oevsv.at/funkbetrieb/amateurfunkfrequenzen/ukw-referat/	7.6	-	False	False	False	False	OE7XFI		
OE3XRB	Sonntagberg	70cm	431.3	438.9			False		False			True	Sonntagberg	Niederösterreich	Austria	AUT	True	47.996538	14.764472	JN77JX	713		oevsv-repeater-db	ÖVSV-Repeater Database	ÖVSV UKW Referat	dynamic	CC BY 4.0	https://www.oevsv.at/funkbetrieb/amateurfunkfrequenzen/ukw-referat/	7.6	-	False	False	False	False	OE3XRB		
OE7XGR	Gefrorene Wand	70cm	431.325	438.925	77.0	77.0	True	232705	False			True	Finkenberg	Tirol	Austria	AUT	True	47.064977	11.679196	JN57UB	3247		oevsv-repeater-db	ÖVSV-Repeater Database	ÖVSV UKW Referat	dynamic	CC BY 4.0	https://www.oevsv.at/funkbetrieb/amateurfunkfrequenzen/ukw-referat/	7.6	-	True	False	False	True	OE7XGR		
OE3XSU	Rittmannsberg	70cm	431.325	438.925			False		False			True	Endholz	Niederösterreich	Austria	AUT	True	48.158249	14.548894	JN78GD	388		oevsv-repeater-db	ÖVSV-Repeater Database	ÖVSV UKW Referat	dynamic	CC BY 4.0	https://www.oevsv.at/funkbetrieb/amateurfunkfrequenzen/ukw-referat/	7.6	-	False	False	False	False	OE3XSU		
OE1XUU	Kahlenberg	70cm	431.35	438.95	162.2	162.2	False		False			True	Josefsdorf	Wien	Austria	AUT	True	48.276145	16.333217	JN88DG	483		oevsv-repeater-db	ÖVSV-Repeater Database	ÖVSV UKW Referat	dynamic	CC BY 4.0	https://www.oevsv.at/funkbetrieb/amateurfunkfrequenzen/ukw-referat/	7.6	-	True	False	False	False	OE1XUU		
OE5XDO	Pfarrkirchen	70cm	431.35	438.95			False		False			True	Pfarrkirchen	Oberösterreich	Austria	AUT	True	48.502871999999996	13.825623	JN68VM	813		oevsv-repeater-db	ÖVSV-Repeater Database	ÖVSV UKW Referat	dynamic	CC BY 4.0	https://www.oevsv.at/funkbetrieb/amateurfunkfrequenzen/ukw-referat/	7.6	-	False	False	False	False	OE5XDO		
OE7XZT	Ahorn	70cm	431.375	438.975	77.0		False		False			True	Mayrhofen	Tirol	Austria	AUT	True	47.13717	11.86928	JN57WD	1952		oevsv-repeater-db	ÖVSV-Repeater Database	ÖVSV UKW Referat	dynamic	CC BY 4.0	https://www.oevsv.at/funkbetrieb/amateurfunkfrequenzen/ukw-referat/	7.6	-	True	False	False	False	OE7XZT		
OE3XFW	Jochgrabenberg	70cm	431.375	438.975	162.2	162.2	False		False			True	Rekawinkel	Niederösterreich	Austria	AUT	True	48.153067275070676	16.016285419464115	JN88AD	645		oevsv-repeater-db	ÖVSV-Repeater Database	ÖVSV UKW Referat	dynamic	CC BY 4.0	https://www.oevsv.at/funkbetrieb/amateurfunkfrequenzen/ukw-referat/	7.6	-	True	False	False	False	OE3XFW		
OE2XNM	Speiereck	70cm	431.375	438.975			False		False			True	St. Michael im Lungau	Salzburg	Austria	AUT	True	47.127031	13.624763	JN67TD	2388		oevsv-repeater-db	ÖVSV-Repeater Database	ÖVSV UKW Referat	dynamic	CC BY 4.0	https://www.oevsv.at/funkbetrieb/amateurfunkfrequenzen/ukw-referat/	7.6	-	False	False	False	False	OE2XNM		
OE5XIM	Sternstein	70cm	431.375	438.975	123.0	123.0	False		False			True	Amesschlag	Oberösterreich	Austria	AUT	True	48.5599155	14.2690062	JN78DN	1105		oevsv-repeater-db	ÖVSV-Repeater Database	ÖVSV UKW Referat	dynamic	CC BY 4.0	https://www.oevsv.at/funkbetrieb/amateurfunkfrequenzen/ukw-referat/	7.6	-	True	False	False	False	OE5XIM		
OE6XBF	Stradner Kogel	70cm	431.375	438.975			False		False			True	Hochstraden	Steiermark	Austria	AUT	True	46.84521579785275	15.93197822570801	JN76XU	607		oevsv-repeater-db	ÖVSV-Repeater Database	ÖVSV UKW Referat	dynamic	CC BY 4.0	https://www.oevsv.at/funkbetrieb/amateurfunkfrequenzen/ukw-referat/	7.6	-	False	False	False	False	OE6XBF		
OE6XNG	Gaberl/Wiedneralm	70cm	431.4	439.0			False		False			True	Salla	Steiermark	Austria	AUT	True	47.11856	14.93233	JN77LC	1596		oevsv-repeater-db	ÖVSV-Repeater Database	ÖVSV UKW Referat	dynamic	CC BY 4.0	https://www.oevsv.at/funkbetrieb/amateurfunkfrequenzen/ukw-referat/	7.6	-	False	False	False	False	OE6XNG		
OE8XDK	Goldeck	70cm	431.4	439.0	88.5		False		False			True	Stockenboi	Kärnten	Austria	AUT	True	46.76179	13.45725	JN66RS	2049		oevsv-repeater-db	ÖVSV-Repeater Database	ÖVSV UKW Referat	dynamic	CC BY 4.0	https://www.oevsv.at/funkbetrieb/amateurfunkfrequenzen/ukw-referat/	7.6	-	True	False	False	False	OE8XDK		
OE1XFU	Satzberg	70cm	431.4	439.0	162.2	162.2	False		False			True	Hütteldorf	Wien	Austria	AUT	True	48.21527259679771	16.2613320350647	JN88DF	435		oevsv-repeater-db	ÖVSV-Repeater Database	ÖVSV UKW Referat	dynamic	CC BY 4.0	https://www.oevsv.at/funkbetrieb/amateurfunkfrequenzen/ukw-referat/	7.6	-	True	False	False	False	OE1XFU		
OE7XKG	Telfs Arzbergstraße	70cm	431.4	439.0	77.0	77.0	False		False			True	Telfs	Tirol	Austria	AUT	True	47.318046245342174	11.078756716842637	JN57MH	716		oevsv-repeater-db	ÖVSV-Repeater Database	ÖVSV UKW Referat	dynamic	CC BY 4.0	https://www.oevsv.at/funkbetrieb/amateurfunkfrequenzen/ukw-referat/	7.6	-	True	False	False	False	OE7XKG		
OE3XEU	Frauenstaffel	70cm	431.425	439.025	136.5		False		False			True	Dietmanns	Niederösterreich	Austria	AUT	True	48.7931928	15.3499052	JN78QT	679		oevsv-repeater-db	ÖVSV-Repeater Database	ÖVSV UKW Referat	dynamic	CC BY 4.0	https://www.oevsv.at/funkbetrieb/amateurfunkfrequenzen/ukw-referat/	7.6	-	True	False	False	False	OE3XEU		
OE3XLU	Gießhübel	70cm	431.425	439.025			False		False			True	Gießhübl	Niederösterreich	Austria	AUT	True	48.09671	16.23893	JN88CC	398		oevsv-repeater-db	ÖVSV-Repeater Database	ÖVSV UKW Referat	dynamic	CC BY 4.0	https://www.oevsv.at/funkbetrieb/amateurfunkfrequenzen/ukw-referat/	7.6	-	False	False	False	False	OE3XLU		
OE7XFJ	Harschbichl	70cm	431.425	439.025	77.0		False		False			True	St. Johann in Tirol	Tirol	Austria	AUT	True	47.48446	12.42795	JN67FL	1601		oevsv-repeater-db	ÖVSV-Repeater Database	ÖVSV UKW Referat	dynamic	CC BY 4.0	https://www.oevsv.at/funkbetrieb/amateurfunkfrequenzen/ukw-referat/	7.6	-	True	False	False	False	OE7XFJ		
OE8XKQ	Gerlitzen	70cm	431.45	439.05	88.5	88.5	False		False			True	Sauerwald	Kärnten	Austria	AUT	True	46.695	13.914166999999999	JN66WQ	1909		oevsv-repeater-db	ÖVSV-Repeater Database	ÖVSV UKW Referat	dynamic	CC BY 4.0	https://www.oevsv.at/funkbetrieb/amateurfunkfrequenzen/ukw-referat/	7.6	-	True	False	False	False	OE8XKQ		
OE6XPF	Pichling	70cm	431.45	439.05			False		False			True	Pichling	Steiermark	Austria	AUT	True	46.91079	15.2744	JN76PV	355		oevsv-repeater-db	ÖVSV-Repeater Database	ÖVSV UKW Referat	dynamic	CC BY 4.0	https://www.oevsv.at/funkbetrieb/amateurfunkfrequenzen/ukw-referat/	7.6	-	False	False	False	False	OE6XPF		
OE7XBI	Rangger Köpfl	70cm	431.45	439.05			False		False			True	Inzing	Tirol	Austria	AUT	True	47.242985	11.181174	JN57OF	1938		oevsv-repeater-db	ÖVSV-Repeater Database	ÖVSV UKW Referat	dynamic	CC BY 4.0	https://www.oevsv.at/funkbetrieb/amateurfunkfrequenzen/ukw-referat/	7.6	-	False	False	False	False	OE7XBI		
OE3XEB	Troppberg	70cm	431.45	439.05			False		False			True	Gablitz	Niederösterreich	Austria	AUT	True	48.223986	16.110077	JN88BF	540		oevsv-repeater-db	ÖVSV-Repeater Database	ÖVSV UKW Referat	dynamic	CC BY 4.0	https://www.oevsv.at/funkbetrieb/amateurfunkfrequenzen/ukw-referat/	7.6	-	False	False	False	False	OE3XEB		
OE3XWU	Hochwechsel	70cm	431.475	439.075	162.2	162.2	True	232103	True	B	G	True	Neustift am Alpenwald	Niederösterreich	Austria	AUT	True	47.530448	15.9145156	JN77WM	1740		oevsv-repeater-db	ÖVSV-Repeater Database	ÖVSV UKW Referat	dynamic	CC BY 4.0	https://www.oevsv.at/funkbetrieb/amateurfunkfrequenzen/ukw-referat/	7.6	-	True	False	False	True	OE3XWU		
OE8XPK	Petzen	70cm	431.4875	439.0875			False		False			True	Unterort	Kärnten	Austria	AUT	True	46.518507	14.772985	JN76JM	1678		oevsv-repeater-db	ÖVSV-Repeater Database	ÖVSV UKW Referat	dynamic	CC BY 4.0	https://www.oevsv.at/funkbetrieb/amateurfunkfrequenzen/ukw-referat/	7.6	-	False	False	False	False	OE8XPK		
OE6XRE	Eisenerzer Reichenstein	70cm	431.5	439.1	103.5		False		False			True	Trofeng	Steiermark	Austria	AUT	True	47.500836856013976	14.932286739349367	JN77LM	2135		oevsv-repeater-db	ÖVSV-Repeater Database	ÖVSV UKW Referat	dynamic	CC BY 4.0	https://www.oevsv.at/funkbetrieb/amateurfunkfrequenzen/ukw-referat/	7.6	-	True	False	False	False	OE6XRE		
