Group No;Group Name;Name;Sub Name;Repeater Call Sign;Gateway Call Sign;Frequency;Dup;Offset;Mode;TONE;Repeater Tone;RPT1USE;Position;Latitude;Longitude;UTC Offset
02;Austria 2m+FM;Wien AKH;OE1XDS;OE1XDS C;OE1XDS G;145,575000;DUP-;0,600000;DV;OFF;88,5Hz;YES;Exact;48,22075;16,34684;+1:00
02;Austria 2m+FM;Laaerberg Turm;OE1XFW;OE1XFW;;145,625000;DUP-;0,600000;FM;OFF;88,5Hz;YES;Exact;48,157173;16,396717;+1:00
02;Austria 2m+FM;Gernkogel;OE2XGR;OE2XGR;;145,762500;DUP-;0,600000;FM;TONE;88,5Hz;YES;Exact;47,30755;13,238225;+1:00
02;Austria 2m+FM;Kitzsteinhorn;OE2XHL;OE2XHL;;145,650000;DUP-;0,600000;FM;TONE;88,5Hz;YES;Exact;47,188104;12,687513;+1:00
02;Austria 2m+FM;Speiereck;OE2XNL;OE2XNL;;145,612500;DUP-;0,600000;FM;OFF;88,5Hz;YES;Exact;47,127031;13,624763;+1:00
02;Austria 2m+FM;Gaisberg;OE2XZR;OE2XZR;;145,687500;DUP-;0,600000;FM;TONE;88,5Hz;YES;Exact;47,805128;13,112955;+1:00
02;Austria 2m+FM;Hochkogel;OE3XDA;OE3XDA C;OE3XDA G;145,575000;DUP-;0,600000;DV;OFF;88,5Hz;YES;Exact;48,034278;14,951167;+1:00
02;Austria 2m+FM;Frauenstaffel;OE3XES;OE3XES;;145,787500;DUP-;0,600000;FM;TONE;79,7Hz;YES;Exact;48,7931928;15,3499052;+1:00
02;Austria 2m+FM;Hohe Wand;OE3XHW;OE3XHW;;145,725000;DUP-;0,600000;FM;OFF;88,5Hz;YES;Exact;47,8346;16,04605;+1:00
02;Austria 2m+FM;Giesshuebel;OE3XLU;OE3XLU;;145,587500;DUP-;0,600000;FM;OFF;88,5Hz;YES;Exact;48,09671;16,23893;+1:00
02;Austria 2m+FM;Nebelstein;OE3XNR;OE3XNR;;145,637500;DUP-;0,600000;FM;TONE;88,5Hz;YES;Exact;48,672816;14,77828;+1:00
02;Austria 2m+FM;Kaiserkogel;OE3XPA;OE3XPA;;145,650000;DUP-;0,600000;FM;TONE;162,2Hz;YES;Exact;48,05978708;15,53965351;+1:00
02;Austria 2m+FM;Exelberg;OE3XQA;OE3XQA;;145,750000;DUP-;0,600000;FM;TONE;162,2Hz;YES;Exact;48,24876033;16,2440474;+1:00
02;Austria 2m+FM;Sandl;OE3XSA;OE3XSA;;145,700000;DUP-;0,600000;FM;TONE;162,2Hz;YES;Exact;48,43338;15,471389;+1:00
02;Austria 2m+FM;Brentenriegel;OE4XUB;OE4XUB;;145,775000;DUP-;0,600000;FM;TONE;97,4Hz;YES;Exact;47,659535;16,390592;+1:00
02;Austria 2m+FM;Gruenberg;OE5XGL;OE5XGL;;145,750000;DUP-;0,600000;FM;TONE;123,0Hz;YES;Exact;47,8981318;13,8219805;+1:00
02;Austria 2m+FM;Krippenstein;OE5XKL;OE5XKL;;145,712500;DUP-;0,600000;FM;OFF;88,5Hz;YES;Exact;47,524287;13,69208;+1:00
02;Austria 2m+FM;Lichtenberg;OE5XLL;OE5XLL;;145,600000;DUP-;0,600000;FM;OFF;88,5Hz;YES;Exact;48,38515;14,25445;+1:00
02;Austria 2m+FM;Geiersberg;OE5XUL;OE5XUL;;145,775000;DUP-;0,600000;FM;OFF;88,5Hz;YES;Exact;48,20026;13,58142;+1:00
02;Austria 2m+FM;Schoeckl;OE6XAG;OE6XAG;;145,600000;DUP-;0,600000;FM;TONE;103,5Hz;YES;Exact;47,1988534;15,4669424;+1:00
02;Austria 2m+FM;Rennfeld;OE6XBG;OE6XBG;;145,650000;DUP-;0,600000;FM;TONE;103,5Hz;YES;Exact;47,40554;15,35936;+1:00
02;Austria 2m+FM;Dobl;OE6XDF;OE6XDF C;OE6XDF G;145,637500;DUP-;0,600000;DV;OFF;88,5Hz;YES;Exact;46,94991;15,37989;+1:00
02;Austria 2m+FM;Lachtal;OE6XDG;OE6XDG;;145,700000;DUP-;0,600000;FM;OFF;88,5Hz;YES;Exact;47,25505;14,34483;+1:00
02;Austria 2m+FM;Planai;OE6XPG;OE6XPG;;145,675000;DUP-;0,600000;FM;OFF;88,5Hz;YES;Exact;47,369088;13,726221;+1:00
02;Austria 2m+FM;Wurmkogel Lift;OE7XGI;OE7XGI;;145,787500;DUP-;0,600000;FM;OFF;88,5Hz;YES;Exact;46,88041;11,08384;+1:00
02;Austria 2m+FM;Hohe Salve;OE7XKI;OE7XKI;;145,775000;DUP-;0,600000;FM;OFF;88,5Hz;YES;Exact;47,465;12,204167;+1:00
02;Austria 2m+FM;Hochstein;OE7XLI;OE7XLI;;145,700000;DUP-;0,600000;FM;TONE;77,0Hz;YES;Exact;46,82166;12,70025;+1:00
02;Austria 2m+FM;Hochstein;OE7XLI;OE7XLI C;OE7XLI G;145,725000;DUP-;0,600000;DV;OFF;88,5Hz;YES;Exact;46,82166;12,70025;+1:00
02;Austria 2m+FM;Hahnenkamm;OE7XRT;OE7XRT;;145,700000;DUP-;0,600000;FM;OFF;88,5Hz;YES;Exact;47,478174;10,641632;+1:00
02;Austria 2m+FM;Patscherkofel;OE7XTI;OE7XTI;;145,612500;DUP-;0,600000;FM;TONE;77,0Hz;YES;Exact;47,208287;11,460929;+1:00
02;Austria 2m+FM;Krahberg;OE7XTR;OE7XTR;;145,762500;DUP-;0,600000;FM;TONE;77,0Hz;YES;Exact;47,145919;10,626826;+1:00
02;Austria 2m+FM;Penkenjoch;OE7XTT;OE7XTT;;145,750000;DUP-;0,600000;FM;OFF;88,5Hz;YES;Exact;47,168667;11,8;+1:00
02;Austria 2m+FM;Valluga;OE7XVR;OE7XVR;;145,687500;DUP-;0,600000;FM;TONE;77,0Hz;YES;Exact;47,15761255;10,21305436;+1:00
02;Austria 2m+FM;Gruenberg bei Si;OE7XWH;OE7XWH;;145,662500;DUP-;0,600000;FM;OFF;88,5Hz;YES;Exact;47,28231;10,91478;+1:00
02;Austria 2m+FM;Bruckerberg;OE7XZH;OE7XZH;;145,675000;DUP-;0,600000;FM;OFF;88,5Hz;YES;Exact;47,381759;11,874329;+1:00
02;Austria 2m+FM;Goldeck;OE8XDK;OE8XDK;;145,650000;DUP-;0,600000;FM;TONE;88,5Hz;YES;Exact;46,76179;13,45725;+1:00
02;Austria 2m+FM;Magdalensberg;OE8XMK;OE8XMK;;145,625000;DUP-;0,600000;FM;TONE;88,5Hz;YES;Exact;46,728051;14,429426;+1:00
02;Austria 2m+FM;Gerlitzen;OE8XNK;OE8XNK;;145,762500;DUP-;0,600000;FM;OFF;88,5Hz;YES;Exact;46,695;13,914166999999999;+1:00
02;Austria 2m+FM;Goldeck;OE8XOK;OE8XOK;;145,650000;DUP-;0,600000;FM;OFF;88,5Hz;YES;Exact;46,76179;13,45725;+1:00
02;Austria 2m+FM;Petzen;OE8XPK;OE8XPK;;145,737500;DUP-;0,600000;FM;TONE;88,5Hz;YES;Exact;46,518507;14,772985;+1:00
02;Austria 2m+FM;Vorderaelpele;OE9XVI;OE9XVI;;145,650000;DUP-;0,600000;FM;TONE;85,4Hz;YES;Exact;47,20918;9,591069;+1:00