Group No;Group Name;CH No;Name;SEL;Frequency;Dup;Offset;TS;Mode;SKIP;TONE;Repeater Tone;TSQL Frequency;DTCS Code;DTCS Polarity;DV SQL;DV CSQL Code;Your Call Sign;RPT1 Call Sign;RPT2 Call Sign
02;OE 70cm Repeater;00;Feuerkogel;OFF;438,150000;DUP-;7,600000;12,5kHz;FM;OFF;TONE(T)/TSQL(R);123,0Hz;123,0Hz;23;BOTH N;;;;OE5XFK;
02;OE 70cm Repeater;01;St. Bartholomae;OFF;438,200000;DUP-;7,600000;12,5kHz;FM;OFF;TONE(T)/TSQL(R);103,5Hz;103,5Hz;23;BOTH N;;;;OE6XFD;
02;OE 70cm Repeater;02;Ehrwald;OFF;438,225000;DUP-;7,600000;12,5kHz;FM;OFF;TONE;136,5Hz;88,5Hz;23;BOTH N;;;;OE7XET;
02;OE 70cm Repeater;03;FH Wr Neustadt;OFF;438,225000;DUP-;7,600000;12,5kHz;FM;OFF;TONE(T)/TSQL(R);162,2Hz;162,2Hz;23;BOTH N;;;;OE3XVJ;
02;OE 70cm Repeater;04;Hainfelder Huett;OFF;438,300000;DUP-;7,600000;12,5kHz;FM;OFF;TONE(T)/TSQL(R);162,2Hz;162,2Hz;23;BOTH N;;;;OE3XOR;
02;OE 70cm Repeater;05;Hochstein;OFF;438,300000;DUP-;7,600000;12,5kHz;FM;OFF;TONE(T)/TSQL(R);77,0Hz;77,0Hz;23;BOTH N;;;;OE7XLI;
02;OE 70cm Repeater;06;Klippitztoerl;OFF;438,300000;DUP-;7,600000;12,5kHz;FM;OFF;TONE;88,5Hz;88,5Hz;23;BOTH N;;;;OE8XKP;
02;OE 70cm Repeater;07;Porrtower;OFF;438,312500;DUP-;7,600000;12,5kHz;FM;OFF;TONE(T)/TSQL(R);162,2Hz;162,2Hz;23;BOTH N;;;;OE1XBA;
02;OE 70cm Repeater;08;Gaisberg;OFF;438,400000;DUP-;7,600000;12,5kHz;FM;OFF;TONE;88,5Hz;88,5Hz;23;BOTH N;;;;OE2XZR;
02;OE 70cm Repeater;09;Hohe Wand;OFF;438,400000;DUP-;7,600000;12,5kHz;FM;OFF;TONE;162,2Hz;88,5Hz;23;BOTH N;;;;OE3XTR;
02;OE 70cm Repeater;10;Senftenbach/Wolf;OFF;438,425000;DUP-;7,600000;12,5kHz;FM;OFF;TONE(T)/TSQL(R);123,0Hz;123,0Hz;23;BOTH N;;;;OE5XDN;
02;OE 70cm Repeater;11;Hermannskogel;OFF;438,475000;DUP-;7,600000;12,5kHz;FM;OFF;TONE(T)/TSQL(R);162,2Hz;162,2Hz;23;BOTH N;;;;OE1XAT;
02;OE 70cm Repeater;12;Hollbruck;OFF;438,500000;DUP-;7,600000;12,5kHz;FM;OFF;TONE;77,0Hz;88,5Hz;23;BOTH N;;;;OE7XJH;
02;OE 70cm Repeater;13;Gebhartsberg;OFF;438,525000;DUP-;7,600000;12,5kHz;FM;OFF;TONE(T)/TSQL(R);85,4Hz;85,4Hz;23;BOTH N;;;;OE9XFV;
02;OE 70cm Repeater;14;Kindberg;OFF;438,525000;DUP-;7,600000;12,5kHz;FM;OFF;OFF;88,5Hz;88,5Hz;23;BOTH N;;;;OE6XME;
02;OE 70cm Repeater;15;Villach LKH;OFF;438,550000;DUP-;7,600000;12,5kHz;FM;OFF;TONE(T)/TSQL(R);88,5Hz;88,5Hz;23;BOTH N;;;;OE8XVK;
02;OE 70cm Repeater;16;Breitenstein;OFF;438,575000;DUP-;7,600000;12,5kHz;FM;OFF;TONE(T)/TSQL(R);123,0Hz;123,0Hz;23;BOTH N;;;;OE5XOL;
02;OE 70cm Repeater;17;Magdalensberg;OFF;438,575000;DUP-;7,600000;12,5kHz;FM;OFF;TONE(T)/TSQL(R);88,5Hz;88,5Hz;23;BOTH N;;;;OE8XMK;
02;OE 70cm Repeater;18;Dornbirn Erlosen;OFF;438,587500;DUP-;7,600000;12,5kHz;FM;OFF;TONE(T)/TSQL(R);85,4Hz;85,4Hz;23;BOTH N;;;;OE9XXD;
02;OE 70cm Repeater;19;Jauerling;OFF;438,600000;DUP-;7,600000;12,5kHz;FM;OFF;TONE(T)/TSQL(R);162,2Hz;162,2Hz;23;BOTH N;;;;OE3XWJ;
02;OE 70cm Repeater;20;Weinbergerhaus;OFF;438,600000;DUP-;7,600000;12,5kHz;FM;OFF;TONE;77,0Hz;88,5Hz;23;BOTH N;;;;OE7XWT;
02;OE 70cm Repeater;21;Iselsberg-Strona;OFF;438,625000;DUP-;7,600000;12,5kHz;FM;OFF;OFF;88,5Hz;88,5Hz;23;BOTH N;;;;OE7XLH;
02;OE 70cm Repeater;22;Karren;OFF;438,625000;DUP-;7,600000;12,5kHz;FM;OFF;TONE(T)/TSQL(R);85,4Hz;85,4Hz;23;BOTH N;;;;OE9XKV;
02;OE 70cm Repeater;23;Stuhleck;OFF;438,625000;DUP-;7,600000;12,5kHz;FM;OFF;OFF;88,5Hz;88,5Hz;23;BOTH N;;;;OE6XCD;
02;OE 70cm Repeater;24;Laaerberg Turm;OFF;438,650000;DUP-;7,600000;12,5kHz;FM;OFF;OFF;88,5Hz;88,5Hz;23;BOTH N;;;;OE1XFW;
02;OE 70cm Repeater;25;Lichtenberg;OFF;438,650000;DUP-;7,600000;12,5kHz;FM;OFF;OFF;88,5Hz;88,5Hz;23;BOTH N;;;;OE5XLL;
02;OE 70cm Repeater;26;Rossegger Str/LW;OFF;438,650000;DUP-;7,600000;12,5kHz;FM;OFF;OFF;88,5Hz;88,5Hz;23;BOTH N;;;;OE8XCK;
02;OE 70cm Repeater;27;Seegrube;OFF;438,650000;DUP-;7,600000;12,5kHz;FM;OFF;TONE;77,0Hz;88,5Hz;23;BOTH N;;;;OE7XLR;
02;OE 70cm Repeater;28;Lachtal;OFF;438,675000;DUP-;7,600000;12,5kHz;FM;OFF;TONE(T)/TSQL(R);103,5Hz;103,5Hz;23;BOTH N;;;;OE6XDG;
02;OE 70cm Repeater;29;Hinteralm;OFF;438,700000;DUP-;7,600000;12,5kHz;FM;OFF;TONE;162,2Hz;88,5Hz;23;BOTH N;;;;OE3XPC;
02;OE 70cm Repeater;30;Hunerkogel;OFF;438,725000;DUP-;7,600000;12,5kHz;FM;OFF;OFF;88,5Hz;88,5Hz;23;BOTH N;;;;OE5XDM;
02;OE 70cm Repeater;31;Sonnenberg im Le;OFF;438,725000;DUP-;7,600000;12,5kHz;FM;OFF;TONE;97,4Hz;88,5Hz;23;BOTH N;;;;OE4XSB;
02;OE 70cm Repeater;32;Damberg;OFF;438,750000;DUP-;7,600000;12,5kHz;FM;OFF;OFF;88,5Hz;88,5Hz;23;BOTH N;;;;OE5XHO;
02;OE 70cm Repeater;33;Hohe Wand;OFF;438,750000;DUP-;7,600000;12,5kHz;FM;OFF;OFF;88,5Hz;88,5Hz;23;BOTH N;;;;OE3XHW;
02;OE 70cm Repeater;34;Ungerdorf;OFF;438,750000;DUP-;7,600000;12,5kHz;FM;OFF;OFF;88,5Hz;88,5Hz;23;BOTH N;;;;OE6XGD;
02;OE 70cm Repeater;35;Grambach;OFF;438,775000;DUP-;7,600000;12,5kHz;FM;OFF;OFF;88,5Hz;88,5Hz;23;BOTH N;;;;OE6XCG;
02;OE 70cm Repeater;36;Linz Froschberg;OFF;438,775000;DUP-;7,600000;12,5kHz;FM;OFF;OFF;88,5Hz;88,5Hz;23;BOTH N;;;;OE5XBR;
02;OE 70cm Repeater;37;Buschberg;OFF;438,800000;DUP-;7,600000;12,5kHz;FM;OFF;OFF;88,5Hz;88,5Hz;23;BOTH N;;;;OE3XNS;
02;OE 70cm Repeater;38;Gruenberg;OFF;438,800000;DUP-;7,600000;12,5kHz;FM;OFF;TONE(T)/TSQL(R);123,0Hz;123,0Hz;23;BOTH N;;;;OE5XGL;
02;OE 70cm Repeater;39;Zirbitzkogel;OFF;438,800000;DUP-;7,600000;12,5kHz;FM;OFF;OFF;88,5Hz;88,5Hz;23;BOTH N;;;;OE6XMD;
02;OE 70cm Repeater;40;Duenserberg;OFF;438,825000;DUP-;7,600000;12,5kHz;FM;OFF;TONE(T)/TSQL(R);85,4Hz;85,4Hz;23;BOTH N;;;;OE9XVV;
02;OE 70cm Repeater;41;Hochkoenig Matra;OFF;438,825000;DUP-;7,600000;12,5kHz;FM;OFF;OFF;88,5Hz;88,5Hz;23;BOTH N;;;;OE2XHM;
02;OE 70cm Repeater;42;Hutwisch;OFF;438,837500;DUP-;7,600000;12,5kHz;FM;OFF;TONE;97,4Hz;88,5Hz;23;BOTH N;;;;OE3XCR;
02;OE 70cm Repeater;43;Hochkogel;OFF;438,850000;DUP-;7,600000;12,5kHz;FM;OFF;OFF;88,5Hz;88,5Hz;23;BOTH N;;;;OE3XDA;
02;OE 70cm Repeater;44;Nebelstein;OFF;438,875000;DUP-;7,600000;12,5kHz;FM;OFF;OFF;88,5Hz;88,5Hz;23;BOTH N;;;;OE3XNR;
02;OE 70cm Repeater;45;Schoeckl;OFF;438,875000;DUP-;7,600000;12,5kHz;FM;OFF;TONE(T)/TSQL(R);103,5Hz;103,5Hz;23;BOTH N;;;;OE6XAG;
02;OE 70cm Repeater;46;Schoenjoechl;OFF;438,875000;DUP-;7,600000;12,5kHz;FM;OFF;OFF;88,5Hz;88,5Hz;23;BOTH N;;;;OE7XOI;
02;OE 70cm Repeater;47;Dobratsch;OFF;438,900000;DUP-;7,600000;12,5kHz;FM;OFF;TONE(T)/TSQL(R);88,5Hz;88,5Hz;23;BOTH N;;;;OE8XFK;
02;OE 70cm Repeater;48;Gallzein Kogelmo;OFF;438,900000;DUP-;7,600000;12,5kHz;FM;OFF;OFF;88,5Hz;88,5Hz;23;BOTH N;;;;OE7XFI;
02;OE 70cm Repeater;49;Sonntagberg;OFF;438,900000;DUP-;7,600000;12,5kHz;FM;OFF;OFF;88,5Hz;88,5Hz;23;BOTH N;;;;OE3XRB;
02;OE 70cm Repeater;50;Gefrorene Wand;OFF;438,925000;DUP-;7,600000;12,5kHz;FM;OFF;TONE(T)/TSQL(R);77,0Hz;77,0Hz;23;BOTH N;;;;OE7XGR;
02;OE 70cm Repeater;51;Rittmannsberg;OFF;438,925000;DUP-;7,600000;12,5kHz;FM;OFF;OFF;88,5Hz;88,5Hz;23;BOTH N;;;;OE3XSU;
02;OE 70cm Repeater;52;Kahlenberg;OFF;438,950000;DUP-;7,600000;12,5kHz;FM;OFF;TONE(T)/TSQL(R);162,2Hz;162,2Hz;23;BOTH N;;;;OE1XUU;
02;OE 70cm Repeater;53;Pfarrkirchen;OFF;438,950000;DUP-;7,600000;12,5kHz;FM;OFF;OFF;88,5Hz;88,5Hz;23;BOTH N;;;;OE5XDO;
02;OE 70cm Repeater;54;Ahorn;OFF;438,975000;DUP-;7,600000;12,5kHz;FM;OFF;TONE;77,0Hz;88,5Hz;23;BOTH N;;;;OE7XZT;
02;OE 70cm Repeater;55;Jochgrabenberg;OFF;438,975000;DUP-;7,600000;12,5kHz;FM;OFF;TONE(T)/TSQL(R);162,2Hz;162,2Hz;23;BOTH N;;;;OE3XFW;
02;OE 70cm Repeater;56;Speiereck;OFF;438,975000;DUP-;7,600000;12,5kHz;FM;OFF;OFF;88,5Hz;88,5Hz;23;BOTH N;;;;OE2XNM;
02;OE 70cm Repeater;57;Sternstein;OFF;438,975000;DUP-;7,600000;12,5kHz;FM;OFF;TONE(T)/TSQL(R);123,0Hz;123,0Hz;23;BOTH N;;;;OE5XIM;
02;OE 70cm Repeater;58;Stradner Kogel;OFF;438,975000;DUP-;7,600000;12,5kHz;FM;OFF;OFF;88,5Hz;88,5Hz;23;BOTH N;;;;OE6XBF;
02;OE 70cm Repeater;59;Gaberl/Wiedneral;OFF;439,000000;DUP-;7,600000;12,5kHz;FM;OFF;OFF;88,5Hz;88,5Hz;23;BOTH N;;;;OE6XNG;
02;OE 70cm Repeater;60;Goldeck;OFF;439,000000;DUP-;7,600000;12,5kHz;FM;OFF;TONE;88,5Hz;88,5Hz;23;BOTH N;;;;OE8XDK;
02;OE 70cm Repeater;61;Satzberg;OFF;439,000000;DUP-;7,600000;12,5kHz;FM;OFF;TONE(T)/TSQL(R);162,2Hz;162,2Hz;23;BOTH N;;;;OE1XFU;
02;OE 70cm Repeater;62;Telfs Arzbergstr;OFF;439,000000;DUP-;7,600000;12,5kHz;FM;OFF;TONE(T)/TSQL(R);77,0Hz;77,0Hz;23;BOTH N;;;;OE7XKG;
02;OE 70cm Repeater;63;Frauenstaffel;OFF;439,025000;DUP-;7,600000;12,5kHz;FM;OFF;TONE;136,5Hz;88,5Hz;23;BOTH N;;;;OE3XEU;
02;OE 70cm Repeater;64;Giesshuebel;OFF;439,025000;DUP-;7,600000;12,5kHz;FM;OFF;OFF;88,5Hz;88,5Hz;23;BOTH N;;;;OE3XLU;
02;OE 70cm Repeater;65;Harschbichl;OFF;439,025000;DUP-;7,600000;12,5kHz;FM;OFF;TONE;77,0Hz;88,5Hz;23;BOTH N;;;;OE7XFJ;
02;OE 70cm Repeater;66;Gerlitzen;OFF;439,050000;DUP-;7,600000;12,5kHz;FM;OFF;TONE(T)/TSQL(R);88,5Hz;88,5Hz;23;BOTH N;;;;OE8XKQ;
02;OE 70cm Repeater;67;Pichling;OFF;439,050000;DUP-;7,600000;12,5kHz;FM;OFF;OFF;88,5Hz;88,5Hz;23;BOTH N;;;;OE6XPF;
02;OE 70cm Repeater;68;Rangger Koepfl;OFF;439,050000;DUP-;7,600000;12,5kHz;FM;OFF;OFF;88,5Hz;88,5Hz;23;BOTH N;;;;OE7XBI;
02;OE 70cm Repeater;69;Troppberg;OFF;439,050000;DUP-;7,600000;12,5kHz;FM;OFF;OFF;88,5Hz;88,5Hz;23;BOTH N;;;;OE3XEB;
02;OE 70cm Repeater;70;Hochwechsel;OFF;439,075000;DUP-;7,600000;12,5kHz;FM;OFF;TONE(T)/TSQL(R);162,2Hz;162,2Hz;23;BOTH N;;;;OE3XWU;
02;OE 70cm Repeater;71;Petzen;OFF;439,087500;DUP-;7,600000;12,5kHz;FM;OFF;OFF;88,5Hz;88,5Hz;23;BOTH N;;;;OE8XPK;
02;OE 70cm Repeater;72;Eisenerzer Reich;OFF;439,100000;DUP-;7,600000;12,5kHz;FM;OFF;TONE;103,5Hz;88,5Hz;23;BOTH N;;;;OE6XRE;