Group No;Group Name;CH No;Name;SEL;Frequency;Dup;Offset;TS;Mode;SKIP;TONE;Repeater Tone;TSQL Frequency;DTCS Code;DTCS Polarity;DV SQL;DV CSQL Code;Your Call Sign;RPT1 Call Sign;RPT2 Call Sign
03;OE 70cm Channels;00;U001;OFF;430,012500;;0,000000;12,5kHz;FM;OFF;OFF;88,5Hz;88,5Hz;23;BOTH N;;;;;
03;OE 70cm Channels;01;U003;OFF;430,037500;;0,000000;12,5kHz;FM;OFF;OFF;88,5Hz;88,5Hz;23;BOTH N;;;;;
03;OE 70cm Channels;02;U005;OFF;430,062500;;0,000000;12,5kHz;FM;OFF;OFF;88,5Hz;88,5Hz;23;BOTH N;;;;;
03;OE 70cm Channels;03;U006;OFF;430,075000;;0,000000;12,5kHz;FM;OFF;OFF;88,5Hz;88,5Hz;23;BOTH N;;;;;
03;OE 70cm Channels;04;U007;OFF;430,087500;;0,000000;12,5kHz;FM;OFF;OFF;88,5Hz;88,5Hz;23;BOTH N;;;;;
03;OE 70cm Channels;05;U008;OFF;430,100000;;0,000000;12,5kHz;FM;OFF;OFF;88,5Hz;88,5Hz;23;BOTH N;;;;;
03;OE 70cm Channels;06;U009;OFF;430,112500;;0,000000;12,5kHz;FM;OFF;OFF;88,5Hz;88,5Hz;23;BOTH N;;;;;
03;OE 70cm Channels;07;U010;OFF;430,125000;;0,000000;12,5kHz;FM;OFF;OFF;88,5Hz;88,5Hz;23;BOTH N;;;;;
03;OE 70cm Channels;08;U011;OFF;430,137500;;0,000000;12,5kHz;FM;OFF;OFF;88,5Hz;88,5Hz;23;BOTH N;;;;;
03;OE 70cm Channels;09;U012;OFF;430,150000;;0,000000;12,5kHz;FM;OFF;OFF;88,5Hz;88,5Hz;23;BOTH N;;;;;
03;OE 70cm Channels;10;U013;OFF;430,162500;;0,000000;12,5kHz;FM;OFF;OFF;88,5Hz;88,5Hz;23;BOTH N;;;;;
03;OE 70cm Channels;11;U014;OFF;430,175000;;0,000000;12,5kHz;FM;OFF;OFF;88,5Hz;88,5Hz;23;BOTH N;;;;;
03;OE 70cm Channels;12;U015;OFF;430,187500;;0,000000;12,5kHz;FM;OFF;OFF;88,5Hz;88,5Hz;23;BOTH N;;;;;
03;OE 70cm Channels;13;U016;OFF;430,200000;;0,000000;12,5kHz;FM;OFF;OFF;88,5Hz;88,5Hz;23;BOTH N;;;;;
03;OE 70cm Channels;14;U017;OFF;430,212500;;0,000000;12,5kHz;FM;OFF;OFF;88,5Hz;88,5Hz;23;BOTH N;;;;;
03;OE 70cm Channels;15;U018;OFF;430,225000;;0,000000;12,5kHz;FM;OFF;OFF;88,5Hz;88,5Hz;23;BOTH N;;;;;
03;OE 70cm Channels;16;U019;OFF;430,237500;;0,000000;12,5kHz;FM;OFF;OFF;88,5Hz;88,5Hz;23;BOTH N;;;;;
03;OE 70cm Channels;17;U020;OFF;430,250000;;0,000000;12,5kHz;FM;OFF;OFF;88,5Hz;88,5Hz;23;BOTH N;;;;;
03;OE 70cm Channels;18;U021;OFF;430,262500;;0,000000;12,5kHz;FM;OFF;OFF;88,5Hz;88,5Hz;23;BOTH N;;;;;
03;OE 70cm Channels;19;U022;OFF;430,275000;;0,000000;12,5kHz;FM;OFF;OFF;88,5Hz;88,5Hz;23;BOTH N;;;;;
03;OE 70cm Channels;20;U023;OFF;430,287500;;0,000000;12,5kHz;FM;OFF;OFF;88,5Hz;88,5Hz;23;BOTH N;;;;;
03;OE 70cm Channels;21;U024;OFF;430,300000;;0,000000;12,5kHz;FM;OFF;OFF;88,5Hz;88,5Hz;23;BOTH N;;;;;
03;OE 70cm Channels;22;U025;OFF;430,312500;;0,000000;12,5kHz;FM;OFF;OFF;88,5Hz;88,5Hz;23;BOTH N;;;;;
03;OE 70cm Channels;23;U026;OFF;430,325000;;0,000000;12,5kHz;FM;OFF;OFF;88,5Hz;88,5Hz;23;BOTH N;;;;;
03;OE 70cm Channels;24;U027;OFF;430,337500;;0,000000;12,5kHz;FM;OFF;OFF;88,5Hz;88,5Hz;23;BOTH N;;;;;
03;OE 70cm Channels;25;U028;OFF;430,350000;;0,000000;12,5kHz;FM;OFF;OFF;88,5Hz;88,5Hz;23;BOTH N;;;;;
03;OE 70cm Channels;26;U240 (SU0);OFF;433,000000;;0,000000;12,5kHz;FM;OFF;OFF;88,5Hz;88,5Hz;23;BOTH N;;;;;
03;OE 70cm Channels;27;U241;OFF;433,012500;;0,000000;12,5kHz;FM;OFF;OFF;88,5Hz;88,5Hz;23;BOTH N;;;;;
03;OE 70cm Channels;28;U242 (SU1);OFF;433,025000;;0,000000;12,5kHz;FM;OFF;OFF;88,5Hz;88,5Hz;23;BOTH N;;;;;
03;OE 70cm Channels;29;U243;OFF;433,037500;;0,000000;12,5kHz;FM;OFF;OFF;88,5Hz;88,5Hz;23;BOTH N;;;;;
03;OE 70cm Channels;30;U244 (SU2);OFF;433,050000;;0,000000;12,5kHz;FM;OFF;OFF;88,5Hz;88,5Hz;23;BOTH N;;;;;
03;OE 70cm Channels;31;U245;OFF;433,062500;;0,000000;12,5kHz;FM;OFF;OFF;88,5Hz;88,5Hz;23;BOTH N;;;;;
03;OE 70cm Channels;32;U246 (SU3);OFF;433,075000;;0,000000;12,5kHz;FM;OFF;OFF;88,5Hz;88,5Hz;23;BOTH N;;;;;
03;OE 70cm Channels;33;U247;OFF;433,087500;;0,000000;12,5kHz;FM;OFF;OFF;88,5Hz;88,5Hz;23;BOTH N;;;;;
03;OE 70cm Channels;34;U248 (SU4);OFF;433,100000;;0,000000;12,5kHz;FM;OFF;OFF;88,5Hz;88,5Hz;23;BOTH N;;;;;
03;OE 70cm Channels;35;U249;OFF;433,112500;;0,000000;12,5kHz;FM;OFF;OFF;88,5Hz;88,5Hz;23;BOTH N;;;;;
03;OE 70cm Channels;36;U250 (SU5);OFF;433,125000;;0,000000;12,5kHz;FM;OFF;OFF;88,5Hz;88,5Hz;23;BOTH N;;;;;
03;OE 70cm Channels;37;U251;OFF;433,137500;;0,000000;12,5kHz;FM;OFF;OFF;88,5Hz;88,5Hz;23;BOTH N;;;;;
03;OE 70cm Channels;38;U252 (SU6);OFF;433,150000;;0,000000;12,5kHz;FM;OFF;OFF;88,5Hz;88,5Hz;23;BOTH N;;;;;
03;OE 70cm Channels;39;U253;OFF;433,162500;;0,000000;12,5kHz;FM;OFF;OFF;88,5Hz;88,5Hz;23;BOTH N;;;;;
03;OE 70cm Channels;40;U254 (SU7);OFF;433,175000;;0,000000;12,5kHz;FM;OFF;OFF;88,5Hz;88,5Hz;23;BOTH N;;;;;
03;OE 70cm Channels;41;U255;OFF;433,187500;;0,000000;12,5kHz;FM;OFF;OFF;88,5Hz;88,5Hz;23;BOTH N;;;;;
03;OE 70cm Channels;42;U256 (SU8);OFF;433,200000;;0,000000;12,5kHz;FM;OFF;OFF;88,5Hz;88,5Hz;23;BOTH N;;;;;
03;OE 70cm Channels;43;U257;OFF;433,212500;;0,000000;12,5kHz;FM;OFF;OFF;88,5Hz;88,5Hz;23;BOTH N;;;;;
03;OE 70cm Channels;44;U258 (SU9);OFF;433,225000;;0,000000;12,5kHz;FM;OFF;OFF;88,5Hz;88,5Hz;23;BOTH N;;;;;
03;OE 70cm Channels;45;U259;OFF;433,237500;;0,000000;12,5kHz;FM;OFF;OFF;88,5Hz;88,5Hz;23;BOTH N;;;;;
03;OE 70cm Channels;46;U260 (SU10);OFF;433,250000;;0,000000;12,5kHz;FM;OFF;OFF;88,5Hz;88,5Hz;23;BOTH N;;;;;
03;OE 70cm Channels;47;U261;OFF;433,262500;;0,000000;12,5kHz;FM;OFF;OFF;88,5Hz;88,5Hz;23;BOTH N;;;;;
03;OE 70cm Channels;48;U262 (SU11);OFF;433,275000;;0,000000;12,5kHz;FM;OFF;OFF;88,5Hz;88,5Hz;23;BOTH N;;;;;
03;OE 70cm Channels;49;U263;OFF;433,287500;;0,000000;12,5kHz;FM;OFF;OFF;88,5Hz;88,5Hz;23;BOTH N;;;;;
03;OE 70cm Channels;50;U264 (SU12);OFF;433,300000;;0,000000;12,5kHz;FM;OFF;OFF;88,5Hz;88,5Hz;23;BOTH N;;;;;
03;OE 70cm Channels;51;U265;OFF;433,312500;;0,000000;12,5kHz;FM;OFF;OFF;88,5Hz;88,5Hz;23;BOTH N;;;;;
03;OE 70cm Channels;52;U266 (SU13);OFF;433,325000;;0,000000;12,5kHz;FM;OFF;OFF;88,5Hz;88,5Hz;23;BOTH N;;;;;
03;OE 70cm Channels;53;U267;OFF;433,337500;;0,000000;12,5kHz;FM;OFF;OFF;88,5Hz;88,5Hz;23;BOTH N;;;;;
03;OE 70cm Channels;54;U268 (SU14);OFF;433,350000;;0,000000;12,5kHz;FM;OFF;OFF;88,5Hz;88,5Hz;23;BOTH N;;;;;
03;OE 70cm Channels;55;U269;OFF;433,362500;;0,000000;12,5kHz;FM;OFF;OFF;88,5Hz;88,5Hz;23;BOTH N;;;;;
03;OE 70cm Channels;56;U270 (SU15);OFF;433,375000;;0,000000;12,5kHz;FM;OFF;OFF;88,5Hz;88,5Hz;23;BOTH N;;;;;
03;OE 70cm Channels;57;U271;OFF;433,387500;;0,000000;12,5kHz;FM;OFF;OFF;88,5Hz;88,5Hz;23;BOTH N;;;;;
03;OE 70cm Channels;58;U273;OFF;433,412500;;0,000000;12,5kHz;FM;OFF;OFF;88,5Hz;88,5Hz;23;BOTH N;;;;;
03;OE 70cm Channels;59;U274 (SU17);OFF;433,425000;;0,000000;12,5kHz;FM;OFF;OFF;88,5Hz;88,5Hz;23;BOTH N;;;;;
03;OE 70cm Channels;60;U275;OFF;433,437500;;0,000000;12,5kHz;FM;OFF;OFF;88,5Hz;88,5Hz;23;BOTH N;;;;;
03;OE 70cm Channels;61;U276 (SU18);OFF;433,450000;;0,000000;12,5kHz;FM;OFF;OFF;88,5Hz;88,5Hz;23;BOTH N;;;;;
03;OE 70cm Channels;62;U277;OFF;433,462500;;0,000000;12,5kHz;FM;OFF;OFF;88,5Hz;88,5Hz;23;BOTH N;;;;;
03;OE 70cm Channels;63;U278 (SU19);OFF;433,475000;;0,000000;12,5kHz;FM;OFF;OFF;88,5Hz;88,5Hz;23;BOTH N;;;;;
03;OE 70cm Channels;64;U279;OFF;433,487500;;0,000000;12,5kHz;FM;OFF;OFF;88,5Hz;88,5Hz;23;BOTH N;;;;;
03;OE 70cm Channels;65;U280 (SU20);OFF;433,500000;;0,000000;12,5kHz;FM;OFF;OFF;88,5Hz;88,5Hz;23;BOTH N;;;;;
03;OE 70cm Channels;66;U281;OFF;433,512500;;0,000000;12,5kHz;FM;OFF;OFF;88,5Hz;88,5Hz;23;BOTH N;;;;;
03;OE 70cm Channels;67;U282 (SU21);OFF;433,525000;;0,000000;12,5kHz;FM;OFF;OFF;88,5Hz;88,5Hz;23;BOTH N;;;;;
03;OE 70cm Channels;68;U283;OFF;433,537500;;0,000000;12,5kHz;FM;OFF;OFF;88,5Hz;88,5Hz;23;BOTH N;;;;;
03;OE 70cm Channels;69;U284 (SU22);OFF;433,550000;;0,000000;12,5kHz;FM;OFF;OFF;88,5Hz;88,5Hz;23;BOTH N;;;;;
03;OE 70cm Channels;70;U285;OFF;433,562500;;0,000000;12,5kHz;FM;OFF;OFF;88,5Hz;88,5Hz;23;BOTH N;;;;;
03;OE 70cm Channels;71;U286 (SU23);OFF;433,575000;;0,000000;12,5kHz;FM;OFF;OFF;88,5Hz;88,5Hz;23;BOTH N;;;;;
03;OE 70cm Channels;72;U287;OFF;433,587500;;0,000000;12,5kHz;FM;OFF;OFF;88,5Hz;88,5Hz;23;BOTH N;;;;;