Group No;Group Name;Name;Sub Name;Repeater Call Sign;Gateway Call Sign;Frequency;Dup;Offset;Mode;TONE;Repeater Tone;RPT1USE;Position;Latitude;Longitude;UTC Offset
22;Austria;Wien AKH;OE1XDS;OE1XDS C;OE1XDS G;145,575000;DUP-;0,600000;DV;OFF;88,5Hz;YES;Exact;48,22075;16,34684;+1:00
22;Austria;Wien AKH;OE1XDS;OE1XDS B;OE1XDS G;438,525000;DUP-;7,600000;DV;OFF;88,5Hz;YES;Exact;48,22075;16,34684;+1:00
22;Austria;Wien AKH;OE1XDS;OE1XDS A;OE1XDS G;1298,650000;DUP-;28,000000;DV;OFF;88,5Hz;YES;Exact;48,22075;16,34684;+1:00
22;Austria;Wienerberg;OE1XQU;OE1XQU B;OE1XQU G;438,825000;DUP-;7,600000;DV;OFF;88,5Hz;YES;Exact;48,16803;16,3454;+1:00
22;Austria;Gernkogel;OE2XGR;OE2XGR B;OE2XGR G;438,525000;DUP-;7,600000;DV;OFF;88,5Hz;YES;Exact;47,30755;13,238225;+1:00
22;Austria;Gaisberg;OE2XZR;OE2XZR B;OE2XZR G;439,000000;DUP-;7,600000;DV;OFF;88,5Hz;YES;Exact;47,805128;13,112955;+1:00
22;Austria;Hochkogel;OE3XDA;OE3XDA C;OE3XDA G;145,575000;DUP-;0,600000;DV;OFF;88,5Hz;YES;Exact;48,034278;14,951167;+1:00
22;Austria;Hochkogel;OE3XDA;OE3XDA B;OE3XDA G;438,400000;DUP-;7,600000;DV;OFF;88,5Hz;YES;Exact;48,034278;14,951167;+1:00
22;Austria;Nebelstein;OE3XNR;OE3XNR B;OE3XNR G;438,325000;DUP-;7,600000;DV;OFF;88,5Hz;YES;Exact;48,672816;14,77828;+1:00
22;Austria;Kaiserkogel;OE3XPA;OE3XPA B;OE3XPA G;438,450000;DUP-;7,600000;DV;OFF;88,5Hz;YES;Exact;48,05978708;15,53965351;+1:00
22;Austria;FH Wr Neustadt;OE3XVJ;OE3XVJ B;OE3XVJ G;438,225000;DUP-;7,600000;DV;TONE;162,2Hz;YES;Exact;47,839;16,24825;+1:00
22;Austria;Hochwechsel;OE3XWU;OE3XWU B;OE3XWU G;439,075000;DUP-;7,600000;DV;TONE;162,2Hz;YES;Exact;47,530448;15,9145156;+1:00
22;Austria;Sonnenberg im Le;OE4XSB;OE4XSB B;OE4XSB G;438,362500;DUP-;7,600000;DV;OFF;88,5Hz;YES;Exact;47,875443581357835;16,475900647888768;+1:00
22;Austria;Senftenbach/Wolf;OE5XDN;OE5XDN B;OE5XDN G;438,425000;DUP-;7,600000;DV;TONE;123,0Hz;YES;Exact;48,27889;13,40661;+1:00
22;Austria;Gruenberg;OE5XGL;OE5XGL B;OE5XGL G;438,262500;DUP-;7,600000;DV;OFF;88,5Hz;YES;Exact;47,8981318;13,8219805;+1:00
22;Austria;Sternstein;OE5XIM;OE5XIM B;OE5XIM G;439,062500;DUP-;7,600000;DV;OFF;88,5Hz;YES;Exact;48,5599155;14,2690062;+1:00
22;Austria;Krippenstein;OE5XKL;OE5XKL B;OE5XKL G;438,500000;DUP-;7,600000;DV;OFF;88,5Hz;YES;Exact;47,524287;13,69208;+1:00
22;Austria;Breitenstein;OE5XOL;OE5XOL B;OE5XOL G;438,525000;DUP-;7,600000;DV;OFF;88,5Hz;YES;Exact;48,4152993;14,27429015;+1:00
22;Austria;Poschenhof;OE5XTP;OE5XTP B;OE5XTP G;438,350000;DUP-;7,600000;DV;OFF;88,5Hz;YES;Exact;48,02072354491044;13,643034696578981;+1:00
22;Austria;Dobl;OE6XDF;OE6XDF C;OE6XDF G;145,637500;DUP-;0,600000;DV;OFF;88,5Hz;YES;Exact;46,94991;15,37989;+1:00
22;Austria;Hoadl;OE7XIH;OE7XIH B;OE7XIH G;438,050000;DUP-;7,600000;DV;OFF;88,5Hz;YES;Exact;47,183272;11,281548;+1:00
22;Austria;Krahberg;OE7XKH;OE7XKH B;OE7XKH G;438,500000;DUP-;7,600000;DV;OFF;88,5Hz;YES;Exact;47,145919;10,626826;+1:00
22;Austria;Iselsberg-Strona;OE7XLH;OE7XLH B;OE7XLH G;438,625000;DUP-;7,600000;DV;OFF;88,5Hz;YES;Exact;46,83869;12,84436;+1:00
22;Austria;Hochstein;OE7XLI;OE7XLI C;OE7XLI G;145,725000;DUP-;0,600000;DV;OFF;88,5Hz;YES;Exact;46,82166;12,70025;+1:00
22;Austria;Obtarrenz;OE7XOT;OE7XOT B;OE7XOT G;439,100000;DUP-;7,600000;DV;OFF;88,5Hz;YES;Exact;47,279243560012524;10,767288208007812;+1:00
22;Austria;Rofan Rosskogel;OE7XXR;OE7XXR B;OE7XXR G;438,200000;DUP-;7,600000;DV;OFF;88,5Hz;YES;Exact;47,46738;11,82695;+1:00
22;Austria;Pyramidenkogel;OE8XKK;OE8XKK B;OE8XKK G;438,837500;DUP-;7,600000;DV;OFF;88,5Hz;YES;Exact;46,608914;14,14479;+1:00
22;Austria;Magdalensberg;OE8XMK;OE8XMK B;OE8XMK G;438,425000;DUP-;7,600000;DV;OFF;88,5Hz;YES;Exact;46,728051;14,429426;+1:00
22;Austria;Petzen;OE8XPK;OE8XPK B;OE8XPK G;438,700000;DUP-;7,600000;DV;OFF;88,5Hz;YES;Exact;46,518507;14,772985;+1:00
22;Austria;Villach LKH;OE8XVK;OE8XVK B;OE8XVK G;438,550000;DUP-;7,600000;DV;TONE;88,5Hz;YES;Exact;46,61612;13,85777;+1:00
22;Austria;Woelfnitz;OE8XWZ;OE8XWZ B;OE8XWZ G;438,775000;DUP-;7,600000;DV;OFF;88,5Hz;YES;Exact;46,66441;14,25703;+1:00
22;Austria;Vorderaelpele;OE9XVI;OE9XVI B;OE9XVI G;438,200000;DUP-;7,600000;DV;OFF;88,5Hz;YES;Exact;47,20918;9,591069;+1:00