Channel Number,Bank,Receive Frequency,Transmit Frequency,Offset Frequency,Offset Direction,Repeater Use,Operating Mode,Name,Sub Name,Tone Mode,CTCSS,Rpt-1 CallSign,Rpt-2 CallSign,LatLng,Latitude,Longitude,UTC Offset,Comment
0,1: Austria,438.475000,430.875000,7.60 MHz,DUP-,On,FM,OE1XAT,OE1XAT,Tone,162.2,OE1XAT,,Exact,48°16'13.5074587"N,16°17'36.7826271"E,+1:00,
1,1: Austria,438.312500,430.712500,7.60 MHz,DUP-,On,FM,OE1XBA,OE1XBA,Tone,162.2,OE1XBA,,Exact,48°10'4.6696634"N,16°23'13.7753677"E,+1:00,
2,1: Austria,145.575000,144.975000,600 kHz,DUP-,On,DV,OE1XDS,OE1XDS,None,88.5,OE1XDS C,OE1XDS G,Exact,48°13'14.7000000"N,16°20'48.6240000"E,+1:00,
3,1: Austria,438.525000,430.925000,7.60 MHz,DUP-,On,DV,OE1XDS,OE1XDS,None,88.5,OE1XDS B,OE1XDS G,Exact,48°13'14.7000000"N,16°20'48.6240000"E,+1:00,
4,1: Austria,439.000000,431.400000,7.60 MHz,DUP-,On,FM,OE1XFU,OE1XFU,Tone,162.2,OE1XFU,,Exact,48°12'54.9813485"N,16°15'40.7953262"E,+1:00,
5,1: Austria,145.625000,145.025000,600 kHz,DUP-,On,FM,OE1XFW,OE1XFW,None,88.5,OE1XFW,,Exact,48°9'25.8228000"N,16°23'48.1812000"E,+1:00,
6,1: Austria,438.650000,431.050000,7.60 MHz,DUP-,On,FM,OE1XFW,OE1XFW,None,88.5,OE1XFW,,Exact,48°9'25.8228000"N,16°23'48.1812000"E,+1:00,
7,1: Austria,438.825000,431.225000,7.60 MHz,DUP-,On,DV,OE1XQU,OE1XQU,None,88.5,OE1XQU B,OE1XQU G,Exact,48°10'4.9080000"N,16°20'43.4400000"E,+1:00,
8,1: Austria,438.950000,431.350000,7.60 MHz,DUP-,On,FM,OE1XUU,OE1XUU,Tone,162.2,OE1XUU,,Exact,48°16'34.1220000"N,16°19'59.5812000"E,+1:00,
9,1: Austria,145.762500,145.162500,600 kHz,DUP-,On,FM,OE2XGR,OE2XGR,Tone,88.5,OE2XGR,,Exact,47°18'27.1800000"N,13°14'17.6100000"E,+1:00,
10,1: Austria,438.525000,430.925000,7.60 MHz,DUP-,On,DV,OE2XGR,OE2XGR,None,88.5,OE2XGR B,OE2XGR G,Exact,47°18'27.1800000"N,13°14'17.6100000"E,+1:00,
11,1: Austria,145.650000,145.050000,600 kHz,DUP-,On,FM,OE2XHL,OE2XHL,Tone,88.5,OE2XHL,,Exact,47°11'17.1744000"N,12°41'15.0468000"E,+1:00,
12,1: Austria,438.825000,431.225000,7.60 MHz,DUP-,On,FM,OE2XHM,OE2XHM,None,88.5,OE2XHM,,Exact,47°25'12.9468000"N,13°3'44.6148000"E,+1:00,
13,1: Austria,145.612500,145.012500,600 kHz,DUP-,On,FM,OE2XNL,OE2XNL,None,88.5,OE2XNL,,Exact,47°7'37.3116000"N,13°37'29.1468000"E,+1:00,
14,1: Austria,438.975000,431.375000,7.60 MHz,DUP-,On,FM,OE2XNM,OE2XNM,None,88.5,OE2XNM,,Exact,47°7'37.3116000"N,13°37'29.1468000"E,+1:00,
15,1: Austria,145.687500,145.087500,600 kHz,DUP-,On,FM,OE2XZR,OE2XZR,Tone,88.5,OE2XZR,,Exact,47°48'18.4608000"N,13°6'46.6380000"E,+1:00,
16,1: Austria,438.400000,430.800000,7.60 MHz,DUP-,On,FM,OE2XZR,OE2XZR,Tone,88.5,OE2XZR,,Exact,47°48'18.4608000"N,13°6'46.6380000"E,+1:00,
17,1: Austria,439.000000,431.400000,7.60 MHz,DUP-,On,DV,OE2XZR,OE2XZR,None,88.5,OE2XZR B,OE2XZR G,Exact,47°48'18.4608000"N,13°6'46.6380000"E,+1:00,
18,1: Austria,438.837500,431.237500,7.60 MHz,DUP-,On,FM,OE3XCR,OE3XCR,Tone,97.4,OE3XCR,,Exact,47°27'47.3256000"N,16°13'18.5880000"E,+1:00,
19,1: Austria,145.575000,144.975000,600 kHz,DUP-,On,DV,OE3XDA,OE3XDA,None,88.5,OE3XDA C,OE3XDA G,Exact,48°2'3.4008000"N,14°57'4.2012000"E,+1:00,
20,1: Austria,438.400000,430.800000,7.60 MHz,DUP-,On,DV,OE3XDA,OE3XDA,None,88.5,OE3XDA B,OE3XDA G,Exact,48°2'3.4008000"N,14°57'4.2012000"E,+1:00,
21,1: Austria,438.850000,431.250000,7.60 MHz,DUP-,On,FM,OE3XDA,OE3XDA,None,88.5,OE3XDA,,Exact,48°2'3.4008000"N,14°57'4.2012000"E,+1:00,
22,1: Austria,439.050000,431.450000,7.60 MHz,DUP-,On,FM,OE3XEB,OE3XEB,None,88.5,OE3XEB,,Exact,48°13'26.3496000"N,16°6'36.2772000"E,+1:00,
23,1: Austria,145.787500,145.187500,600 kHz,DUP-,On,FM,OE3XES,OE3XES,Tone,79.7,OE3XES,,Exact,48°47'35.4940800"N,15°20'59.6587200"E,+1:00,
24,1: Austria,439.025000,431.425000,7.60 MHz,DUP-,On,FM,OE3XEU,OE3XEU,Tone,136.5,OE3XEU,,Exact,48°47'35.4940800"N,15°20'59.6587200"E,+1:00,
25,1: Austria,438.975000,431.375000,7.60 MHz,DUP-,On,FM,OE3XFW,OE3XFW,Tone,162.2,OE3XFW,,Exact,48°9'11.0421903"N,16°0'58.6275101"E,+1:00,
26,1: Austria,145.725000,145.125000,600 kHz,DUP-,On,FM,OE3XHW,OE3XHW,None,88.5,OE3XHW,,Exact,47°50'4.5600000"N,16°2'45.7800000"E,+1:00,
27,1: Austria,438.750000,431.150000,7.60 MHz,DUP-,On,FM,OE3XHW,OE3XHW,None,88.5,OE3XHW,,Exact,47°50'4.5600000"N,16°2'45.7800000"E,+1:00,
28,1: Austria,145.587500,144.987500,600 kHz,DUP-,On,FM,OE3XLU,OE3XLU,None,88.5,OE3XLU,,Exact,48°5'48.1560000"N,16°14'20.1480000"E,+1:00,
29,1: Austria,439.025000,431.425000,7.60 MHz,DUP-,On,FM,OE3XLU,OE3XLU,None,88.5,OE3XLU,,Exact,48°5'48.1560000"N,16°14'20.1480000"E,+1:00,
30,1: Austria,145.637500,145.037500,600 kHz,DUP-,On,FM,OE3XNR,OE3XNR,Tone,88.5,OE3XNR,,Exact,48°40'22.1376000"N,14°46'41.8080000"E,+1:00,
31,1: Austria,438.325000,430.725000,7.60 MHz,DUP-,On,DV,OE3XNR,OE3XNR,None,88.5,OE3XNR B,OE3XNR G,Exact,48°40'22.1376000"N,14°46'41.8080000"E,+1:00,
32,1: Austria,438.875000,431.275000,7.60 MHz,DUP-,On,FM,OE3XNR,OE3XNR,None,88.5,OE3XNR,,Exact,48°40'22.1376000"N,14°46'41.8080000"E,+1:00,
33,1: Austria,438.800000,431.200000,7.60 MHz,DUP-,On,FM,OE3XNS,OE3XNS,None,88.5,OE3XNS,,Exact,48°34'37.3584000"N,16°23'43.9800000"E,+1:00,
34,1: Austria,438.300000,430.700000,7.60 MHz,DUP-,On,FM,OE3XOR,OE3XOR,Tone,162.2,OE3XOR,,Exact,48°1'9.6654000"N,15°45'13.3070400"E,+1:00,
35,1: Austria,145.650000,145.050000,600 kHz,DUP-,On,FM,OE3XPA,OE3XPA,Tone,162.2,OE3XPA,,Exact,48°3'35.2334880"N,15°32'22.7526360"E,+1:00,
36,1: Austria,438.450000,430.850000,7.60 MHz,DUP-,On,DV,OE3XPA,OE3XPA,None,88.5,OE3XPA B,OE3XPA G,Exact,48°3'35.2334880"N,15°32'22.7526360"E,+1:00,
37,1: Austria,438.700000,431.100000,7.60 MHz,DUP-,On,FM,OE3XPC,OE3XPC,Tone,162.2,OE3XPC,,Exact,47°58'19.4160000"N,15°36'37.4040000"E,+1:00,
38,1: Austria,145.750000,145.150000,600 kHz,DUP-,On,FM,OE3XQA,OE3XQA,Tone,162.2,OE3XQA,,Exact,48°14'55.5371880"N,16°14'38.5706400"E,+1:00,
39,1: Austria,438.900000,431.300000,7.60 MHz,DUP-,On,FM,OE3XRB,OE3XRB,None,88.5,OE3XRB,,Exact,47°59'47.5368000"N,14°45'52.0992000"E,+1:00,
40,1: Austria,145.700000,145.100000,600 kHz,DUP-,On,FM,OE3XSA,OE3XSA,Tone,162.2,OE3XSA,,Exact,48°26'0.1680000"N,15°28'17.0004000"E,+1:00,
41,1: Austria,438.925000,431.325000,7.60 MHz,DUP-,On,FM,OE3XSU,OE3XSU,None,88.5,OE3XSU,,Exact,48°9'29.6964000"N,14°32'56.0184000"E,+1:00,
42,1: Austria,438.400000,430.800000,7.60 MHz,DUP-,On,FM,OE3XTR,OE3XTR,Tone,162.2,OE3XTR,,Exact,47°50'4.5600000"N,16°2'45.7800000"E,+1:00,
43,1: Austria,438.225000,430.625000,7.60 MHz,DUP-,On,FM,OE3XVJ,OE3XVJ,Tone,162.2,OE3XVJ,,Exact,47°50'20.4000000"N,16°14'53.7000000"E,+1:00,
44,1: Austria,438.225000,430.625000,7.60 MHz,DUP-,On,DV,OE3XVJ,OE3XVJ,Tone,162.2,OE3XVJ B,OE3XVJ G,Exact,47°50'20.4000000"N,16°14'53.7000000"E,+1:00,
45,1: Austria,438.600000,431.000000,7.60 MHz,DUP-,On,FM,OE3XWJ,OE3XWJ,Tone,162.2,OE3XWJ,,Exact,48°20'4.2773384"N,15°20'15.6522274"E,+1:00,
46,1: Austria,439.075000,431.475000,7.60 MHz,DUP-,On,FM,OE3XWU,OE3XWU,Tone,162.2,OE3XWU,,Exact,47°31'49.6128000"N,15°54'52.2561600"E,+1:00,
47,1: Austria,439.075000,431.475000,7.60 MHz,DUP-,On,DV,OE3XWU,OE3XWU,Tone,162.2,OE3XWU B,OE3XWU G,Exact,47°31'49.6128000"N,15°54'52.2561600"E,+1:00,
48,1: Austria,438.362500,430.762500,7.60 MHz,DUP-,On,DV,OE4XSB,OE4XSB,None,88.5,OE4XSB B,OE4XSB G,Exact,47°52'31.5968929"N,16°28'33.2423324"E,+1:00,
49,1: Austria,438.725000,431.125000,7.60 MHz,DUP-,On,FM,OE4XSB,OE4XSB,Tone,97.4,OE4XSB,,Exact,47°52'31.5968929"N,16°28'33.2423324"E,+1:00,
50,1: Austria,145.775000,145.175000,600 kHz,DUP-,On,FM,OE4XUB,OE4XUB,Tone,97.4,OE4XUB,,Exact,47°39'34.3260000"N,16°23'26.1312000"E,+1:00,
51,1: Austria,438.775000,431.175000,7.60 MHz,DUP-,On,FM,OE5XBR,OE5XBR,None,88.5,OE5XBR,,Exact,48°17'18.5640000"N,14°16'42.7800000"E,+1:00,
52,1: Austria,438.725000,431.125000,7.60 MHz,DUP-,On,FM,OE5XDM,OE5XDM,None,88.5,OE5XDM,,Exact,47°28'4.5896127"N,13°37'34.4786453"E,+1:00,
53,1: Austria,438.425000,430.825000,7.60 MHz,DUP-,On,FM,OE5XDN,OE5XDN,Tone,123.0,OE5XDN,,Exact,48°16'44.0040000"N,13°24'23.7960000"E,+1:00,
54,1: Austria,438.425000,430.825000,7.60 MHz,DUP-,On,DV,OE5XDN,OE5XDN,Tone,123.0,OE5XDN B,OE5XDN G,Exact,48°16'44.0040000"N,13°24'23.7960000"E,+1:00,
55,1: Austria,438.950000,431.350000,7.60 MHz,DUP-,On,FM,OE5XDO,OE5XDO,None,88.5,OE5XDO,,Exact,48°30'10.3392000"N,13°49'32.2428000"E,+1:00,
56,1: Austria,438.150000,430.550000,7.60 MHz,DUP-,On,FM,OE5XFK,OE5XFK,Tone,123.0,OE5XFK,,Exact,47°48'57.1680000"N,13°43'16.7772000"E,+1:00,
57,1: Austria,145.750000,145.150000,600 kHz,DUP-,On,FM,OE5XGL,OE5XGL,Tone,123.0,OE5XGL,,Exact,47°53'53.2744800"N,13°49'19.1298000"E,+1:00,
58,1: Austria,438.262500,430.662500,7.60 MHz,DUP-,On,DV,OE5XGL,OE5XGL,None,88.5,OE5XGL B,OE5XGL G,Exact,47°53'53.2744800"N,13°49'19.1298000"E,+1:00,
59,1: Austria,438.800000,431.200000,7.60 MHz,DUP-,On,FM,OE5XGL,OE5XGL,Tone,123.0,OE5XGL,,Exact,47°53'53.2744800"N,13°49'19.1298000"E,+1:00,
60,1: Austria,438.750000,431.150000,7.60 MHz,DUP-,On,FM,OE5XHO,OE5XHO,None,88.5,OE5XHO,,Exact,48°0'26.5085588"N,14°27'7.7781487"E,+1:00,
61,1: Austria,438.975000,431.375000,7.60 MHz,DUP-,On,FM,OE5XIM,OE5XIM,Tone,123.0,OE5XIM,,Exact,48°33'35.6958000"N,14°16'8.4223200"E,+1:00,
62,1: Austria,439.062500,431.462500,7.60 MHz,DUP-,On,DV,OE5XIM,OE5XIM,None,88.5,OE5XIM B,OE5XIM G,Exact,48°33'35.6958000"N,14°16'8.4223200"E,+1:00,
63,1: Austria,145.712500,145.112500,600 kHz,DUP-,On,FM,OE5XKL,OE5XKL,None,88.5,OE5XKL,,Exact,47°31'27.4332000"N,13°41'31.4880000"E,+1:00,
64,1: Austria,438.500000,430.900000,7.60 MHz,DUP-,On,DV,OE5XKL,OE5XKL,None,88.5,OE5XKL B,OE5XKL G,Exact,47°31'27.4332000"N,13°41'31.4880000"E,+1:00,
65,1: Austria,145.600000,145.000000,600 kHz,DUP-,On,FM,OE5XLL,OE5XLL,None,88.5,OE5XLL,,Exact,48°23'6.5400000"N,14°15'16.0200000"E,+1:00,
66,1: Austria,438.650000,431.050000,7.60 MHz,DUP-,On,FM,OE5XLL,OE5XLL,None,88.5,OE5XLL,,Exact,48°23'6.5400000"N,14°15'16.0200000"E,+1:00,
67,1: Austria,438.525000,430.925000,7.60 MHz,DUP-,On,DV,OE5XOL,OE5XOL,None,88.5,OE5XOL B,OE5XOL G,Exact,48°24'55.0774800"N,14°16'27.4445400"E,+1:00,
68,1: Austria,438.575000,430.975000,7.60 MHz,DUP-,On,FM,OE5XOL,OE5XOL,Tone,123.0,OE5XOL,,Exact,48°24'55.0774800"N,14°16'27.4445400"E,+1:00,
69,1: Austria,438.350000,430.750000,7.60 MHz,DUP-,On,DV,OE5XTP,OE5XTP,None,88.5,OE5XTP B,OE5XTP G,Exact,48°1'14.6047617"N,13°38'34.9249077"E,+1:00,
70,1: Austria,145.775000,145.175000,600 kHz,DUP-,On,FM,OE5XUL,OE5XUL,None,88.5,OE5XUL,,Exact,48°12'0.9360000"N,13°34'53.1120000"E,+1:00,
71,1: Austria,145.600000,145.000000,600 kHz,DUP-,On,FM,OE6XAG,OE6XAG,Tone,103.5,OE6XAG,,Exact,47°11'55.8722400"N,15°28'0.9926400"E,+1:00,
72,1: Austria,438.875000,431.275000,7.60 MHz,DUP-,On,FM,OE6XAG,OE6XAG,Tone,103.5,OE6XAG,,Exact,47°11'55.8722400"N,15°28'0.9926400"E,+1:00,
73,1: Austria,438.975000,431.375000,7.60 MHz,DUP-,On,FM,OE6XBF,OE6XBF,None,88.5,OE6XBF,,Exact,46°50'42.7768723"N,15°55'55.1216125"E,+1:00,
74,1: Austria,145.650000,145.050000,600 kHz,DUP-,On,FM,OE6XBG,OE6XBG,Tone,103.5,OE6XBG,,Exact,47°24'19.9440000"N,15°21'33.6960000"E,+1:00,
75,1: Austria,438.625000,431.025000,7.60 MHz,DUP-,On,FM,OE6XCD,OE6XCD,None,88.5,OE6XCD,,Exact,47°34'27.0012000"N,15°47'24.0000000"E,+1:00,
76,1: Austria,438.775000,431.175000,7.60 MHz,DUP-,On,FM,OE6XCG,OE6XCG,None,88.5,OE6XCG,,Exact,47°0'22.2120000"N,15°29'46.3200000"E,+1:00,
77,1: Austria,145.637500,145.037500,600 kHz,DUP-,On,DV,OE6XDF,OE6XDF,None,88.5,OE6XDF C,OE6XDF G,Exact,46°56'59.6760000"N,15°22'47.6040000"E,+1:00,
78,1: Austria,145.700000,145.100000,600 kHz,DUP-,On,FM,OE6XDG,OE6XDG,None,88.5,OE6XDG,,Exact,47°15'18.1800000"N,14°20'41.3880000"E,+1:00,
79,1: Austria,438.675000,431.075000,7.60 MHz,DUP-,On,FM,OE6XDG,OE6XDG,Tone,103.5,OE6XDG,,Exact,47°15'18.1800000"N,14°20'41.3880000"E,+1:00,
80,1: Austria,438.200000,430.600000,7.60 MHz,DUP-,On,FM,OE6XFD,OE6XFD,Tone,103.5,OE6XFD,,Exact,47°4'16.1415388"N,15°15'23.5062628"E,+1:00,
81,1: Austria,438.750000,431.150000,7.60 MHz,DUP-,On,FM,OE6XGD,OE6XGD,None,88.5,OE6XGD,,Exact,47°5'37.6800000"N,15°41'40.3800000"E,+1:00,
82,1: Austria,438.800000,431.200000,7.60 MHz,DUP-,On,FM,OE6XMD,OE6XMD,None,88.5,OE6XMD,,Exact,47°3'48.4884000"N,14°34'2.2656000"E,+1:00,
83,1: Austria,438.525000,430.925000,7.60 MHz,DUP-,On,FM,OE6XME,OE6XME,None,88.5,OE6XME,,Exact,47°30'21.0600000"N,15°26'56.5080000"E,+1:00,
84,1: Austria,439.000000,431.400000,7.60 MHz,DUP-,On,FM,OE6XNG,OE6XNG,None,88.5,OE6XNG,,Exact,47°7'6.8160000"N,14°55'56.3880000"E,+1:00,
85,1: Austria,439.050000,431.450000,7.60 MHz,DUP-,On,FM,OE6XPF,OE6XPF,None,88.5,OE6XPF,,Exact,46°54'38.8440000"N,15°16'27.8400000"E,+1:00,
86,1: Austria,145.675000,145.075000,600 kHz,DUP-,On,FM,OE6XPG,OE6XPG,None,88.5,OE6XPG,,Exact,47°22'8.7168000"N,13°43'34.3956000"E,+1:00,
87,1: Austria,439.100000,431.500000,7.60 MHz,DUP-,On,FM,OE6XRE,OE6XRE,Tone,103.5,OE6XRE,,Exact,47°30'3.0126817"N,14°55'56.2322617"E,+1:00,
88,1: Austria,439.050000,431.450000,7.60 MHz,DUP-,On,FM,OE7XBI,OE7XBI,None,88.5,OE7XBI,,Exact,47°14'34.7460000"N,11°10'52.2264000"E,+1:00,
89,1: Austria,438.225000,430.625000,7.60 MHz,DUP-,On,FM,OE7XET,OE7XET,Tone,136.5,OE7XET,,Exact,47°24'44.8071097"N,10°54'59.1218077"E,+1:00,
90,1: Austria,438.900000,431.300000,7.60 MHz,DUP-,On,FM,OE7XFI,OE7XFI,None,88.5,OE7XFI,,Exact,47°21'25.2000000"N,11°45'18.0000000"E,+1:00,
91,1: Austria,439.025000,431.425000,7.60 MHz,DUP-,On,FM,OE7XFJ,OE7XFJ,Tone,77.0,OE7XFJ,,Exact,47°29'4.0560000"N,12°25'40.6200000"E,+1:00,
92,1: Austria,145.787500,145.187500,600 kHz,DUP-,On,FM,OE7XGI,OE7XGI,None,88.5,OE7XGI,,Exact,46°52'49.4760000"N,11°5'1.8240000"E,+1:00,
93,1: Austria,438.925000,431.325000,7.60 MHz,DUP-,On,FM,OE7XGR,OE7XGR,Tone,77.0,OE7XGR,,Exact,47°3'53.9172000"N,11°40'45.1056000"E,+1:00,
94,1: Austria,438.050000,430.450000,7.60 MHz,DUP-,On,DV,OE7XIH,OE7XIH,None,88.5,OE7XIH B,OE7XIH G,Exact,47°10'59.7792000"N,11°16'53.5728000"E,+1:00,
95,1: Austria,438.500000,430.900000,7.60 MHz,DUP-,On,FM,OE7XJH,OE7XJH,Tone,77.0,OE7XJH,,Exact,46°44'19.3999920"N,12°27'13.6000080"E,+1:00,
96,1: Austria,439.000000,431.400000,7.60 MHz,DUP-,On,FM,OE7XKG,OE7XKG,Tone,77.0,OE7XKG,,Exact,47°19'4.9664832"N,11°4'43.5241806"E,+1:00,
97,1: Austria,438.500000,430.900000,7.60 MHz,DUP-,On,DV,OE7XKH,OE7XKH,None,88.5,OE7XKH B,OE7XKH G,Exact,47°8'45.3084000"N,10°37'36.5736000"E,+1:00,
98,1: Austria,145.775000,145.175000,600 kHz,DUP-,On,FM,OE7XKI,OE7XKI,None,88.5,OE7XKI,,Exact,47°27'54.0000000"N,12°12'15.0012000"E,+1:00,
99,1: Austria,438.625000,431.025000,7.60 MHz,DUP-,On,FM,OE7XLH,OE7XLH,None,88.5,OE7XLH,,Exact,46°50'19.2840000"N,12°50'39.6960000"E,+1:00,
100,1: Austria,438.625000,431.025000,7.60 MHz,DUP-,On,DV,OE7XLH,OE7XLH,None,88.5,OE7XLH B,OE7XLH G,Exact,46°50'19.2840000"N,12°50'39.6960000"E,+1:00,
101,1: Austria,145.700000,145.100000,600 kHz,DUP-,On,FM,OE7XLI,OE7XLI,Tone,77.0,OE7XLI,,Exact,46°49'17.9760000"N,12°42'0.9000000"E,+1:00,
102,1: Austria,145.725000,145.125000,600 kHz,DUP-,On,DV,OE7XLI,OE7XLI,None,88.5,OE7XLI C,OE7XLI G,Exact,46°49'17.9760000"N,12°42'0.9000000"E,+1:00,
103,1: Austria,438.300000,430.700000,7.60 MHz,DUP-,On,FM,OE7XLI,OE7XLI,Tone,77.0,OE7XLI,,Exact,46°49'17.9760000"N,12°42'0.9000000"E,+1:00,
104,1: Austria,438.650000,431.050000,7.60 MHz,DUP-,On,FM,OE7XLR,OE7XLR,Tone,77.0,OE7XLR,,Exact,47°18'20.0592000"N,11°22'40.2996000"E,+1:00,
105,1: Austria,438.875000,431.275000,7.60 MHz,DUP-,On,FM,OE7XOI,OE7XOI,None,88.5,OE7XOI,,Exact,47°4'38.0596627"N,10°35'54.1442871"E,+1:00,
106,1: Austria,439.100000,431.500000,7.60 MHz,DUP-,On,DV,OE7XOT,OE7XOT,None,88.5,OE7XOT B,OE7XOT G,Exact,47°16'45.2768160"N,10°46'2.2375488"E,+1:00,
107,1: Austria,145.700000,145.100000,600 kHz,DUP-,On,FM,OE7XRT,OE7XRT,None,88.5,OE7XRT,,Exact,47°28'41.4264000"N,10°38'29.8752000"E,+1:00,
108,1: Austria,145.612500,145.012500,600 kHz,DUP-,On,FM,OE7XTI,OE7XTI,Tone,77.0,OE7XTI,,Exact,47°12'29.8332000"N,11°27'39.3444000"E,+1:00,
109,1: Austria,145.762500,145.162500,600 kHz,DUP-,On,FM,OE7XTR,OE7XTR,Tone,77.0,OE7XTR,,Exact,47°8'45.3084000"N,10°37'36.5736000"E,+1:00,
110,1: Austria,145.750000,145.150000,600 kHz,DUP-,On,FM,OE7XTT,OE7XTT,None,88.5,OE7XTT,,Exact,47°10'7.2012000"N,11°48'0.0000000"E,+1:00,
111,1: Austria,145.687500,145.087500,600 kHz,DUP-,On,FM,OE7XVR,OE7XVR,Tone,77.0,OE7XVR,,Exact,47°9'27.4051800"N,10°12'46.9956960"E,+1:00,
112,1: Austria,145.662500,145.062500,600 kHz,DUP-,On,FM,OE7XWH,OE7XWH,None,88.5,OE7XWH,,Exact,47°16'56.3160000"N,10°54'53.2080000"E,+1:00,
113,1: Austria,438.600000,431.000000,7.60 MHz,DUP-,On,FM,OE7XWT,OE7XWT,Tone,77.0,OE7XWT,,Exact,47°34'39.7920000"N,12°12'34.4880000"E,+1:00,
114,1: Austria,438.200000,430.600000,7.60 MHz,DUP-,On,DV,OE7XXR,OE7XXR,None,88.5,OE7XXR B,OE7XXR G,Exact,47°28'2.5680000"N,11°49'37.0200000"E,+1:00,
115,1: Austria,145.675000,145.075000,600 kHz,DUP-,On,FM,OE7XZH,OE7XZH,None,88.5,OE7XZH,,Exact,47°22'54.3324000"N,11°52'27.5844000"E,+1:00,
116,1: Austria,438.975000,431.375000,7.60 MHz,DUP-,On,FM,OE7XZT,OE7XZT,Tone,77.0,OE7XZT,,Exact,47°8'13.8120000"N,11°52'9.4080000"E,+1:00,
117,1: Austria,438.650000,431.050000,7.60 MHz,DUP-,On,FM,OE8XCK,OE8XCK,None,88.5,OE8XCK,,Exact,46°36'42.8040000"N,14°17'52.8360000"E,+1:00,
118,1: Austria,145.650000,145.050000,600 kHz,DUP-,On,FM,OE8XDK,OE8XDK,Tone,88.5,OE8XDK,,Exact,46°45'42.4440000"N,13°27'26.1000000"E,+1:00,
119,1: Austria,439.000000,431.400000,7.60 MHz,DUP-,On,FM,OE8XDK,OE8XDK,Tone,88.5,OE8XDK,,Exact,46°45'42.4440000"N,13°27'26.1000000"E,+1:00,
120,1: Austria,438.900000,431.300000,7.60 MHz,DUP-,On,FM,OE8XFK,OE8XFK,Tone,88.5,OE8XFK,,Exact,46°36'12.2292000"N,13°40'15.5604000"E,+1:00,
121,1: Austria,438.837500,431.237500,7.60 MHz,DUP-,On,DV,OE8XKK,OE8XKK,None,88.5,OE8XKK B,OE8XKK G,Exact,46°36'32.0904000"N,14°8'41.2440000"E,+1:00,
122,1: Austria,438.300000,430.700000,7.60 MHz,DUP-,On,FM,OE8XKP,OE8XKP,Tone,88.5,OE8XKP,,Exact,46°56'11.0040000"N,14°40'30.2160000"E,+1:00,
123,1: Austria,439.050000,431.450000,7.60 MHz,DUP-,On,FM,OE8XKQ,OE8XKQ,Tone,88.5,OE8XKQ,,Exact,46°41'42.0000000"N,13°54'51.0012000"E,+1:00,
124,1: Austria,145.625000,145.025000,600 kHz,DUP-,On,FM,OE8XMK,OE8XMK,Tone,88.5,OE8XMK,,Exact,46°43'40.9836000"N,14°25'45.9336000"E,+1:00,
125,1: Austria,438.425000,430.825000,7.60 MHz,DUP-,On,DV,OE8XMK,OE8XMK,None,88.5,OE8XMK B,OE8XMK G,Exact,46°43'40.9836000"N,14°25'45.9336000"E,+1:00,
126,1: Austria,438.575000,430.975000,7.60 MHz,DUP-,On,FM,OE8XMK,OE8XMK,Tone,88.5,OE8XMK,,Exact,46°43'40.9836000"N,14°25'45.9336000"E,+1:00,
127,1: Austria,145.762500,145.162500,600 kHz,DUP-,On,FM,OE8XNK,OE8XNK,None,88.5,OE8XNK,,Exact,46°41'42.0000000"N,13°54'51.0012000"E,+1:00,
128,1: Austria,145.650000,145.050000,600 kHz,DUP-,On,FM,OE8XOK,OE8XOK,None,88.5,OE8XOK,,Exact,46°45'42.4440000"N,13°27'26.1000000"E,+1:00,
129,1: Austria,145.737500,145.137500,600 kHz,DUP-,On,FM,OE8XPK,OE8XPK,Tone,88.5,OE8XPK,,Exact,46°31'6.6252000"N,14°46'22.7460000"E,+1:00,
130,1: Austria,438.700000,431.100000,7.60 MHz,DUP-,On,DV,OE8XPK,OE8XPK,None,88.5,OE8XPK B,OE8XPK G,Exact,46°31'6.6252000"N,14°46'22.7460000"E,+1:00,
131,1: Austria,439.087500,431.487500,7.60 MHz,DUP-,On,FM,OE8XPK,OE8XPK,None,88.5,OE8XPK,,Exact,46°31'6.6252000"N,14°46'22.7460000"E,+1:00,
132,1: Austria,438.550000,430.950000,7.60 MHz,DUP-,On,FM,OE8XVK,OE8XVK,Tone,88.5,OE8XVK,,Exact,46°36'58.0320000"N,13°51'27.9720000"E,+1:00,
133,1: Austria,438.550000,430.950000,7.60 MHz,DUP-,On,DV,OE8XVK,OE8XVK,Tone,88.5,OE8XVK B,OE8XVK G,Exact,46°36'58.0320000"N,13°51'27.9720000"E,+1:00,
134,1: Austria,438.775000,431.175000,7.60 MHz,DUP-,On,DV,OE8XWZ,OE8XWZ,None,88.5,OE8XWZ B,OE8XWZ G,Exact,46°39'51.8760000"N,14°15'25.3080000"E,+1:00,
135,1: Austria,438.525000,430.925000,7.60 MHz,DUP-,On,FM,OE9XFV,OE9XFV,Tone,85.4,OE9XFV,,Exact,47°29'24.1080000"N,9°44'51.3960000"E,+1:00,
136,1: Austria,438.625000,431.025000,7.60 MHz,DUP-,On,FM,OE9XKV,OE9XKV,Tone,85.4,OE9XKV,,Exact,47°23'16.9023647"N,9°45'3.0178070"E,+1:00,
137,1: Austria,145.650000,145.050000,600 kHz,DUP-,On,FM,OE9XVI,OE9XVI,Tone,85.4,OE9XVI,,Exact,47°12'33.0480000"N,9°35'27.8484000"E,+1:00,
138,1: Austria,438.200000,430.600000,7.60 MHz,DUP-,On,DV,OE9XVI,OE9XVI,None,88.5,OE9XVI B,OE9XVI G,Exact,47°12'33.0480000"N,9°35'27.8484000"E,+1:00,
139,1: Austria,438.825000,431.225000,7.60 MHz,DUP-,On,FM,OE9XVV,OE9XVV,Tone,85.4,OE9XVV,,Exact,47°13'44.5080000"N,9°44'16.0296000"E,+1:00,
140,1: Austria,438.587500,430.987500,7.60 MHz,DUP-,On,FM,OE9XXD,OE9XXD,Tone,85.4,OE9XXD,,Exact,47°24'4.6800000"N,9°43'21.7200000"E,+1:00,
